user/sim/wave.vcd
$date
	Mon Jul 15 21:57:24 2024
$end
$version
	ModelSim Version 2020.4
$end
$timescale
	1ns
$end

$scope module testbench $end
$var parameter 32 ! WIDTH $end
$var parameter 32 " DEPTH $end
$var parameter 32 # MAIN_FRE $end
$var reg 1 $ sys_clk $end
$var reg 1 % sys_rst $end
$var wire 1 & i_tready $end
$var wire 1 ' o_tdata [31] $end
$var wire 1 ( o_tdata [30] $end
$var wire 1 ) o_tdata [29] $end
$var wire 1 * o_tdata [28] $end
$var wire 1 + o_tdata [27] $end
$var wire 1 , o_tdata [26] $end
$var wire 1 - o_tdata [25] $end
$var wire 1 . o_tdata [24] $end
$var wire 1 / o_tdata [23] $end
$var wire 1 0 o_tdata [22] $end
$var wire 1 1 o_tdata [21] $end
$var wire 1 2 o_tdata [20] $end
$var wire 1 3 o_tdata [19] $end
$var wire 1 4 o_tdata [18] $end
$var wire 1 5 o_tdata [17] $end
$var wire 1 6 o_tdata [16] $end
$var wire 1 7 o_tdata [15] $end
$var wire 1 8 o_tdata [14] $end
$var wire 1 9 o_tdata [13] $end
$var wire 1 : o_tdata [12] $end
$var wire 1 ; o_tdata [11] $end
$var wire 1 < o_tdata [10] $end
$var wire 1 = o_tdata [9] $end
$var wire 1 > o_tdata [8] $end
$var wire 1 ? o_tdata [7] $end
$var wire 1 @ o_tdata [6] $end
$var wire 1 A o_tdata [5] $end
$var wire 1 B o_tdata [4] $end
$var wire 1 C o_tdata [3] $end
$var wire 1 D o_tdata [2] $end
$var wire 1 E o_tdata [1] $end
$var wire 1 F o_tdata [0] $end
$var wire 1 G o_tvalid $end
$var wire 1 H space [15] $end
$var wire 1 I space [14] $end
$var wire 1 J space [13] $end
$var wire 1 K space [12] $end
$var wire 1 L space [11] $end
$var wire 1 M space [10] $end
$var wire 1 N space [9] $end
$var wire 1 O space [8] $end
$var wire 1 P space [7] $end
$var wire 1 Q space [6] $end
$var wire 1 R space [5] $end
$var wire 1 S space [4] $end
$var wire 1 T space [3] $end
$var wire 1 U space [2] $end
$var wire 1 V space [1] $end
$var wire 1 W space [0] $end
$var wire 1 X occupied [15] $end
$var wire 1 Y occupied [14] $end
$var wire 1 Z occupied [13] $end
$var wire 1 [ occupied [12] $end
$var wire 1 \ occupied [11] $end
$var wire 1 ] occupied [10] $end
$var wire 1 ^ occupied [9] $end
$var wire 1 _ occupied [8] $end
$var wire 1 ` occupied [7] $end
$var wire 1 a occupied [6] $end
$var wire 1 b occupied [5] $end
$var wire 1 c occupied [4] $end
$var wire 1 d occupied [3] $end
$var wire 1 e occupied [2] $end
$var wire 1 f occupied [1] $end
$var wire 1 g occupied [0] $end
$var reg 1 h clear $end
$var reg 32 i i_tdata [31:0] $end
$var reg 1 j i_tvalid $end
$var reg 1 k o_tready $end

$scope module u_sync_fifo_test $end
$var parameter 32 l WIDTH $end
$var parameter 32 m DEPTH $end
$var parameter 32 n ST_EMPTY $end
$var parameter 32 o PRE_READ $end
$var parameter 32 p READING $end
$var wire 1 q clock $end
$var wire 1 r reset $end
$var wire 1 s clear $end
$var wire 1 t i_tdata [31] $end
$var wire 1 u i_tdata [30] $end
$var wire 1 v i_tdata [29] $end
$var wire 1 w i_tdata [28] $end
$var wire 1 x i_tdata [27] $end
$var wire 1 y i_tdata [26] $end
$var wire 1 z i_tdata [25] $end
$var wire 1 { i_tdata [24] $end
$var wire 1 | i_tdata [23] $end
$var wire 1 } i_tdata [22] $end
$var wire 1 ~ i_tdata [21] $end
$var wire 1 !! i_tdata [20] $end
$var wire 1 "! i_tdata [19] $end
$var wire 1 #! i_tdata [18] $end
$var wire 1 $! i_tdata [17] $end
$var wire 1 %! i_tdata [16] $end
$var wire 1 &! i_tdata [15] $end
$var wire 1 '! i_tdata [14] $end
$var wire 1 (! i_tdata [13] $end
$var wire 1 )! i_tdata [12] $end
$var wire 1 *! i_tdata [11] $end
$var wire 1 +! i_tdata [10] $end
$var wire 1 ,! i_tdata [9] $end
$var wire 1 -! i_tdata [8] $end
$var wire 1 .! i_tdata [7] $end
$var wire 1 /! i_tdata [6] $end
$var wire 1 0! i_tdata [5] $end
$var wire 1 1! i_tdata [4] $end
$var wire 1 2! i_tdata [3] $end
$var wire 1 3! i_tdata [2] $end
$var wire 1 4! i_tdata [1] $end
$var wire 1 5! i_tdata [0] $end
$var wire 1 6! i_tvalid $end
$var wire 1 & i_tready $end
$var reg 32 7! o_tdata [31:0] $end
$var reg 1 8! o_tvalid $end
$var wire 1 9! o_tready $end
$var reg 16 :! space [15:0] $end
$var reg 16 ;! occupied [15:0] $end
$var wire 1 <! int_tdata [31] $end
$var wire 1 =! int_tdata [30] $end
$var wire 1 >! int_tdata [29] $end
$var wire 1 ?! int_tdata [28] $end
$var wire 1 @! int_tdata [27] $end
$var wire 1 A! int_tdata [26] $end
$var wire 1 B! int_tdata [25] $end
$var wire 1 C! int_tdata [24] $end
$var wire 1 D! int_tdata [23] $end
$var wire 1 E! int_tdata [22] $end
$var wire 1 F! int_tdata [21] $end
$var wire 1 G! int_tdata [20] $end
$var wire 1 H! int_tdata [19] $end
$var wire 1 I! int_tdata [18] $end
$var wire 1 J! int_tdata [17] $end
$var wire 1 K! int_tdata [16] $end
$var wire 1 L! int_tdata [15] $end
$var wire 1 M! int_tdata [14] $end
$var wire 1 N! int_tdata [13] $end
$var wire 1 O! int_tdata [12] $end
$var wire 1 P! int_tdata [11] $end
$var wire 1 Q! int_tdata [10] $end
$var wire 1 R! int_tdata [9] $end
$var wire 1 S! int_tdata [8] $end
$var wire 1 T! int_tdata [7] $end
$var wire 1 U! int_tdata [6] $end
$var wire 1 V! int_tdata [5] $end
$var wire 1 W! int_tdata [4] $end
$var wire 1 X! int_tdata [3] $end
$var wire 1 Y! int_tdata [2] $end
$var wire 1 Z! int_tdata [1] $end
$var wire 1 [! int_tdata [0] $end
$var wire 1 \! int_tready $end
$var wire 1 ]! full $end
$var wire 1 ^! empty $end
$var wire 1 _! write $end
$var wire 1 `! read_int $end
$var wire 1 a! read $end
$var reg 9 b! wr_addr [8:0] $end
$var reg 9 c! rd_addr [8:0] $end
$var reg 2 d! read_state [1:0] $end
$var reg 1 e! empty_reg $end
$var reg 1 f! full_reg $end
$var wire 1 g! dont_write_past_me [8] $end
$var wire 1 h! dont_write_past_me [7] $end
$var wire 1 i! dont_write_past_me [6] $end
$var wire 1 j! dont_write_past_me [5] $end
$var wire 1 k! dont_write_past_me [4] $end
$var wire 1 l! dont_write_past_me [3] $end
$var wire 1 m! dont_write_past_me [2] $end
$var wire 1 n! dont_write_past_me [1] $end
$var wire 1 o! dont_write_past_me [0] $end
$var wire 1 p! becoming_full $end

$scope module u_ram $end
$var parameter 32 q! WIDTH $end
$var parameter 32 r! DEPTH $end
$var wire 1 q clka $end
$var wire 1 s! ena $end
$var wire 1 _! wea $end
$var wire 1 t! addra [8] $end
$var wire 1 u! addra [7] $end
$var wire 1 v! addra [6] $end
$var wire 1 w! addra [5] $end
$var wire 1 x! addra [4] $end
$var wire 1 y! addra [3] $end
$var wire 1 z! addra [2] $end
$var wire 1 {! addra [1] $end
$var wire 1 |! addra [0] $end
$var wire 1 t dina [31] $end
$var wire 1 u dina [30] $end
$var wire 1 v dina [29] $end
$var wire 1 w dina [28] $end
$var wire 1 x dina [27] $end
$var wire 1 y dina [26] $end
$var wire 1 z dina [25] $end
$var wire 1 { dina [24] $end
$var wire 1 | dina [23] $end
$var wire 1 } dina [22] $end
$var wire 1 ~ dina [21] $end
$var wire 1 !! dina [20] $end
$var wire 1 "! dina [19] $end
$var wire 1 #! dina [18] $end
$var wire 1 $! dina [17] $end
$var wire 1 %! dina [16] $end
$var wire 1 &! dina [15] $end
$var wire 1 '! dina [14] $end
$var wire 1 (! dina [13] $end
$var wire 1 )! dina [12] $end
$var wire 1 *! dina [11] $end
$var wire 1 +! dina [10] $end
$var wire 1 ,! dina [9] $end
$var wire 1 -! dina [8] $end
$var wire 1 .! dina [7] $end
$var wire 1 /! dina [6] $end
$var wire 1 0! dina [5] $end
$var wire 1 1! dina [4] $end
$var wire 1 2! dina [3] $end
$var wire 1 3! dina [2] $end
$var wire 1 4! dina [1] $end
$var wire 1 5! dina [0] $end
$var reg 32 }! douta [31:0] $end
$var wire 1 q clkb $end
$var wire 1 ~! enb $end
$var wire 1 !" web $end
$var wire 1 "" addrb [8] $end
$var wire 1 #" addrb [7] $end
$var wire 1 $" addrb [6] $end
$var wire 1 %" addrb [5] $end
$var wire 1 &" addrb [4] $end
$var wire 1 '" addrb [3] $end
$var wire 1 (" addrb [2] $end
$var wire 1 )" addrb [1] $end
$var wire 1 *" addrb [0] $end
$var wire 1 +" dinb [31] $end
$var wire 1 ," dinb [30] $end
$var wire 1 -" dinb [29] $end
$var wire 1 ." dinb [28] $end
$var wire 1 /" dinb [27] $end
$var wire 1 0" dinb [26] $end
$var wire 1 1" dinb [25] $end
$var wire 1 2" dinb [24] $end
$var wire 1 3" dinb [23] $end
$var wire 1 4" dinb [22] $end
$var wire 1 5" dinb [21] $end
$var wire 1 6" dinb [20] $end
$var wire 1 7" dinb [19] $end
$var wire 1 8" dinb [18] $end
$var wire 1 9" dinb [17] $end
$var wire 1 :" dinb [16] $end
$var wire 1 ;" dinb [15] $end
$var wire 1 <" dinb [14] $end
$var wire 1 =" dinb [13] $end
$var wire 1 >" dinb [12] $end
$var wire 1 ?" dinb [11] $end
$var wire 1 @" dinb [10] $end
$var wire 1 A" dinb [9] $end
$var wire 1 B" dinb [8] $end
$var wire 1 C" dinb [7] $end
$var wire 1 D" dinb [6] $end
$var wire 1 E" dinb [5] $end
$var wire 1 F" dinb [4] $end
$var wire 1 G" dinb [3] $end
$var wire 1 H" dinb [2] $end
$var wire 1 I" dinb [1] $end
$var wire 1 J" dinb [0] $end
$var reg 32 K" doutb [31:0] $end
$var integer 32 L" i $end
$upscope $end
$upscope $end
$upscope $end
$enddefinitions $end
#0
$dumpvars
0$
1%
0h
b0 i
0j
0k
b0 7!
08!
b1000000000 :!
b0 ;!
b0 b!
b0 c!
b0 d!
1e!
0f!
b0 }!
b0 K"
b100000 !
b1000000000 "
b1100100 #
b100000 l
b1000000000 m
b0 n
b1 o
b10 p
b100000 q!
b1000000000 r!
b1000000000 L"
1&
0F
0E
0D
0C
0B
0A
0@
0?
0>
0=
0<
0;
0:
09
08
07
06
05
04
03
02
01
00
0/
0.
0-
0,
0+
0*
0)
0(
0'
0G
0W
0V
0U
0T
0S
0R
0Q
0P
0O
1N
0M
0L
0K
0J
0I
0H
0g
0f
0e
0d
0c
0b
0a
0`
0_
0^
0]
0\
0[
0Z
0Y
0X
0[!
0Z!
0Y!
0X!
0W!
0V!
0U!
0T!
0S!
0R!
0Q!
0P!
0O!
0N!
0M!
0L!
0K!
0J!
0I!
0H!
0G!
0F!
0E!
0D!
0C!
0B!
0A!
0@!
0?!
0>!
0=!
0<!
1\!
0]!
1^!
0_!
0`!
0a!
0o!
1n!
1m!
1l!
1k!
1j!
1i!
1h!
1g!
0p!
09!
06!
05!
04!
03!
02!
01!
00!
0/!
0.!
0-!
0,!
0+!
0*!
0)!
0(!
0'!
0&!
0%!
0$!
0#!
0"!
0!!
0~
0}
0|
0{
0z
0y
0x
0w
0v
0u
0t
0s
1r
0q
1J"
1I"
1H"
1G"
1F"
1E"
1D"
1C"
1B"
1A"
1@"
1?"
1>"
1="
1<"
1;"
1:"
19"
18"
17"
16"
15"
14"
13"
12"
11"
10"
1/"
1."
1-"
1,"
1+"
0*"
0)"
0("
0'"
0&"
0%"
0$"
0#"
0""
0!"
0~!
0|!
0{!
0z!
0y!
0x!
0w!
0v!
0u!
0t!
1s!
$end
#5
1$
1q
#10
0%
0$
0r
0q
b10100101101001011010010110100101 i
1j
15!
13!
10!
1.!
1-!
1+!
1(!
1&!
1%!
1#!
1~
1|
1{
1y
1v
1t
16!
1_!
#15
1$
1q
b1 b!
b1 d!
b111111111 :!
b1 ;!
1~!
1g
1W
1V
1U
1T
1S
1R
1Q
1P
1O
0N
1|!
#20
0$
0q
b1011010010110100101101001011010 i
05!
14!
03!
12!
11!
00!
1/!
0.!
0-!
1,!
0+!
1*!
1)!
0(!
1'!
0&!
0%!
1$!
0#!
1"!
1!!
0~
1}
0|
0{
1z
0y
1x
1w
0v
1u
0t
#25
1$
1q
b10 ;!
b111111110 :!
b10 b!
b10 d!
0e!
b1 c!
b10100101101001011010010110100101 K"
0~!
0^!
1[!
1Y!
1V!
1T!
1S!
1Q!
1N!
1L!
1K!
1I!
1F!
1D!
1C!
1A!
1>!
1<!
1*"
1o!
0|!
1{!
0W
0g
1f
1`!
1~!
#30
0$
0q
b10010001101000101011001111000 i
04!
10!
1+!
0*!
0$!
1#!
0"!
1~
0}
0x
0u
#35
1$
1q
18!
b10100101101001011010010110100101 7!
b1011010010110100101101001011010 K"
b11 b!
b10 c!
b111111101 :!
b11 ;!
0\!
0`!
1g
1W
0V
0*"
1)"
0o!
0n!
0m!
0l!
0k!
0j!
0i!
0h!
0g!
1|!
0[!
1Z!
0Y!
1X!
1W!
0V!
1U!
0T!
0S!
1R!
0Q!
1P!
1O!
0N!
1M!
0L!
0K!
1J!
0I!
1H!
1G!
0F!
1E!
0D!
0C!
1B!
0A!
1@!
1?!
0>!
1=!
0<!
1F
1D
1A
1?
1>
1<
19
17
16
14
11
1/
1.
1,
1)
1'
0~!
1G
#40
0$
0q
0j
06!
0_!
#45
1$
1q
#50
0$
0q
1h
1s
#55
1$
1q
b0 b!
b0 d!
b0 c!
1e!
b0 7!
08!
b1000000000 :!
b0 ;!
1\!
1`!
1p!
1~!
1^!
0g
0f
0W
0U
0T
0S
0R
0Q
0P
0O
1N
0F
0D
0A
0?
0>
0<
09
07
06
04
01
0/
0.
0,
0)
0'
0)"
1n!
1m!
1l!
1k!
1j!
1i!
1h!
1g!
0|!
0{!
0`!
0p!
0~!
0G
#60
0$
0q
0h
0s
#65
1$
1q
b10100101101001011010010110100101 }!
b1011010010110100101101001011010 7!
1E
1C
1B
1@
1=
1;
1:
18
15
13
12
10
1-
1+
1*
1(
#70
0$
0q
1k
19!
