user/sim/wave.vcd
$date
	Sat Aug 17 01:42:08 2024
$end
$version
	ModelSim Version 2020.4
$end
$timescale
	1ps
$end

$scope module tb_sync_fifo $end
$var parameter 32 ! INPUT_WIDTH $end
$var parameter 32 " OUTPUT_WIDTH $end
$var parameter 32 # WR_DEPTH $end
$var parameter 32 $ RD_DEPTH $end
$var parameter 32 % MODE $end
$var parameter 24 & DIRECTION $end
$var parameter 32 ' MAIN_FRE $end
$var reg 1 ( sys_clk $end
$var reg 1 ) sys_rst $end
$var wire 1 * valid $end
$var wire 1 + dout [15] $end
$var wire 1 , dout [14] $end
$var wire 1 - dout [13] $end
$var wire 1 . dout [12] $end
$var wire 1 / dout [11] $end
$var wire 1 0 dout [10] $end
$var wire 1 1 dout [9] $end
$var wire 1 2 dout [8] $end
$var wire 1 3 dout [7] $end
$var wire 1 4 dout [6] $end
$var wire 1 5 dout [5] $end
$var wire 1 6 dout [4] $end
$var wire 1 7 dout [3] $end
$var wire 1 8 dout [2] $end
$var wire 1 9 dout [1] $end
$var wire 1 : dout [0] $end
$var wire 1 ; full $end
$var wire 1 < empty $end
$var wire 1 = wr_data_count [4] $end
$var wire 1 > wr_data_count [3] $end
$var wire 1 ? wr_data_count [2] $end
$var wire 1 @ wr_data_count [1] $end
$var wire 1 A wr_data_count [0] $end
$var wire 1 B rd_data_count [4] $end
$var wire 1 C rd_data_count [3] $end
$var wire 1 D rd_data_count [2] $end
$var wire 1 E rd_data_count [1] $end
$var wire 1 F rd_data_count [0] $end
$var wire 1 G wr_data_space [4] $end
$var wire 1 H wr_data_space [3] $end
$var wire 1 I wr_data_space [2] $end
$var wire 1 J wr_data_space [1] $end
$var wire 1 K wr_data_space [0] $end
$var wire 1 L rd_data_space [4] $end
$var wire 1 M rd_data_space [3] $end
$var wire 1 N rd_data_space [2] $end
$var wire 1 O rd_data_space [1] $end
$var wire 1 P rd_data_space [0] $end
$var reg 1 Q wr_en $end
$var reg 1 R rd_en $end
$var reg 16 S din [15:0] $end

$scope module CP_fifo $end
$var parameter 32 T INPUT_WIDTH $end
$var parameter 32 U OUTPUT_WIDTH $end
$var parameter 32 V WR_DEPTH $end
$var parameter 32 W RD_DEPTH $end
$var parameter 32 X MODE $end
$var parameter 24 Y DIRECTION $end
$var parameter 32 Z RAM_NUM $end
$var parameter 32 [ RAM_WIDTH $end
$var parameter 32 \ RAM_DEPTH $end
$var parameter 32 ] RAM_WR_WIDTH $end
$var parameter 32 ^ RAM_RD_WIDTH $end
$var wire 1 _ clock $end
$var wire 1 ` reset $end
$var wire 1 a wr_en $end
$var wire 1 b din [15] $end
$var wire 1 c din [14] $end
$var wire 1 d din [13] $end
$var wire 1 e din [12] $end
$var wire 1 f din [11] $end
$var wire 1 g din [10] $end
$var wire 1 h din [9] $end
$var wire 1 i din [8] $end
$var wire 1 j din [7] $end
$var wire 1 k din [6] $end
$var wire 1 l din [5] $end
$var wire 1 m din [4] $end
$var wire 1 n din [3] $end
$var wire 1 o din [2] $end
$var wire 1 p din [1] $end
$var wire 1 q din [0] $end
$var wire 1 r rd_en $end
$var reg 1 s valid $end
$var reg 16 t dout [15:0] $end
$var wire 1 ; full $end
$var wire 1 < empty $end
$var reg 5 u wr_data_count [4:0] $end
$var wire 1 G wr_data_space [4] $end
$var wire 1 H wr_data_space [3] $end
$var wire 1 I wr_data_space [2] $end
$var wire 1 J wr_data_space [1] $end
$var wire 1 K wr_data_space [0] $end
$var reg 5 v rd_data_count [4:0] $end
$var wire 1 L rd_data_space [4] $end
$var wire 1 M rd_data_space [3] $end
$var wire 1 N rd_data_space [2] $end
$var wire 1 O rd_data_space [1] $end
$var wire 1 P rd_data_space [0] $end
$var reg 1 w rst_d1 $end
$var reg 1 x rst_d2 $end
$var wire 1 y sys_rst $end
$var reg 5 z wr_ptr [4:0] $end
$var reg 4 { wr_ptr_d1 [3:0] $end
$var reg 5 | rd_ptr [4:0] $end
$var reg 4 } rd_ptr_d1 [3:0] $end
$var reg 5 ~ rd_ptr_fwft [4:0] $end
$var reg 5 !! rd_ptr_fwft_d1 [4:0] $end
$var wire 1 "! ram_wr_en [0] $end
$var wire 1 #! ram_rd_en [0] $end
$var wire 1 $! ram_wr_addr [4] $end
$var wire 1 %! ram_wr_addr [3] $end
$var wire 1 &! ram_wr_addr [2] $end
$var wire 1 '! ram_wr_addr [1] $end
$var wire 1 (! ram_wr_addr [0] $end
$var wire 1 )! ram_rd_addr [4] $end
$var wire 1 *! ram_rd_addr [3] $end
$var wire 1 +! ram_rd_addr [2] $end
$var wire 1 ,! ram_rd_addr [1] $end
$var wire 1 -! ram_rd_addr [0] $end
$var wire 1 .! ram_wr_data [15] $end
$var wire 1 /! ram_wr_data [14] $end
$var wire 1 0! ram_wr_data [13] $end
$var wire 1 1! ram_wr_data [12] $end
$var wire 1 2! ram_wr_data [11] $end
$var wire 1 3! ram_wr_data [10] $end
$var wire 1 4! ram_wr_data [9] $end
$var wire 1 5! ram_wr_data [8] $end
$var wire 1 6! ram_wr_data [7] $end
$var wire 1 7! ram_wr_data [6] $end
$var wire 1 8! ram_wr_data [5] $end
$var wire 1 9! ram_wr_data [4] $end
$var wire 1 :! ram_wr_data [3] $end
$var wire 1 ;! ram_wr_data [2] $end
$var wire 1 <! ram_wr_data [1] $end
$var wire 1 =! ram_wr_data [0] $end
$var wire 1 >! ram_rd_data [15] $end
$var wire 1 ?! ram_rd_data [14] $end
$var wire 1 @! ram_rd_data [13] $end
$var wire 1 A! ram_rd_data [12] $end
$var wire 1 B! ram_rd_data [11] $end
$var wire 1 C! ram_rd_data [10] $end
$var wire 1 D! ram_rd_data [9] $end
$var wire 1 E! ram_rd_data [8] $end
$var wire 1 F! ram_rd_data [7] $end
$var wire 1 G! ram_rd_data [6] $end
$var wire 1 H! ram_rd_data [5] $end
$var wire 1 I! ram_rd_data [4] $end
$var wire 1 J! ram_rd_data [3] $end
$var wire 1 K! ram_rd_data [2] $end
$var wire 1 L! ram_rd_data [1] $end
$var wire 1 M! ram_rd_data [0] $end
$var reg 5 N! wr_ptr_b [4:0] $end
$var reg 5 O! rd_ptr_b [4:0] $end
$var wire 1 P! ram_wr_addr_b [4] $end
$var wire 1 Q! ram_wr_addr_b [3] $end
$var wire 1 R! ram_wr_addr_b [2] $end
$var wire 1 S! ram_wr_addr_b [1] $end
$var wire 1 T! ram_wr_addr_b [0] $end
$var wire 1 U! ram_rd_addr_b [4] $end
$var wire 1 V! ram_rd_addr_b [3] $end
$var wire 1 W! ram_rd_addr_b [2] $end
$var wire 1 X! ram_rd_addr_b [1] $end
$var wire 1 Y! ram_rd_addr_b [0] $end
$var reg 1 Z! fwft_valid $end
$var integer 32 [! k $end

$scope begin RD_GRAY_COUNTER[3] $end
$var parameter 32 \! j $end
$upscope $end

$scope begin RD_GRAY_COUNTER[2] $end
$var parameter 32 ]! j $end
$upscope $end

$scope begin WR_GRAY_COUNTER[3] $end
$var parameter 32 ^! m $end
$upscope $end

$scope begin WR_GRAY_COUNTER[2] $end
$var parameter 32 _! m $end
$upscope $end

$scope begin genblk7 $end
$upscope $end

$scope begin genblk6 $end
$upscope $end

$scope begin genblk3 $end
$upscope $end

$scope begin fwft_mode_read $end
$var reg 1 `! empty_d1 $end
$upscope $end

$scope begin BIG_TO_SMALL_RAM $end
$var reg 1 a! ram_sel [0:0] $end
$var reg 1 b! rd_en_d1 [0:0] $end
$var wire 1 c! rd_en_d2 [0] $end

$scope begin B2S_DUAL_PORT_RAM[0] $end
$var parameter 32 d! i $end

$scope begin genblk3 $end

$scope module u_DPRAM $end
$var parameter 32 e! WIDTH $end
$var parameter 32 f! DEPTH $end
$var wire 1 _ clka $end
$var wire 1 g! ena $end
$var wire 1 "! wea $end
$var wire 1 %! addra [3] $end
$var wire 1 &! addra [2] $end
$var wire 1 '! addra [1] $end
$var wire 1 (! addra [0] $end
$var wire 1 b dina [15] $end
$var wire 1 c dina [14] $end
$var wire 1 d dina [13] $end
$var wire 1 e dina [12] $end
$var wire 1 f dina [11] $end
$var wire 1 g dina [10] $end
$var wire 1 h dina [9] $end
$var wire 1 i dina [8] $end
$var wire 1 j dina [7] $end
$var wire 1 k dina [6] $end
$var wire 1 l dina [5] $end
$var wire 1 m dina [4] $end
$var wire 1 n dina [3] $end
$var wire 1 o dina [2] $end
$var wire 1 p dina [1] $end
$var wire 1 q dina [0] $end
$var reg 16 h! douta [15:0] $end
$var wire 1 _ clkb $end
$var wire 1 #! enb $end
$var wire 1 i! web $end
$var wire 1 *! addrb [3] $end
$var wire 1 +! addrb [2] $end
$var wire 1 ,! addrb [1] $end
$var wire 1 -! addrb [0] $end
$var wire 1 j! dinb [15] $end
$var wire 1 k! dinb [14] $end
$var wire 1 l! dinb [13] $end
$var wire 1 m! dinb [12] $end
$var wire 1 n! dinb [11] $end
$var wire 1 o! dinb [10] $end
$var wire 1 p! dinb [9] $end
$var wire 1 q! dinb [8] $end
$var wire 1 r! dinb [7] $end
$var wire 1 s! dinb [6] $end
$var wire 1 t! dinb [5] $end
$var wire 1 u! dinb [4] $end
$var wire 1 v! dinb [3] $end
$var wire 1 w! dinb [2] $end
$var wire 1 x! dinb [1] $end
$var wire 1 y! dinb [0] $end
$var reg 16 z! doutb [15:0] $end
$var integer 32 {! i $end
$upscope $end
$upscope $end

$scope begin genblk2 $end
$upscope $end

$scope begin genblk1 $end
$upscope $end
$upscope $end

$scope begin genblk2 $end
$upscope $end
$upscope $end

$scope begin fwft_g2b $end

$scope begin genblk1 $end
$upscope $end
$upscope $end
$upscope $end
$upscope $end
$enddefinitions $end
#0
$dumpvars
0(
1)
0Q
0R
bx S
xs
b0 t
bx u
bx v
xw
xx
bx z
bx {
bx |
bx }
bx ~
bx !!
bx N!
bx O!
xZ!
x`!
b0 a!
bx b!
b0 h!
b0 z!
b10000 !
b10000 "
b10000 #
b10000 $
b1100100 '
b10000 T
b10000 U
b10000 V
b10000 W
b1 Z
b10000 [
b10000 \
b10000 ]
b10000 ^
b10 _!
b11 ^!
b10 ]!
b11 \!
b0 d!
b10000 e!
b10000 f!
b1000110010101110100011001010100 %
b10011000101001101000010 &
b1000110010101110100011001010100 X
b10011000101001101000010 Y
b10000 {!
bx [!
x*
0:
09
08
07
06
05
04
03
02
01
00
0/
0.
0-
0,
0+
x;
x<
xA
x@
x?
x>
x=
xF
xE
xD
xC
xB
xK
xJ
xI
xH
xG
xP
xO
xN
xM
xL
xy
0"!
x#!
x(!
x'!
x&!
x%!
x$!
x-!
x,!
x+!
x*!
x)!
z=!
z<!
z;!
z:!
z9!
z8!
z7!
z6!
z5!
z4!
z3!
z2!
z1!
z0!
z/!
z.!
0M!
0L!
0K!
0J!
0I!
0H!
0G!
0F!
0E!
0D!
0C!
0B!
0A!
0@!
0?!
0>!
xT!
xS!
xR!
xQ!
xP!
xY!
xX!
xW!
xV!
xU!
xc!
0r
xq
xp
xo
xn
xm
xl
xk
xj
xi
xh
xg
xf
xe
xd
xc
xb
0a
1`
0_
1g!
zi!
zy!
zx!
zw!
zv!
zu!
zt!
zs!
zr!
zq!
zp!
zo!
zn!
zm!
zl!
zk!
zj!
$end
#5000
1(
1_
0w
0x
bx h!
b100100011 S
1q
1p
0o
0n
0m
1l
0k
0j
1i
0h
0g
0f
0e
0d
0c
0b
0y
b0 !!
0s
b0 u
b0 v
b0 N!
b0 O!
b0 {
b0 z
b0 }
b0 |
0Z!
bx1 ~
bx11 ~
b0xx11 ~
b0x011 ~
b11 ~
1`!
b1 b!
0*
0F
0E
0D
0C
0B
0P
0O
0N
0M
1L
0A
0@
0?
0>
0=
0K
0J
0I
0H
1G
0-!
0,!
0+!
0*!
0)!
0(!
0'!
0&!
0%!
0$!
0Y!
0X!
0W!
0V!
0U!
0T!
0S!
0R!
0Q!
0P!
1c!
1<
0;
0#!
#10000
0(
0_
#15000
1(
1_
b0 h!
#20000
0(
0_
#25000
1(
1_
#30000
0(
0_
#35000
1(
1_
#40000
0(
0_
#45000
1(
1_
#50000
0)
0(
0`
0_
1w
#55000
1(
1_
1x
1y
b1 [!
b10 [!
b11 [!
b100 [!
b101 [!
b1 [!
b10 [!
b11 [!
b100 [!
b101 [!
#60000
0(
0_
#65000
1(
1_
#70000
0(
0_
#75000
1(
1_
#80000
0(
0_
#85000
1(
1_
#90000
0(
0_
#95000
1(
1_
#100000
1Q
0(
1a
1"!
0_
#105000
1(
1_
b1 z
b100100100 S
b1000100100 S
0q
0p
1o
0i
1h
1(!
0<
1#!
b1 [!
b10 [!
b11 [!
b100 [!
b101 [!
b1 N!
1T!
b1 [!
b10 [!
b11 [!
b100 [!
b101 [!
b1 u
b1 v
1F
1P
1O
1N
1M
0L
1A
1K
1J
1I
1H
0G
#110000
0(
0_
#115000
1(
1_
0`!
b1 {
b11 z
b100100011 z!
b1000100101 S
b1100100101 S
1q
1i
1M!
1L!
1H!
1E!
1'!
b1 [!
b10 [!
b11 [!
b100 [!
b101 [!
b100100011 t
b11 N!
1s
1:
19
15
12
1*
1S!
b1 [!
b10 [!
b11 [!
b100 [!
b101 [!
b11 u
b11 v
b10 N!
1E
0O
1@
0J
0T!
b1 [!
b10 [!
b11 [!
b100 [!
b101 [!
b10 u
b10 v
0F
0P
1O
0A
0K
1J
#120000
0(
0_
#125000
1(
1_
b11 {
b10 z
b1100100110 S
b10000100110 S
0q
1p
0i
0h
1g
0(!
b1 [!
b10 [!
b11 [!
b100 [!
b101 [!
b11 N!
1T!
b1 [!
b10 [!
b11 [!
b100 [!
b101 [!
b11 u
b11 v
1F
1P
0O
1A
1K
0J
#130000
0(
0_
#135000
1(
1_
b10 {
b110 z
b10000100111 S
b10100100111 S
1q
1i
1&!
b1 [!
b10 [!
b11 [!
b100 [!
b101 [!
b111 N!
1R!
b1 [!
b10 [!
b11 [!
b100 [!
b101 [!
b111 u
b111 v
b101 N!
1D
0N
1?
0I
0S!
b1 [!
b10 [!
b11 [!
b100 [!
b101 [!
b101 u
b101 v
b100 N!
0E
1O
0@
1J
0T!
b1 [!
b10 [!
b11 [!
b100 [!
b101 [!
b100 u
b100 v
0F
0P
0O
1N
0A
0K
0J
1I
#140000
0(
0_
#145000
1(
1_
b110 {
b111 z
b10100101000 S
b11000101000 S
0q
0p
0o
1n
0i
1h
1(!
b1 [!
b10 [!
b11 [!
b100 [!
b101 [!
b101 N!
1T!
b1 [!
b10 [!
b11 [!
b100 [!
b101 [!
b101 u
b101 v
1F
1P
1O
0N
1A
1K
1J
0I
#150000
0(
0_
#155000
1(
1_
b111 {
b101 z
b11000101001 S
b11100101001 S
1q
1i
0'!
b1 [!
b10 [!
b11 [!
b100 [!
b101 [!
b111 N!
1S!
b1 [!
b10 [!
b11 [!
b100 [!
b101 [!
b111 u
b111 v
b110 N!
1E
0O
1@
0J
0T!
b1 [!
b10 [!
b11 [!
b100 [!
b101 [!
b110 u
b110 v
0F
0P
1O
0A
0K
1J
#160000
0(
0_
#165000
1(
1_
b101 {
b100 z
b11100101010 S
b100000101010 S
0q
1p
0i
0h
0g
1f
0(!
b1 [!
b10 [!
b11 [!
b100 [!
b101 [!
b111 N!
1T!
b1 [!
b10 [!
b11 [!
b100 [!
b101 [!
b111 u
b111 v
1F
1P
0O
1A
1K
0J
#170000
0(
0_
#175000
1(
1_
b100 {
b1100 z
b100000101011 S
b100100101011 S
1q
1i
1%!
b1 [!
b10 [!
b11 [!
b100 [!
b101 [!
b1111 N!
1Q!
b1 [!
b10 [!
b11 [!
b100 [!
b101 [!
b1111 u
b1111 v
b1011 N!
1C
0M
1>
0H
0R!
b1 [!
b10 [!
b11 [!
b100 [!
b101 [!
b1011 u
b1011 v
b1001 N!
0D
1N
0?
1I
0S!
b1 [!
b10 [!
b11 [!
b100 [!
b101 [!
b1001 u
b1001 v
b1000 N!
0E
1O
0@
1J
0T!
b1 [!
b10 [!
b11 [!
b100 [!
b101 [!
b1000 u
b1000 v
0F
0P
0O
0N
1M
0A
0K
0J
0I
1H
#180000
0(
0_
#185000
1(
1_
b1100 {
b1101 z
b100100101100 S
b101000101100 S
0q
0p
1o
0i
1h
1(!
b1 [!
b10 [!
b11 [!
b100 [!
b101 [!
b1001 N!
1T!
b1 [!
b10 [!
b11 [!
b100 [!
b101 [!
b1001 u
b1001 v
1F
1P
1O
1N
0M
1A
1K
1J
1I
0H
#190000
0(
0_
#195000
1(
1_
b1101 {
b1111 z
b101000101101 S
b101100101101 S
1q
1i
1'!
b1 [!
b10 [!
b11 [!
b100 [!
b101 [!
b1011 N!
1S!
b1 [!
b10 [!
b11 [!
b100 [!
b101 [!
b1011 u
b1011 v
b1010 N!
1E
0O
1@
0J
0T!
b1 [!
b10 [!
b11 [!
b100 [!
b101 [!
b1010 u
b1010 v
0F
0P
1O
0A
0K
1J
#200000
0(
0_
#205000
1(
1_
b1111 {
b1110 z
b101100101110 S
b110000101110 S
0q
1p
0i
0h
1g
0(!
b1 [!
b10 [!
b11 [!
b100 [!
b101 [!
b1011 N!
1T!
b1 [!
b10 [!
b11 [!
b100 [!
b101 [!
b1011 u
b1011 v
1F
1P
0O
1A
1K
0J
#210000
0(
0_
#215000
1(
1_
b1110 {
b1010 z
b110000101111 S
b110100101111 S
1q
1i
0&!
b1 [!
b10 [!
b11 [!
b100 [!
b101 [!
b1111 N!
1R!
b1 [!
b10 [!
b11 [!
b100 [!
b101 [!
b1111 u
b1111 v
b1101 N!
1D
0N
1?
0I
0S!
b1 [!
b10 [!
b11 [!
b100 [!
b101 [!
b1101 u
b1101 v
b1100 N!
0E
1O
0@
1J
0T!
b1 [!
b10 [!
b11 [!
b100 [!
b101 [!
b1100 u
b1100 v
0F
0P
0O
1N
0A
0K
0J
1I
#220000
0(
0_
#225000
1(
1_
b1010 {
b1011 z
b110100110000 S
b111000110000 S
0q
0p
0o
0n
1m
0i
1h
1(!
b1 [!
b10 [!
b11 [!
b100 [!
b101 [!
b1101 N!
1T!
b1 [!
b10 [!
b11 [!
b100 [!
b101 [!
b1101 u
b1101 v
1F
1P
1O
0N
1A
1K
1J
0I
#230000
0(
0_
#235000
1(
1_
b1011 {
b1001 z
b111000110001 S
b111100110001 S
1q
1i
0'!
b1 [!
b10 [!
b11 [!
b100 [!
b101 [!
b1111 N!
1S!
b1 [!
b10 [!
b11 [!
b100 [!
b101 [!
b1111 u
b1111 v
b1110 N!
1E
0O
1@
0J
0T!
b1 [!
b10 [!
b11 [!
b100 [!
b101 [!
b1110 u
b1110 v
0F
0P
1O
0A
0K
1J
#240000
0(
0_
#245000
1(
1_
b1001 {
b1000 z
b111100110010 S
b1000000110010 S
0q
1p
0i
0h
0g
0f
1e
0(!
b1 [!
b10 [!
b11 [!
b100 [!
b101 [!
b1111 N!
1T!
b1 [!
b10 [!
b11 [!
b100 [!
b101 [!
b1111 u
b1111 v
1F
1P
0O
1A
1K
0J
#250000
0(
0_
#255000
1(
1_
b1000 {
b11000 z
b1000000110011 S
b1000100110011 S
1q
1i
1$!
1;
0"!
b1 [!
b10 [!
b11 [!
b100 [!
b101 [!
b11111 u
b11111 v
b11111 N!
1B
1L
1=
1G
1P!
b1 [!
b10 [!
b11 [!
b100 [!
b101 [!
b10111 N!
0Q!
b1 [!
b10 [!
b11 [!
b100 [!
b101 [!
b10111 u
b10111 v
b10011 N!
0C
1M
0>
1H
0R!
b1 [!
b10 [!
b11 [!
b100 [!
b101 [!
b10011 u
b10011 v
b10001 N!
0D
1N
0?
1I
0S!
b1 [!
b10 [!
b11 [!
b100 [!
b101 [!
b10001 u
b10001 v
b10000 N!
0E
1O
0@
1J
0T!
b1 [!
b10 [!
b11 [!
b100 [!
b101 [!
b10000 u
b10000 v
0F
0P
0O
0N
0M
0L
0A
0K
0J
0I
0H
0G
#260000
0(
0_
#265000
1(
1_
b1000000110010 h!
b1000100110100 S
b1001000110100 S
0q
0p
1o
0i
1h
#270000
0(
0_
#275000
1(
1_
b1001000110101 S
b1001100110101 S
1q
1i
#280000
0(
0_
#285000
1(
1_
b1001100110110 S
b1010000110110 S
0q
1p
0i
0h
1g
#290000
0(
0_
#292000
0Q
0a
#295000
1(
1_
#300000
0(
0_
#305000
1(
1_
#310000
0(
0_
#315000
1(
1_
#320000
0(
0_
#325000
1(
1_
#330000
0(
0_
#335000
1(
1_
#340000
0(
0_
#345000
1(
1_
#350000
0(
0_
#355000
1(
1_
#360000
0(
0_
#365000
1(
1_
#370000
0(
0_
#375000
1(
1_
#380000
0(
0_
#385000
1(
1_
#390000
0(
0_
#395000
1(
1_
#400000
0(
0_
#405000
1(
1_
#410000
0(
0_
#415000
1(
1_
#420000
0(
0_
#425000
1(
1_
#430000
0(
0_
#435000
1(
1_
#440000
0(
0_
#445000
1(
1_
#450000
0(
0_
#455000
1(
1_
#460000
0(
0_
#465000
1(
1_
#470000
0(
0_
#475000
1(
1_
#480000
0(
0_
#485000
1(
1_
#490000
0(
0_
#492000
1R
1r
b1 !!
b1 a!
#495000
1(
1_
b1 |
1Z!
1-!
0;
b1 [!
b10 [!
b11 [!
b100 [!
b101 [!
b11 !!
b1 O!
1Y!
b1 [!
b10 [!
b11 [!
b100 [!
b101 [!
b1111 u
b1111 v
1F
1E
1D
1C
0B
1P
1A
1@
1?
1>
0=
1K
#500000
0(
0_
#505000
1(
1_
b1000100100 z!
b1 }
b11 |
b10 ~
1,!
0M!
0L!
1K!
0E!
1D!
b1 [!
b10 [!
b11 [!
b100 [!
b101 [!
b1000100100 t
b10 !!
b11 O!
0:
09
18
02
11
1X!
b1 [!
b10 [!
b11 [!
b100 [!
b101 [!
b1101 u
b1101 v
b10 O!
0E
1O
0@
1J
0Y!
b1 [!
b10 [!
b11 [!
b100 [!
b101 [!
b1110 u
b1110 v
0F
1E
0P
0A
1@
0K
#510000
0(
0_
#515000
1(
1_
b110 ~
b11 }
b10 |
b1100100101 z!
1M!
1E!
0-!
b1 [!
b10 [!
b11 [!
b100 [!
b101 [!
b1100100101 t
b11 O!
b110 !!
1:
12
1Y!
b1 [!
b10 [!
b11 [!
b100 [!
b101 [!
b1101 u
b1101 v
1F
0E
1P
1A
0@
1K
#520000
0(
0_
#525000
1(
1_
b10000100110 z!
b10 }
b110 |
b111 ~
1+!
0M!
1L!
0E!
0D!
1C!
b1 [!
b10 [!
b11 [!
b100 [!
b101 [!
b10000100110 t
b111 !!
b111 O!
0:
19
02
01
10
1W!
b1 [!
b10 [!
b11 [!
b100 [!
b101 [!
b1001 u
b1001 v
b101 O!
0D
1N
0?
1I
0X!
b1 [!
b10 [!
b11 [!
b100 [!
b101 [!
b1011 u
b1011 v
b100 O!
1E
0O
1@
0J
0Y!
b1 [!
b10 [!
b11 [!
b100 [!
b101 [!
b1100 u
b1100 v
0F
0E
1D
0P
0A
0@
1?
0K
#530000
0(
0_
#535000
1(
1_
b101 ~
b110 }
b111 |
b10100100111 z!
1M!
1E!
1-!
b1 [!
b10 [!
b11 [!
b100 [!
b101 [!
b10100100111 t
b101 O!
b101 !!
1:
12
1Y!
b1 [!
b10 [!
b11 [!
b100 [!
b101 [!
b1011 u
b1011 v
1F
1E
0D
1P
1A
1@
0?
1K
#540000
0(
0_
#545000
1(
1_
b11000101000 z!
b111 }
b101 |
b100 ~
0,!
0M!
0L!
0K!
1J!
0E!
1D!
b1 [!
b10 [!
b11 [!
b100 [!
b101 [!
b11000101000 t
b100 !!
b111 O!
0:
09
08
17
02
11
1X!
b1 [!
b10 [!
b11 [!
b100 [!
b101 [!
b1001 u
b1001 v
b110 O!
0E
1O
0@
1J
0Y!
b1 [!
b10 [!
b11 [!
b100 [!
b101 [!
b1010 u
b1010 v
0F
1E
0P
0A
1@
0K
#550000
0(
0_
#555000
1(
1_
b1100 ~
b101 }
b100 |
b11100101001 z!
1M!
1E!
0-!
b1 [!
b10 [!
b11 [!
b100 [!
b101 [!
b11100101001 t
b111 O!
b1100 !!
1:
12
1Y!
b1 [!
b10 [!
b11 [!
b100 [!
b101 [!
b1001 u
b1001 v
1F
0E
1P
1A
0@
1K
#560000
0(
0_
#565000
1(
1_
b100000101010 z!
b100 }
b1100 |
b1101 ~
1*!
0M!
1L!
0E!
0D!
0C!
1B!
b1 [!
b10 [!
b11 [!
b100 [!
b101 [!
b100000101010 t
b1101 !!
b1111 O!
0:
19
02
01
00
1/
1V!
b1 [!
b10 [!
b11 [!
b100 [!
b101 [!
b1 u
b1 v
b1011 O!
0C
1M
0>
1H
0W!
b1 [!
b10 [!
b11 [!
b100 [!
b101 [!
b101 u
b101 v
b1001 O!
1D
0N
1?
0I
0X!
b1 [!
b10 [!
b11 [!
b100 [!
b101 [!
b111 u
b111 v
b1000 O!
1E
0O
1@
0J
0Y!
b1 [!
b10 [!
b11 [!
b100 [!
b101 [!
b1000 u
b1000 v
0F
0E
0D
1C
0P
0A
0@
0?
1>
0K
#570000
0(
0_
#575000
1(
1_
b1111 ~
b1100 }
b1101 |
b100100101011 z!
1M!
1E!
1-!
b1 [!
b10 [!
b11 [!
b100 [!
b101 [!
b100100101011 t
b1001 O!
b1111 !!
1:
12
1Y!
b1 [!
b10 [!
b11 [!
b100 [!
b101 [!
b111 u
b111 v
1F
1E
1D
0C
1P
1A
1@
1?
0>
1K
#580000
0(
0_
#585000
1(
1_
b101000101100 z!
b1101 }
b1111 |
b1110 ~
1,!
0M!
0L!
1K!
0E!
1D!
b1 [!
b10 [!
b11 [!
b100 [!
b101 [!
b101000101100 t
b1110 !!
b1011 O!
0:
09
18
02
11
1X!
b1 [!
b10 [!
b11 [!
b100 [!
b101 [!
b101 u
b101 v
b1010 O!
0E
1O
0@
1J
0Y!
b1 [!
b10 [!
b11 [!
b100 [!
b101 [!
b110 u
b110 v
0F
1E
0P
0A
1@
0K
#590000
0(
0_
#595000
1(
1_
b1010 ~
b1111 }
b1110 |
b101100101101 z!
1M!
1E!
0-!
b1 [!
b10 [!
b11 [!
b100 [!
b101 [!
b101100101101 t
b1011 O!
b1010 !!
1:
12
1Y!
b1 [!
b10 [!
b11 [!
b100 [!
b101 [!
b101 u
b101 v
1F
0E
1P
1A
0@
1K
#600000
0(
0_
#605000
1(
1_
b110000101110 z!
b1110 }
b1010 |
b1011 ~
0+!
0M!
1L!
0E!
0D!
1C!
b1 [!
b10 [!
b11 [!
b100 [!
b101 [!
b110000101110 t
b1011 !!
b1111 O!
0:
19
02
01
10
1W!
b1 [!
b10 [!
b11 [!
b100 [!
b101 [!
b1 u
b1 v
b1101 O!
0D
1N
0?
1I
0X!
b1 [!
b10 [!
b11 [!
b100 [!
b101 [!
b11 u
b11 v
b1100 O!
1E
0O
1@
0J
0Y!
b1 [!
b10 [!
b11 [!
b100 [!
b101 [!
b100 u
b100 v
0F
0E
1D
0P
0A
0@
1?
0K
#610000
0(
0_
#615000
1(
1_
b1001 ~
b1010 }
b1011 |
b110100101111 z!
1M!
1E!
1-!
b1 [!
b10 [!
b11 [!
b100 [!
b101 [!
b110100101111 t
b1101 O!
b1001 !!
1:
12
1Y!
b1 [!
b10 [!
b11 [!
b100 [!
b101 [!
b11 u
b11 v
1F
1E
0D
1P
1A
1@
0?
1K
#620000
0(
0_
#625000
1(
1_
b111000110000 z!
b1011 }
b1001 |
b1000 ~
0,!
0M!
0L!
0K!
0J!
1I!
0E!
1D!
b1 [!
b10 [!
b11 [!
b100 [!
b101 [!
b111000110000 t
b1000 !!
b1111 O!
0:
09
08
07
16
02
11
1X!
b1 [!
b10 [!
b11 [!
b100 [!
b101 [!
b1 u
b1 v
b1110 O!
0E
1O
0@
1J
0Y!
b1 [!
b10 [!
b11 [!
b100 [!
b101 [!
b10 u
b10 v
0F
1E
0P
0A
1@
0K
#630000
0(
0_
#635000
1(
1_
b11000 ~
b1001 }
b1000 |
b111100110001 z!
1M!
1E!
0-!
b1 [!
b10 [!
b11 [!
b100 [!
b101 [!
b111100110001 t
b1111 O!
b11000 !!
1:
12
1Y!
b1 [!
b10 [!
b11 [!
b100 [!
b101 [!
b1 u
b1 v
1F
0E
1P
1A
0@
1K
#640000
0(
0_
#645000
1(
1_
b1000000110010 z!
b1000 }
b11000 |
b11001 ~
1)!
0M!
1L!
0E!
0D!
0C!
0B!
1A!
1<
0#!
b1 [!
b10 [!
b11 [!
b100 [!
b101 [!
b1000000110010 t
b11001 !!
b11111 O!
0:
19
02
01
00
0/
1.
1U!
b1 [!
b10 [!
b11 [!
b100 [!
b101 [!
b10001 u
b10001 v
b10111 O!
1B
1L
1=
1G
0V!
b1 [!
b10 [!
b11 [!
b100 [!
b101 [!
b11001 u
b11001 v
b10011 O!
1C
0M
1>
0H
0W!
b1 [!
b10 [!
b11 [!
b100 [!
b101 [!
b11101 u
b11101 v
b10001 O!
1D
0N
1?
0I
0X!
b1 [!
b10 [!
b11 [!
b100 [!
b101 [!
b11111 u
b11111 v
b10000 O!
1E
0O
1@
0J
0Y!
b1 [!
b10 [!
b11 [!
b100 [!
b101 [!
b0 u
b0 v
0F
0E
0D
0C
0B
0P
0A
0@
0?
0>
0=
0K
#650000
0(
0_
#655000
1(
1_
1`!
0s
0*
#660000
0(
0_
#665000
1(
1_
#670000
0(
0_
#675000
1(
1_
#680000
0(
0_
#685000
1(
1_
#690000
0(
0_
#695000
1(
1_
#700000
0(
0_
#705000
1(
1_
#710000
0(
0_
#715000
1(
1_
#720000
0(
0_
#725000
1(
1_
#730000
0(
0_
#735000
1(
1_
#740000
0(
0_
#745000
1(
1_
#750000
0(
0_
#755000
1(
1_
#760000
0(
0_
#765000
1(
1_
#770000
0(
0_
#775000
1(
1_
#780000
0(
0_
#785000
1(
1_
#790000
0(
0_
#795000
1(
1_
#800000
0(
0_
#805000
1(
1_
#810000
0(
0_
#815000
1(
1_
#820000
0(
0_
#825000
1(
1_
#830000
0(
0_
#835000
1(
1_
#840000
0(
0_
