user/sim/wave.vcd
$date
	Sat Sep 21 12:13:36 2024
$end
$version
	ModelSim Version 2020.4
$end
$timescale
	1ps
$end

$scope module tb_spi $end
$var parameter 32 ! CPOL $end
$var parameter 32 " CPHA $end
$var parameter 32 # CE_LEVEL $end
$var parameter 32 $ DATA_WIDTH $end
$var parameter 26 % CLK_FREQ $end
$var parameter 26 & SPI_FREQ $end
$var parameter 32 ' MAIN_FRE $end
$var reg 1 ( sys_clk $end
$var reg 1 ) sys_rst $end
$var wire 1 * rx_data [23] $end
$var wire 1 + rx_data [22] $end
$var wire 1 , rx_data [21] $end
$var wire 1 - rx_data [20] $end
$var wire 1 . rx_data [19] $end
$var wire 1 / rx_data [18] $end
$var wire 1 0 rx_data [17] $end
$var wire 1 1 rx_data [16] $end
$var wire 1 2 rx_data [15] $end
$var wire 1 3 rx_data [14] $end
$var wire 1 4 rx_data [13] $end
$var wire 1 5 rx_data [12] $end
$var wire 1 6 rx_data [11] $end
$var wire 1 7 rx_data [10] $end
$var wire 1 8 rx_data [9] $end
$var wire 1 9 rx_data [8] $end
$var wire 1 : rx_data [7] $end
$var wire 1 ; rx_data [6] $end
$var wire 1 < rx_data [5] $end
$var wire 1 = rx_data [4] $end
$var wire 1 > rx_data [3] $end
$var wire 1 ? rx_data [2] $end
$var wire 1 @ rx_data [1] $end
$var wire 1 A rx_data [0] $end
$var wire 1 B spi_done $end
$var wire 1 C sclk $end
$var wire 1 D mosi $end
$var wire 1 E ce $end
$var reg 1 F spi_exe $end
$var reg 24 G tx_data [23:0] $end
$var wire 1 H miso $end
$var reg 6 I wait_cnt [5:0] $end
$var wire 1 J wr_end $end
$var wire 1 K rd_end $end
$var wire 1 L rd_data [7] $end
$var wire 1 M rd_data [6] $end
$var wire 1 N rd_data [5] $end
$var wire 1 O rd_data [4] $end
$var wire 1 P rd_data [3] $end
$var wire 1 Q rd_data [2] $end
$var wire 1 R rd_data [1] $end
$var wire 1 S rd_data [0] $end
$var wire 1 T spi_clk $end
$var wire 1 U spi_enb $end
$var wire 1 V spi_di $end
$var wire 1 W rd_addr $end
$var wire 1 X spi_do $end
$var wire 1 Y slave_done $end
$var wire 1 Z slave_rx_data [23] $end
$var wire 1 [ slave_rx_data [22] $end
$var wire 1 \ slave_rx_data [21] $end
$var wire 1 ] slave_rx_data [20] $end
$var wire 1 ^ slave_rx_data [19] $end
$var wire 1 _ slave_rx_data [18] $end
$var wire 1 ` slave_rx_data [17] $end
$var wire 1 a slave_rx_data [16] $end
$var wire 1 b slave_rx_data [15] $end
$var wire 1 c slave_rx_data [14] $end
$var wire 1 d slave_rx_data [13] $end
$var wire 1 e slave_rx_data [12] $end
$var wire 1 f slave_rx_data [11] $end
$var wire 1 g slave_rx_data [10] $end
$var wire 1 h slave_rx_data [9] $end
$var wire 1 i slave_rx_data [8] $end
$var wire 1 j slave_rx_data [7] $end
$var wire 1 k slave_rx_data [6] $end
$var wire 1 l slave_rx_data [5] $end
$var wire 1 m slave_rx_data [4] $end
$var wire 1 n slave_rx_data [3] $end
$var wire 1 o slave_rx_data [2] $end
$var wire 1 p slave_rx_data [1] $end
$var wire 1 q slave_rx_data [0] $end

$scope module u_SPI $end
$var parameter 32 r CPOL $end
$var parameter 32 s CPHA $end
$var parameter 32 t CE_LEVEL $end
$var parameter 32 u DATA_WIDTH $end
$var parameter 26 v CLK_FREQ $end
$var parameter 26 w SPI_FREQ $end
$var parameter 26 x CNT $end
$var parameter 2 y IDLE $end
$var parameter 2 z WAIT $end
$var parameter 2 { START $end
$var parameter 2 | STOP $end
$var wire 1 } clock $end
$var wire 1 ~ reset $end
$var wire 1 !! spi_exe $end
$var wire 1 "! tx_data [23] $end
$var wire 1 #! tx_data [22] $end
$var wire 1 $! tx_data [21] $end
$var wire 1 %! tx_data [20] $end
$var wire 1 &! tx_data [19] $end
$var wire 1 '! tx_data [18] $end
$var wire 1 (! tx_data [17] $end
$var wire 1 )! tx_data [16] $end
$var wire 1 *! tx_data [15] $end
$var wire 1 +! tx_data [14] $end
$var wire 1 ,! tx_data [13] $end
$var wire 1 -! tx_data [12] $end
$var wire 1 .! tx_data [11] $end
$var wire 1 /! tx_data [10] $end
$var wire 1 0! tx_data [9] $end
$var wire 1 1! tx_data [8] $end
$var wire 1 2! tx_data [7] $end
$var wire 1 3! tx_data [6] $end
$var wire 1 4! tx_data [5] $end
$var wire 1 5! tx_data [4] $end
$var wire 1 6! tx_data [3] $end
$var wire 1 7! tx_data [2] $end
$var wire 1 8! tx_data [1] $end
$var wire 1 9! tx_data [0] $end
$var reg 24 :! rx_data [23:0] $end
$var reg 1 ;! spi_done $end
$var reg 1 <! sclk $end
$var reg 1 =! mosi $end
$var wire 1 H miso $end
$var reg 1 >! ce $end
$var reg 2 ?! state_now [1:0] $end
$var reg 2 @! state_next [1:0] $end
$var reg 7 A! wait_cnt [6:0] $end
$var reg 7 B! sclk_cnt [6:0] $end
$var reg 5 C! bit_cnt [4:0] $end
$var reg 1 D! sample_edge $end
$var reg 1 E! toggle_edge $end
$var reg 24 F! rx_data_d1 [23:0] $end

$scope begin S1_T2 $end
$upscope $end
$upscope $end

$scope module u_spi_adi $end
$var wire 1 G! clk $end
$var wire 1 H! rst_n $end
$var wire 1 I! wr_req $end
$var wire 1 J wr_end $end
$var wire 1 J! wr_addr [9] $end
$var wire 1 K! wr_addr [8] $end
$var wire 1 L! wr_addr [7] $end
$var wire 1 M! wr_addr [6] $end
$var wire 1 N! wr_addr [5] $end
$var wire 1 O! wr_addr [4] $end
$var wire 1 P! wr_addr [3] $end
$var wire 1 Q! wr_addr [2] $end
$var wire 1 R! wr_addr [1] $end
$var wire 1 S! wr_addr [0] $end
$var wire 1 T! wr_data [7] $end
$var wire 1 U! wr_data [6] $end
$var wire 1 V! wr_data [5] $end
$var wire 1 W! wr_data [4] $end
$var wire 1 X! wr_data [3] $end
$var wire 1 Y! wr_data [2] $end
$var wire 1 Z! wr_data [1] $end
$var wire 1 [! wr_data [0] $end
$var wire 1 \! rd_req $end
$var wire 1 K rd_end $end
$var wire 1 ]! rd_addr [9] $end
$var wire 1 ^! rd_addr [8] $end
$var wire 1 _! rd_addr [7] $end
$var wire 1 `! rd_addr [6] $end
$var wire 1 a! rd_addr [5] $end
$var wire 1 b! rd_addr [4] $end
$var wire 1 c! rd_addr [3] $end
$var wire 1 d! rd_addr [2] $end
$var wire 1 e! rd_addr [1] $end
$var wire 1 W rd_addr [0] $end
$var reg 8 f! rd_data [7:0] $end
$var reg 1 g! spi_clk $end
$var reg 1 h! spi_enb $end
$var wire 1 X spi_do $end
$var reg 1 i! spi_di $end
$var reg 5 j! div_cnt [4:0] $end
$var wire 1 k! div_hit $end
$var wire 1 l! div_clk $end
$var wire 1 m! div_half [4] $end
$var wire 1 n! div_half [3] $end
$var wire 1 o! div_half [2] $end
$var wire 1 p! div_half [1] $end
$var wire 1 q! div_half [0] $end
$var reg 1 r! wr_state $end
$var reg 5 s! wr_cnt [4:0] $end
$var reg 1 t! wr_en $end
$var reg 24 u! wr_shift [23:0] $end
$var reg 1 v! rd_state $end
$var reg 5 w! rd_cnt [4:0] $end
$var reg 1 x! rd_en $end
$var reg 16 y! rd_shift [15:0] $end
$var wire 1 z! rd_cfg $end
$var wire 1 {! rd_out_vld $end
$var wire 1 |! spi_clk_wire $end
$var wire 1 }! spi_enb_wire $end
$var wire 1 ~! spi_di_wire $end
$upscope $end

$scope module u_spi_slave $end
$var parameter 32 !" CPOL $end
$var parameter 32 "" CPHA $end
$var parameter 32 #" CE_LEVEL $end
$var parameter 32 $" DATA_WIDTH $end
$var wire 1 %" clock $end
$var wire 1 &" reset $end
$var wire 1 '" tx_data [23] $end
$var wire 1 (" tx_data [22] $end
$var wire 1 )" tx_data [21] $end
$var wire 1 *" tx_data [20] $end
$var wire 1 +" tx_data [19] $end
$var wire 1 ," tx_data [18] $end
$var wire 1 -" tx_data [17] $end
$var wire 1 ." tx_data [16] $end
$var wire 1 /" tx_data [15] $end
$var wire 1 0" tx_data [14] $end
$var wire 1 1" tx_data [13] $end
$var wire 1 2" tx_data [12] $end
$var wire 1 3" tx_data [11] $end
$var wire 1 4" tx_data [10] $end
$var wire 1 5" tx_data [9] $end
$var wire 1 6" tx_data [8] $end
$var wire 1 7" tx_data [7] $end
$var wire 1 8" tx_data [6] $end
$var wire 1 9" tx_data [5] $end
$var wire 1 :" tx_data [4] $end
$var wire 1 ;" tx_data [3] $end
$var wire 1 <" tx_data [2] $end
$var wire 1 =" tx_data [1] $end
$var wire 1 >" tx_data [0] $end
$var reg 24 ?" rx_data [23:0] $end
$var reg 1 @" spi_done $end
$var wire 1 C sclk $end
$var wire 1 E ce $end
$var wire 1 D mosi $end
$var reg 1 A" miso $end
$var reg 1 B" sclk_d1 $end
$var reg 1 C" spi_sclk $end
$var reg 1 D" spi_sclk_d1 $end
$var reg 1 E" ce_d1 $end
$var reg 1 F" spi_ce $end
$var reg 1 G" mosi_d1 $end
$var reg 1 H" spi_mosi $end
$var wire 1 I" sample_edge $end
$var wire 1 J" toggle_edge $end
$var reg 5 K" bit_cnt [4:0] $end
$var reg 24 L" rx_data_d1 [23:0] $end
$var wire 1 M" spi_sclk_ris $end
$var wire 1 N" spi_sclk_fal $end

$scope begin genblk1 $end
$upscope $end
$upscope $end
$upscope $end
$enddefinitions $end
#0
$dumpvars
0(
1)
0F
b100000010000000100100011 G
b0 I
b0 :!
0;!
0<!
0=!
1>!
b0 ?!
b0 @!
b0 A!
b0 B!
b0 C!
0D!
0E!
b0 F!
b0 f!
0g!
0h!
0i!
b0 j!
0r!
b0 s!
0t!
b0 u!
0v!
b0 w!
0x!
b0 y!
b0 ?"
0@"
0A"
0B"
0C"
0D"
0E"
0F"
0G"
0H"
b0 K"
b0 L"
b0 !
b0 "
b0 #
b11000 $
b10111110101111000010000000 %
b1100001101010000000 &
b110010 '
b0 r
b0 s
b0 t
b11000 u
b10111110101111000010000000 v
b1100001101010000000 w
b1111101 x
b0 y
b1 z
b10 {
b11 |
b0 !"
b0 ""
b0 #"
b11000 $"
0A
0@
0?
0>
0=
0<
0;
0:
09
08
07
06
05
04
03
02
01
00
0/
0.
0-
0,
0+
0*
0B
0C
0D
1E
0H
0J
0K
0S
0R
0Q
0P
0O
0N
0M
0L
0T
0U
0V
zW
zX
0k!
1l!
0q!
0p!
0o!
0n!
1m!
0z!
0{!
0|!
1}!
0~!
0Y
0q
0p
0o
0n
0m
0l
0k
0j
0i
0h
0g
0f
0e
0d
0c
0b
0a
0`
0_
0^
0]
0\
0[
0Z
0I"
0J"
0M"
0N"
1&"
0%"
0\!
1[!
1Z!
0Y!
0X!
0W!
1V!
0U!
0T!
1S!
0R!
0Q!
0P!
0O!
0N!
0M!
0L!
1K!
0J!
0I!
0H!
0G!
19!
18!
07!
06!
05!
14!
03!
02!
11!
00!
0/!
0.!
0-!
0,!
0+!
0*!
1)!
0(!
0'!
0&!
0%!
0$!
0#!
1"!
0!!
1~
0}
ze!
zd!
zc!
zb!
za!
z`!
z_!
z^!
z]!
z>"
z="
z<"
z;"
z:"
z9"
z8"
z7"
z6"
z5"
z4"
z3"
z2"
z1"
z0"
z/"
z."
z-"
z,"
z+"
z*"
z)"
z("
z'"
$end
#10000
1(
1}
1G!
1%"
#20000
0(
0}
0G!
0%"
#30000
1(
1}
1G!
1%"
#40000
0(
0}
0G!
0%"
#50000
0)
1(
0~
1H!
0&"
1}
1G!
1%"
1E"
b1 j!
1h!
b1 I
1U
#60000
0(
0}
0G!
0%"
#70000
1(
1}
1G!
1%"
1F"
b10 j!
b10 I
#80000
0(
0}
0G!
0%"
#90000
1(
1}
1G!
1%"
b11 j!
b11 I
#100000
0(
0}
0G!
0%"
#110000
1(
1}
1G!
1%"
b100 j!
b100 I
#120000
0(
0}
0G!
0%"
#130000
1(
1}
1G!
1%"
b101 j!
b101 I
#140000
0(
0}
0G!
0%"
#150000
1(
1}
1G!
1%"
b110 j!
b110 I
#160000
0(
0}
0G!
0%"
#170000
1(
1}
1G!
1%"
b111 j!
b111 I
#180000
0(
0}
0G!
0%"
#190000
1(
1}
1G!
1%"
b1000 j!
b1000 I
#200000
0(
0}
0G!
0%"
#210000
1(
1}
1G!
1%"
b1001 j!
b1001 I
#220000
0(
0}
0G!
0%"
#230000
1(
1}
1G!
1%"
b1010 j!
b1010 I
#240000
0(
0}
0G!
0%"
#250000
1(
1}
1G!
1%"
b1011 j!
b1011 I
#260000
0(
0}
0G!
0%"
#270000
1(
1}
1G!
1%"
b1100 j!
b1100 I
#280000
0(
0}
0G!
0%"
#290000
1(
1}
1G!
1%"
b1101 j!
b1101 I
#300000
0(
0}
0G!
0%"
#310000
1(
1}
1G!
1%"
b1110 j!
b1110 I
#320000
0(
0}
0G!
0%"
#330000
1(
1}
1G!
1%"
b1111 j!
b1111 I
#340000
0(
0}
0G!
0%"
#350000
1(
1}
1G!
1%"
b10000 j!
b10000 I
0l!
#360000
0(
0}
0G!
0%"
#370000
1(
1}
1G!
1%"
b10001 j!
b10001 I
#380000
0(
0}
0G!
0%"
#390000
1(
1}
1G!
1%"
b10010 j!
b10010 I
#400000
0(
0}
0G!
0%"
#410000
1(
1}
1G!
1%"
b10011 j!
b10011 I
#420000
0(
0}
0G!
0%"
#430000
1(
1}
1G!
1%"
b10100 j!
b10100 I
#440000
0(
0}
0G!
0%"
#450000
1(
1}
1G!
1%"
b10101 j!
b10101 I
#460000
0(
0}
0G!
0%"
#470000
1(
1}
1G!
1%"
b10110 j!
b10110 I
#480000
0(
0}
0G!
0%"
#490000
1(
1}
1G!
1%"
b10111 j!
b10111 I
#500000
0(
0}
0G!
0%"
#510000
1(
1}
1G!
1%"
b11000 j!
b11000 I
#520000
0(
0}
0G!
0%"
#530000
1(
1}
1G!
1%"
b11001 j!
b11001 I
#540000
0(
0}
0G!
0%"
#550000
1(
1}
1G!
1%"
b11010 j!
b11010 I
#560000
0(
0}
0G!
0%"
#570000
1(
1}
1G!
1%"
b11011 j!
b11011 I
#580000
0(
0}
0G!
0%"
#590000
1(
1}
1G!
1%"
b11100 j!
b11100 I
#600000
0(
0}
0G!
0%"
#610000
1(
1}
1G!
1%"
b11101 j!
b11101 I
#620000
0(
0}
0G!
0%"
#630000
1(
1}
1G!
1%"
b11110 j!
b11110 I
#640000
0(
0}
0G!
0%"
#650000
1(
1}
1G!
1%"
b11111 j!
b11111 I
1k!
#660000
0(
0}
0G!
0%"
#670000
1(
1}
1G!
1%"
b0 j!
b100000 I
1l!
0k!
#680000
0(
0}
0G!
0%"
#690000
1(
1}
1G!
1%"
b1 j!
b100001 I
#700000
0(
0}
0G!
0%"
#710000
1(
1}
1G!
1%"
b10 j!
b100010 I
#720000
0(
0}
0G!
0%"
#730000
1(
1}
1G!
1%"
b11 j!
b100011 I
#740000
0(
0}
0G!
0%"
#750000
1(
1}
1G!
1%"
b100 j!
b100100 I
#760000
0(
0}
0G!
0%"
#770000
1(
1}
1G!
1%"
b101 j!
b100101 I
#780000
0(
0}
0G!
0%"
#790000
1(
1}
1G!
1%"
b110 j!
b100110 I
#800000
0(
0}
0G!
0%"
#810000
1(
1}
1G!
1%"
b111 j!
b100111 I
#820000
0(
0}
0G!
0%"
#830000
1(
1}
1G!
1%"
b1000 j!
b101000 I
#840000
0(
0}
0G!
0%"
#850000
1(
1}
1G!
1%"
b1001 j!
b101001 I
#860000
0(
0}
0G!
0%"
#870000
1(
1}
1G!
1%"
b1010 j!
b101010 I
#880000
0(
0}
0G!
0%"
#890000
1(
1}
1G!
1%"
b1011 j!
b101011 I
#900000
0(
0}
0G!
0%"
#910000
1(
1}
1G!
1%"
b1100 j!
b101100 I
#920000
0(
0}
0G!
0%"
#930000
1(
1}
1G!
1%"
b1101 j!
b101101 I
#940000
0(
0}
0G!
0%"
#950000
1(
1}
1G!
1%"
b1110 j!
b101110 I
#960000
0(
0}
0G!
0%"
#970000
1(
1}
1G!
1%"
b1111 j!
b101111 I
#980000
0(
0}
0G!
0%"
#990000
1(
1}
1G!
1%"
b10000 j!
b110000 I
0l!
#1000000
0(
0}
0G!
0%"
#1010000
1(
1}
1G!
1%"
b10001 j!
b110001 I
#1020000
0(
0}
0G!
0%"
#1030000
1(
1}
1G!
1%"
b10010 j!
b110010 I
#1040000
0(
0}
0G!
0%"
#1050000
1(
1}
1G!
1%"
b10011 j!
b110011 I
#1060000
0(
0}
0G!
0%"
#1070000
1(
1}
1G!
1%"
b10100 j!
b110100 I
#1080000
0(
0}
0G!
0%"
#1090000
1(
1}
1G!
1%"
b10101 j!
b110101 I
#1100000
0(
0}
0G!
0%"
#1110000
1(
1}
1G!
1%"
b10110 j!
b110110 I
#1120000
0(
0}
0G!
0%"
#1130000
1(
1}
1G!
1%"
b10111 j!
b110111 I
#1140000
0(
0}
0G!
0%"
#1150000
1(
1}
1G!
1%"
b11000 j!
b111000 I
#1160000
0(
0}
0G!
0%"
#1170000
1(
1}
1G!
1%"
b11001 j!
b111001 I
#1180000
0(
0}
0G!
0%"
#1190000
1(
1}
1G!
1%"
b11010 j!
b111010 I
#1200000
0(
0}
0G!
0%"
#1210000
1(
1}
1G!
1%"
b11011 j!
b111011 I
#1220000
0(
0}
0G!
0%"
#1230000
1(
1}
1G!
1%"
b11100 j!
b111100 I
#1240000
0(
0}
0G!
0%"
#1250000
1(
1}
1G!
1%"
b11101 j!
b111101 I
#1260000
0(
0}
0G!
0%"
#1270000
1(
1}
1G!
1%"
b11110 j!
b111110 I
#1280000
0(
0}
0G!
0%"
#1290000
1(
1}
1G!
1%"
b11111 j!
b111111 I
1F
1k!
1I!
1\!
1!!
b1 @!
#1300000
0(
0}
0G!
0%"
#1310000
1(
1}
1G!
1%"
b0 j!
1v!
1r!
b100000010000000100100011 u!
b0zzzzzzzzzz y!
b1 ?!
0>!
0F
0}!
1l!
0k!
0E
0I!
0\!
0!!
#1320000
0(
0}
0G!
0%"
#1330000
1(
1}
1G!
1%"
0E"
b1 j!
0h!
b1 A!
0U
#1340000
0(
0}
0G!
0%"
#1350000
1(
1}
1G!
1%"
0F"
b10 j!
b10 A!
#1360000
0(
0}
0G!
0%"
#1370000
1(
1}
1G!
1%"
b11 j!
b11 A!
#1380000
0(
0}
0G!
0%"
#1390000
1(
1}
1G!
1%"
b100 j!
b100 A!
#1400000
0(
0}
0G!
0%"
#1410000
1(
1}
1G!
1%"
b101 j!
b101 A!
#1420000
0(
0}
0G!
0%"
#1430000
1(
1}
1G!
1%"
b110 j!
b110 A!
#1440000
0(
0}
0G!
0%"
#1450000
1(
1}
1G!
1%"
b111 j!
b111 A!
#1460000
0(
0}
0G!
0%"
#1470000
1(
1}
1G!
1%"
b1000 j!
b1000 A!
#1480000
0(
0}
0G!
0%"
#1490000
1(
1}
1G!
1%"
b1001 j!
b1001 A!
#1500000
0(
0}
0G!
0%"
#1510000
1(
1}
1G!
1%"
b1010 j!
b1010 A!
#1520000
0(
0}
0G!
0%"
#1530000
1(
1}
1G!
1%"
b1011 j!
b1011 A!
#1540000
0(
0}
0G!
0%"
#1550000
1(
1}
1G!
1%"
b1100 j!
b1100 A!
#1560000
0(
0}
0G!
0%"
#1570000
1(
1}
1G!
1%"
b1101 j!
b1101 A!
#1580000
0(
0}
0G!
0%"
#1590000
1(
1}
1G!
1%"
b1110 j!
b1110 A!
#1600000
0(
0}
0G!
0%"
#1610000
1(
1}
1G!
1%"
b1111 j!
b1111 A!
#1620000
0(
0}
0G!
0%"
#1630000
1(
1}
1G!
1%"
b10000 j!
b10000 A!
0l!
#1640000
0(
0}
0G!
0%"
#1650000
1(
1}
1G!
1%"
b10001 j!
b10001 A!
#1660000
0(
0}
0G!
0%"
#1670000
1(
1}
1G!
1%"
b10010 j!
b10010 A!
#1680000
0(
0}
0G!
0%"
#1690000
1(
1}
1G!
1%"
b10011 j!
b10011 A!
#1700000
0(
0}
0G!
0%"
#1710000
1(
1}
1G!
1%"
b10100 j!
b10100 A!
#1720000
0(
0}
0G!
0%"
#1730000
1(
1}
1G!
1%"
b10101 j!
b10101 A!
#1740000
0(
0}
0G!
0%"
#1750000
1(
1}
1G!
1%"
b10110 j!
b10110 A!
#1760000
0(
0}
0G!
0%"
#1770000
1(
1}
1G!
1%"
b10111 j!
b10111 A!
#1780000
0(
0}
0G!
0%"
#1790000
1(
1}
1G!
1%"
b11000 j!
b11000 A!
#1800000
0(
0}
0G!
0%"
#1810000
1(
1}
1G!
1%"
b11001 j!
b11001 A!
#1820000
0(
0}
0G!
0%"
#1830000
1(
1}
1G!
1%"
b11010 j!
b11010 A!
#1840000
0(
0}
0G!
0%"
#1850000
1(
1}
1G!
1%"
b11011 j!
b11011 A!
#1860000
0(
0}
0G!
0%"
#1870000
1(
1}
1G!
1%"
b11100 j!
b11100 A!
#1880000
0(
0}
0G!
0%"
#1890000
1(
1}
1G!
1%"
b11101 j!
b11101 A!
#1900000
0(
0}
0G!
0%"
#1910000
1(
1}
1G!
1%"
b11110 j!
b11110 A!
#1920000
0(
0}
0G!
0%"
#1930000
1(
1}
1G!
1%"
b11111 j!
b11111 A!
1k!
#1940000
0(
0}
0G!
0%"
#1950000
1(
1}
1G!
1%"
b0 j!
b1 s!
1t!
b1 w!
1x!
b100000 A!
1~!
1l!
0k!
1|!
1z!
#1960000
0(
0}
0G!
0%"
#1970000
1(
1}
1G!
1%"
b1 j!
1g!
1i!
b100001 A!
1T
1V
#1980000
0(
0}
0G!
0%"
#1990000
1(
1}
1G!
1%"
b10 j!
b100010 A!
#2000000
0(
0}
0G!
0%"
#2010000
1(
1}
1G!
1%"
b11 j!
b100011 A!
#2020000
0(
0}
0G!
0%"
#2030000
1(
1}
1G!
1%"
b100 j!
b100100 A!
#2040000
0(
0}
0G!
0%"
#2050000
1(
1}
1G!
1%"
b101 j!
b100101 A!
#2060000
0(
0}
0G!
0%"
#2070000
1(
1}
1G!
1%"
b110 j!
b100110 A!
#2080000
0(
0}
0G!
0%"
#2090000
1(
1}
1G!
1%"
b111 j!
b100111 A!
#2100000
0(
0}
0G!
0%"
#2110000
1(
1}
1G!
1%"
b1000 j!
b101000 A!
#2120000
0(
0}
0G!
0%"
#2130000
1(
1}
1G!
1%"
b1001 j!
b101001 A!
#2140000
0(
0}
0G!
0%"
#2150000
1(
1}
1G!
1%"
b1010 j!
b101010 A!
#2160000
0(
0}
0G!
0%"
#2170000
1(
1}
1G!
1%"
b1011 j!
b101011 A!
#2180000
0(
0}
0G!
0%"
#2190000
1(
1}
1G!
1%"
b1100 j!
b101100 A!
#2200000
0(
0}
0G!
0%"
#2210000
1(
1}
1G!
1%"
b1101 j!
b101101 A!
#2220000
0(
0}
0G!
0%"
#2230000
1(
1}
1G!
1%"
b1110 j!
b101110 A!
#2240000
0(
0}
0G!
0%"
#2250000
1(
1}
1G!
1%"
b1111 j!
b101111 A!
#2260000
0(
0}
0G!
0%"
#2270000
1(
1}
1G!
1%"
b10000 j!
b110000 A!
0l!
0|!
#2280000
0(
0}
0G!
0%"
#2290000
1(
1}
1G!
1%"
b10001 j!
0g!
b110001 A!
0T
#2300000
0(
0}
0G!
0%"
#2310000
1(
1}
1G!
1%"
b10010 j!
b110010 A!
#2320000
0(
0}
0G!
0%"
#2330000
1(
1}
1G!
1%"
b10011 j!
b110011 A!
#2340000
0(
0}
0G!
0%"
#2350000
1(
1}
1G!
1%"
b10100 j!
b110100 A!
#2360000
0(
0}
0G!
0%"
#2370000
1(
1}
1G!
1%"
b10101 j!
b110101 A!
#2380000
0(
0}
0G!
0%"
#2390000
1(
1}
1G!
1%"
b10110 j!
b110110 A!
#2400000
0(
0}
0G!
0%"
#2410000
1(
1}
1G!
1%"
b10111 j!
b110111 A!
#2420000
0(
0}
0G!
0%"
#2430000
1(
1}
1G!
1%"
b11000 j!
b111000 A!
#2440000
0(
0}
0G!
0%"
#2450000
1(
1}
1G!
1%"
b11001 j!
b111001 A!
#2460000
0(
0}
0G!
0%"
#2470000
1(
1}
1G!
1%"
b11010 j!
b111010 A!
#2480000
0(
0}
0G!
0%"
#2490000
1(
1}
1G!
1%"
b11011 j!
b111011 A!
#2500000
0(
0}
0G!
0%"
#2510000
1(
1}
1G!
1%"
b11100 j!
b111100 A!
#2520000
0(
0}
0G!
0%"
#2530000
1(
1}
1G!
1%"
b11101 j!
b111101 A!
b10 @!
#2540000
0(
0}
0G!
0%"
#2550000
1(
1}
1G!
1%"
b11110 j!
b0 A!
b10 ?!
#2560000
0(
0}
0G!
0%"
#2570000
1(
1}
1G!
1%"
b11111 j!
b1 B!
1k!
#2580000
0(
0}
0G!
0%"
#2590000
1(
1}
1G!
1%"
b0 j!
b10 s!
b100000001001000110 u!
b10 w!
b0zzzzzzzzzz0 y!
b10 B!
0~!
1l!
0k!
1|!
#2600000
0(
0}
0G!
0%"
#2610000
1(
1}
1G!
1%"
b1 j!
1g!
0i!
b11 B!
1T
0V
#2620000
0(
0}
0G!
0%"
#2630000
1(
1}
1G!
1%"
b10 j!
b100 B!
#2640000
0(
0}
0G!
0%"
#2650000
1(
1}
1G!
1%"
b11 j!
b101 B!
#2660000
0(
0}
0G!
0%"
#2670000
1(
1}
1G!
1%"
b100 j!
b110 B!
#2680000
0(
0}
0G!
0%"
#2690000
1(
1}
1G!
1%"
b101 j!
b111 B!
#2700000
0(
0}
0G!
0%"
#2710000
1(
1}
1G!
1%"
b110 j!
b1000 B!
#2720000
0(
0}
0G!
0%"
#2730000
1(
1}
1G!
1%"
b111 j!
b1001 B!
#2740000
0(
0}
0G!
0%"
#2750000
1(
1}
1G!
1%"
b1000 j!
b1010 B!
#2760000
0(
0}
0G!
0%"
#2770000
1(
1}
1G!
1%"
b1001 j!
b1011 B!
#2780000
0(
0}
0G!
0%"
#2790000
1(
1}
1G!
1%"
b1010 j!
b1100 B!
#2800000
0(
0}
0G!
0%"
#2810000
1(
1}
1G!
1%"
b1011 j!
b1101 B!
#2820000
0(
0}
0G!
0%"
#2830000
1(
1}
1G!
1%"
b1100 j!
b1110 B!
#2840000
0(
0}
0G!
0%"
#2850000
1(
1}
1G!
1%"
b1101 j!
b1111 B!
#2860000
0(
0}
0G!
0%"
#2870000
1(
1}
1G!
1%"
b1110 j!
b10000 B!
#2880000
0(
0}
0G!
0%"
#2890000
1(
1}
1G!
1%"
b1111 j!
b10001 B!
#2900000
0(
0}
0G!
0%"
#2910000
1(
1}
1G!
1%"
b10000 j!
b10010 B!
0l!
0|!
#2920000
0(
0}
0G!
0%"
#2930000
1(
1}
1G!
1%"
b10001 j!
0g!
b10011 B!
0T
#2940000
0(
0}
0G!
0%"
#2950000
1(
1}
1G!
1%"
b10010 j!
b10100 B!
#2960000
0(
0}
0G!
0%"
#2970000
1(
1}
1G!
1%"
b10011 j!
b10101 B!
#2980000
0(
0}
0G!
0%"
#2990000
1(
1}
1G!
1%"
b10100 j!
b10110 B!
#3000000
0(
0}
0G!
0%"
#3010000
1(
1}
1G!
1%"
b10101 j!
b10111 B!
#3020000
0(
0}
0G!
0%"
#3030000
1(
1}
1G!
1%"
b10110 j!
b11000 B!
#3040000
0(
0}
0G!
0%"
#3050000
1(
1}
1G!
1%"
b10111 j!
b11001 B!
#3060000
0(
0}
0G!
0%"
#3070000
1(
1}
1G!
1%"
b11000 j!
b11010 B!
#3080000
0(
0}
0G!
0%"
#3090000
1(
1}
1G!
1%"
b11001 j!
b11011 B!
#3100000
0(
0}
0G!
0%"
#3110000
1(
1}
1G!
1%"
b11010 j!
b11100 B!
#3120000
0(
0}
0G!
0%"
#3130000
1(
1}
1G!
1%"
b11011 j!
b11101 B!
#3140000
0(
0}
0G!
0%"
#3150000
1(
1}
1G!
1%"
b11100 j!
b11110 B!
#3160000
0(
0}
0G!
0%"
#3170000
1(
1}
1G!
1%"
b11101 j!
b11111 B!
#3180000
0(
0}
0G!
0%"
#3190000
1(
1}
1G!
1%"
b11110 j!
b100000 B!
#3200000
0(
0}
0G!
0%"
#3210000
1(
1}
1G!
1%"
b11111 j!
b100001 B!
1k!
#3220000
0(
0}
0G!
0%"
#3230000
1(
1}
1G!
1%"
b0 j!
b11 s!
b1000000010010001100 u!
b11 w!
b0zzzzzzzzzz00 y!
b100010 B!
1l!
0k!
1|!
#3240000
0(
0}
0G!
0%"
#3250000
1(
1}
1G!
1%"
b1 j!
1g!
b100011 B!
1T
#3260000
0(
0}
0G!
0%"
#3270000
1(
1}
1G!
1%"
b10 j!
b100100 B!
#3280000
0(
0}
0G!
0%"
#3290000
1(
1}
1G!
1%"
b11 j!
b100101 B!
#3300000
0(
0}
0G!
0%"
#3310000
1(
1}
1G!
1%"
b100 j!
b100110 B!
#3320000
0(
0}
0G!
0%"
#3330000
1(
1}
1G!
1%"
b101 j!
b100111 B!
#3340000
0(
0}
0G!
0%"
#3350000
1(
1}
1G!
1%"
b110 j!
b101000 B!
#3360000
0(
0}
0G!
0%"
#3370000
1(
1}
1G!
1%"
b111 j!
b101001 B!
#3380000
0(
0}
0G!
0%"
#3390000
1(
1}
1G!
1%"
b1000 j!
b101010 B!
#3400000
0(
0}
0G!
0%"
#3410000
1(
1}
1G!
1%"
b1001 j!
b101011 B!
#3420000
0(
0}
0G!
0%"
#3430000
1(
1}
1G!
1%"
b1010 j!
b101100 B!
#3440000
0(
0}
0G!
0%"
#3450000
1(
1}
1G!
1%"
b1011 j!
b101101 B!
#3460000
0(
0}
0G!
0%"
#3470000
1(
1}
1G!
1%"
b1100 j!
b101110 B!
#3480000
0(
0}
0G!
0%"
#3490000
1(
1}
1G!
1%"
b1101 j!
b101111 B!
#3500000
0(
0}
0G!
0%"
#3510000
1(
1}
1G!
1%"
b1110 j!
b110000 B!
#3520000
0(
0}
0G!
0%"
