user/sim/wave.vcd
$date
	Sat Aug 31 21:01:30 2024
$end
$version
	ModelSim Version 2020.4
$end
$timescale
	1ps
$end

$scope module tb_sync_fifo $end
$var parameter 32 ! INPUT_WIDTH $end
$var parameter 32 " OUTPUT_WIDTH $end
$var parameter 32 # WR_DEPTH $end
$var parameter 32 $ RD_DEPTH $end
$var parameter 64 % MODE $end
$var parameter 24 & DIRECTION $end
$var parameter 32 ' MAIN_FRE $end
$var reg 1 ( sys_clk $end
$var reg 1 ) sys_rst $end
$var wire 1 * valid $end
$var wire 1 + dout [15] $end
$var wire 1 , dout [14] $end
$var wire 1 - dout [13] $end
$var wire 1 . dout [12] $end
$var wire 1 / dout [11] $end
$var wire 1 0 dout [10] $end
$var wire 1 1 dout [9] $end
$var wire 1 2 dout [8] $end
$var wire 1 3 dout [7] $end
$var wire 1 4 dout [6] $end
$var wire 1 5 dout [5] $end
$var wire 1 6 dout [4] $end
$var wire 1 7 dout [3] $end
$var wire 1 8 dout [2] $end
$var wire 1 9 dout [1] $end
$var wire 1 : dout [0] $end
$var wire 1 ; full $end
$var wire 1 < empty $end
$var wire 1 = wr_data_count [4] $end
$var wire 1 > wr_data_count [3] $end
$var wire 1 ? wr_data_count [2] $end
$var wire 1 @ wr_data_count [1] $end
$var wire 1 A wr_data_count [0] $end
$var wire 1 B rd_data_count [4] $end
$var wire 1 C rd_data_count [3] $end
$var wire 1 D rd_data_count [2] $end
$var wire 1 E rd_data_count [1] $end
$var wire 1 F rd_data_count [0] $end
$var wire 1 G wr_data_space [4] $end
$var wire 1 H wr_data_space [3] $end
$var wire 1 I wr_data_space [2] $end
$var wire 1 J wr_data_space [1] $end
$var wire 1 K wr_data_space [0] $end
$var wire 1 L rd_data_space [4] $end
$var wire 1 M rd_data_space [3] $end
$var wire 1 N rd_data_space [2] $end
$var wire 1 O rd_data_space [1] $end
$var wire 1 P rd_data_space [0] $end
$var wire 1 Q almost_full $end
$var wire 1 R almost_empty $end
$var wire 1 S prog_full $end
$var wire 1 T prog_empty $end
$var wire 1 U overflow $end
$var wire 1 V underflow $end
$var wire 1 W wr_ack $end
$var wire 1 X sbiterr $end
$var wire 1 Y dbiterr $end
$var reg 1 Z wr_en $end
$var reg 1 [ rd_en $end
$var reg 16 \ din [15:0] $end

$scope module CP_fifo $end
$var parameter 32 ] INPUT_WIDTH $end
$var parameter 32 ^ OUTPUT_WIDTH $end
$var parameter 32 _ WR_DEPTH $end
$var parameter 32 ` RD_DEPTH $end
$var parameter 64 a MODE $end
$var parameter 24 b DIRECTION $end
$var parameter 48 c ECC_MODE $end
$var parameter 32 d PROG_EMPTY_THRESH $end
$var parameter 32 e PROG_FULL_THRESH $end
$var parameter 16 f USE_ADV_FEATURES $end
$var parameter 32 g DW $end
$var parameter 32 h PW $end
$var parameter 32 i RAM_NUM $end
$var parameter 32 j RAM_WIDTH $end
$var parameter 32 k RAM_DEPTH $end
$var parameter 32 l RAM_WR_WIDTH $end
$var parameter 32 m RAM_RD_WIDTH $end
$var wire 1 n clock $end
$var wire 1 o reset $end
$var wire 1 p wr_en $end
$var wire 1 q wr_ready $end
$var wire 1 r din [15] $end
$var wire 1 s din [14] $end
$var wire 1 t din [13] $end
$var wire 1 u din [12] $end
$var wire 1 v din [11] $end
$var wire 1 w din [10] $end
$var wire 1 x din [9] $end
$var wire 1 y din [8] $end
$var wire 1 z din [7] $end
$var wire 1 { din [6] $end
$var wire 1 | din [5] $end
$var wire 1 } din [4] $end
$var wire 1 ~ din [3] $end
$var wire 1 !! din [2] $end
$var wire 1 "! din [1] $end
$var wire 1 #! din [0] $end
$var wire 1 $! rd_en $end
$var reg 1 %! valid $end
$var reg 16 &! dout [15:0] $end
$var wire 1 ; full $end
$var wire 1 < empty $end
$var reg 5 '! wr_data_count [4:0] $end
$var wire 1 G wr_data_space [4] $end
$var wire 1 H wr_data_space [3] $end
$var wire 1 I wr_data_space [2] $end
$var wire 1 J wr_data_space [1] $end
$var wire 1 K wr_data_space [0] $end
$var reg 5 (! rd_data_count [4:0] $end
$var wire 1 L rd_data_space [4] $end
$var wire 1 M rd_data_space [3] $end
$var wire 1 N rd_data_space [2] $end
$var wire 1 O rd_data_space [1] $end
$var wire 1 P rd_data_space [0] $end
$var wire 1 Q almost_full $end
$var wire 1 R almost_empty $end
$var wire 1 S prog_full $end
$var wire 1 T prog_empty $end
$var reg 1 )! overflow $end
$var reg 1 *! underflow $end
$var wire 1 W wr_ack $end
$var wire 1 X sbiterr $end
$var wire 1 Y dbiterr $end
$var reg 1 +! rst_d1 $end
$var reg 1 ,! rst_d2 $end
$var wire 1 -! sys_rst $end
$var reg 5 .! wr_ptr [4:0] $end
$var reg 3 /! wr_ptr_d1 [2:0] $end
$var reg 5 0! rd_ptr [4:0] $end
$var reg 3 1! rd_ptr_d1 [2:0] $end
$var reg 5 2! rd_ptr_next [4:0] $end
$var reg 5 3! rd_ptr_next_d1 [4:0] $end
$var reg 5 4! rd_ptr_pre [4:0] $end
$var reg 5 5! rd_ptr_fwft [4:0] $end
$var wire 1 6! ram_wr_en [0] $end
$var wire 1 7! ram_rd_en [0] $end
$var wire 1 8! ram_wr_addr [4] $end
$var wire 1 9! ram_wr_addr [3] $end
$var wire 1 :! ram_wr_addr [2] $end
$var wire 1 ;! ram_wr_addr [1] $end
$var wire 1 <! ram_wr_addr [0] $end
$var wire 1 =! ram_rd_addr [4] $end
$var wire 1 >! ram_rd_addr [3] $end
$var wire 1 ?! ram_rd_addr [2] $end
$var wire 1 @! ram_rd_addr [1] $end
$var wire 1 A! ram_rd_addr [0] $end
$var wire 1 B! ram_wr_data [15] $end
$var wire 1 C! ram_wr_data [14] $end
$var wire 1 D! ram_wr_data [13] $end
$var wire 1 E! ram_wr_data [12] $end
$var wire 1 F! ram_wr_data [11] $end
$var wire 1 G! ram_wr_data [10] $end
$var wire 1 H! ram_wr_data [9] $end
$var wire 1 I! ram_wr_data [8] $end
$var wire 1 J! ram_wr_data [7] $end
$var wire 1 K! ram_wr_data [6] $end
$var wire 1 L! ram_wr_data [5] $end
$var wire 1 M! ram_wr_data [4] $end
$var wire 1 N! ram_wr_data [3] $end
$var wire 1 O! ram_wr_data [2] $end
$var wire 1 P! ram_wr_data [1] $end
$var wire 1 Q! ram_wr_data [0] $end
$var wire 1 R! ram_rd_data [15] $end
$var wire 1 S! ram_rd_data [14] $end
$var wire 1 T! ram_rd_data [13] $end
$var wire 1 U! ram_rd_data [12] $end
$var wire 1 V! ram_rd_data [11] $end
$var wire 1 W! ram_rd_data [10] $end
$var wire 1 X! ram_rd_data [9] $end
$var wire 1 Y! ram_rd_data [8] $end
$var wire 1 Z! ram_rd_data [7] $end
$var wire 1 [! ram_rd_data [6] $end
$var wire 1 \! ram_rd_data [5] $end
$var wire 1 ]! ram_rd_data [4] $end
$var wire 1 ^! ram_rd_data [3] $end
$var wire 1 _! ram_rd_data [2] $end
$var wire 1 `! ram_rd_data [1] $end
$var wire 1 a! ram_rd_data [0] $end
$var reg 5 b! wr_ptr_b [4:0] $end
$var reg 5 c! rd_ptr_b [4:0] $end
$var wire 1 d! ram_wr_addr_b [4] $end
$var wire 1 e! ram_wr_addr_b [3] $end
$var wire 1 f! ram_wr_addr_b [2] $end
$var wire 1 g! ram_wr_addr_b [1] $end
$var wire 1 h! ram_wr_addr_b [0] $end
$var wire 1 i! ram_rd_addr_b [4] $end
$var wire 1 j! ram_rd_addr_b [3] $end
$var wire 1 k! ram_rd_addr_b [2] $end
$var wire 1 l! ram_rd_addr_b [1] $end
$var wire 1 m! ram_rd_addr_b [0] $end
$var reg 1 n! empty_d1 $end
$var reg 1 o! pre_valid $end
$var wire 1 p! pre_read $end
$var integer 32 q! k $end

$scope begin RD_GRAY_COUNTER[2] $end
$var parameter 32 r! j $end
$upscope $end

$scope begin WR_GRAY_COUNTER[2] $end
$var parameter 32 s! m $end
$upscope $end

$scope begin genblk8 $end
$upscope $end

$scope begin genblk6 $end
$upscope $end

$scope begin genblk4 $end
$upscope $end

$scope begin standard_mode_read $end
$upscope $end

$scope begin BIG_TO_SMALL_RAM $end
$var reg 1 t! ram_sel [0:0] $end
$var wire 1 u! decode_data [15] $end
$var wire 1 v! decode_data [14] $end
$var wire 1 w! decode_data [13] $end
$var wire 1 x! decode_data [12] $end
$var wire 1 y! decode_data [11] $end
$var wire 1 z! decode_data [10] $end
$var wire 1 {! decode_data [9] $end
$var wire 1 |! decode_data [8] $end
$var wire 1 }! decode_data [7] $end
$var wire 1 ~! decode_data [6] $end
$var wire 1 !" decode_data [5] $end
$var wire 1 "" decode_data [4] $end
$var wire 1 #" decode_data [3] $end
$var wire 1 $" decode_data [2] $end
$var wire 1 %" decode_data [1] $end
$var wire 1 &" decode_data [0] $end

$scope begin B2S_DUAL_PORT_RAM[0] $end
$var parameter 32 '" i $end

$scope begin genblk3 $end

$scope module u_DPRAM $end
$var parameter 32 (" WIDTH $end
$var parameter 32 )" DEPTH $end
$var wire 1 n clka $end
$var wire 1 *" ena $end
$var wire 1 6! wea $end
$var wire 1 9! addra [3] $end
$var wire 1 :! addra [2] $end
$var wire 1 ;! addra [1] $end
$var wire 1 <! addra [0] $end
$var wire 1 B! dina [15] $end
$var wire 1 C! dina [14] $end
$var wire 1 D! dina [13] $end
$var wire 1 E! dina [12] $end
$var wire 1 F! dina [11] $end
$var wire 1 G! dina [10] $end
$var wire 1 H! dina [9] $end
$var wire 1 I! dina [8] $end
$var wire 1 J! dina [7] $end
$var wire 1 K! dina [6] $end
$var wire 1 L! dina [5] $end
$var wire 1 M! dina [4] $end
$var wire 1 N! dina [3] $end
$var wire 1 O! dina [2] $end
$var wire 1 P! dina [1] $end
$var wire 1 Q! dina [0] $end
$var reg 16 +" douta [15:0] $end
$var wire 1 n clkb $end
$var wire 1 7! enb $end
$var wire 1 ," web $end
$var wire 1 >! addrb [3] $end
$var wire 1 ?! addrb [2] $end
$var wire 1 @! addrb [1] $end
$var wire 1 A! addrb [0] $end
$var wire 1 -" dinb [15] $end
$var wire 1 ." dinb [14] $end
$var wire 1 /" dinb [13] $end
$var wire 1 0" dinb [12] $end
$var wire 1 1" dinb [11] $end
$var wire 1 2" dinb [10] $end
$var wire 1 3" dinb [9] $end
$var wire 1 4" dinb [8] $end
$var wire 1 5" dinb [7] $end
$var wire 1 6" dinb [6] $end
$var wire 1 7" dinb [5] $end
$var wire 1 8" dinb [4] $end
$var wire 1 9" dinb [3] $end
$var wire 1 :" dinb [2] $end
$var wire 1 ;" dinb [1] $end
$var wire 1 <" dinb [0] $end
$var reg 16 =" doutb [15:0] $end
$var integer 32 >" i $end
$upscope $end
$upscope $end

$scope begin genblk2 $end
$upscope $end

$scope begin genblk1 $end
$upscope $end
$upscope $end

$scope begin genblk4 $end

$scope begin genblk1 $end
$upscope $end
$upscope $end

$scope begin genblk3 $end
$upscope $end

$scope begin genblk1 $end
$upscope $end
$upscope $end

$scope begin standard_g2b $end
$upscope $end

$scope begin ALMOST_FULL_ENABLE $end

$scope begin genblk1 $end
$upscope $end
$upscope $end

$scope begin ALMOST_EMPTY_ENABLE $end

$scope begin genblk1 $end
$upscope $end
$upscope $end

$scope begin PROG_FULL_ENABLE $end

$scope begin genblk1 $end
$upscope $end
$upscope $end

$scope begin PROG_EMPTY_ENABLE $end

$scope begin genblk1 $end
$upscope $end
$upscope $end

$scope begin OVERFLOW_ENABLE $end
$upscope $end

$scope begin UNDERFLOW_ENABLE $end
$upscope $end

$scope begin WR_ACK_ENABLE $end
$upscope $end
$upscope $end
$upscope $end
$enddefinitions $end
#0
$dumpvars
0(
1)
0Z
0[
bx \
x%!
b0 &!
bx '!
bx (!
x)!
x*!
x+!
x,!
bx .!
bx /!
bx 0!
bx 1!
bx 2!
bx 3!
bx 4!
bx 5!
bx b!
bx c!
xn!
xo!
bx t!
b0 +"
b0 ="
b10000 !
b10000 "
b10000 #
b10000 $
b1100100 '
b10000 ]
b10000 ^
b10000 _
b10000 `
b1010 d
b1010 e
b1111100011111 f
b10000 g
b101 h
b1 i
b10000 j
b10000 k
b10000 l
b10000 m
b10 s!
b10 r!
b0 '"
b10000 ("
b10000 )"
b101001101110100011000010110111001100100011000010111001001100100 %
b10011000101001101000010 &
b101001101110100011000010110111001100100011000010111001001100100 a
b10011000101001101000010 b
b11011100110111101011111011001010110001101100011 c
b10000 >"
bx q!
x*
0:
09
08
07
06
05
04
03
02
01
00
0/
0.
0-
0,
0+
x;
x<
xA
x@
x?
x>
x=
xF
xE
xD
xC
xB
xK
xJ
xI
xH
xG
xP
xO
xN
xM
xL
xQ
xR
xS
xT
xU
xV
0W
0X
0Y
x-!
06!
07!
x<!
x;!
x:!
x9!
x8!
xA!
x@!
x?!
x>!
x=!
xQ!
xP!
xO!
xN!
xM!
xL!
xK!
xJ!
xI!
xH!
xG!
xF!
xE!
xD!
xC!
xB!
0a!
0`!
0_!
0^!
0]!
0\!
0[!
0Z!
0Y!
0X!
0W!
0V!
0U!
0T!
0S!
0R!
xh!
xg!
xf!
xe!
xd!
xm!
xl!
xk!
xj!
xi!
xp!
z&"
z%"
z$"
z#"
z""
z!"
z~!
z}!
z|!
z{!
zz!
zy!
zx!
zw!
zv!
zu!
0$!
x#!
x"!
x!!
x~
x}
x|
x{
xz
xy
xx
xw
xv
xu
xt
xs
xr
0p
1o
0n
xq
1<"
1;"
1:"
19"
18"
17"
16"
15"
14"
13"
12"
11"
10"
1/"
1."
1-"
0,"
1*"
$end
#5000
1(
1n
0+!
0,!
0%!
bx +"
0)!
b100100011 \
0*
0U
1#!
1"!
0!!
0~
0}
1|
0{
0z
1y
0x
0w
0v
0u
0t
0s
0r
1Q!
1P!
0O!
0N!
0M!
1L!
0K!
0J!
1I!
0H!
0G!
0F!
0E!
0D!
0C!
0B!
0-!
b0 5!
b0 '!
b0 (!
b0 b!
b0 c!
b0 /!
b0 .!
b0 1!
b0 0!
b0 3!
b0 2!
0o!
b0 4!
1n!
0*!
1T
0S
0R
0Q
0F
0E
0D
0C
0B
0P
0O
0N
0M
1L
0A
0@
0?
0>
0=
0K
0J
0I
0H
1G
0V
0A!
0@!
0?!
0>!
0=!
0<!
0;!
0:!
09!
08!
0m!
0l!
0k!
0j!
0i!
0h!
0g!
0f!
0e!
0d!
1<
0;
1q
0p!
#10000
0(
0n
#15000
1(
1n
b0 +"
#20000
0(
0n
#25000
1(
1n
#30000
0(
0n
#35000
1(
1n
#40000
0(
0n
#45000
1(
1n
#50000
0)
0(
0o
0n
1+!
#55000
1(
1n
1,!
1-!
b1 q!
b10 q!
b11 q!
b100 q!
b1 q!
b10 q!
b11 q!
b100 q!
#60000
0(
0n
#65000
1(
1n
#70000
0(
0n
#75000
1(
1n
#80000
0(
0n
#85000
1(
1n
#90000
0(
0n
#95000
1(
1n
#100000
0(
0n
#105000
1(
1n
1Z
1p
16!
1W
#110000
0(
0n
#115000
1(
1n
b1 .!
b100100100 \
b1000100100 \
0#!
0"!
1!!
0y
1x
0Q!
0P!
1O!
0I!
1H!
1<!
0<
1p!
b1 q!
b10 q!
b11 q!
b100 q!
b1 b!
1h!
b1 q!
b10 q!
b11 q!
b100 q!
b1 '!
b1 (!
1R
1F
1P
1O
1N
1M
0L
1A
1K
1J
1I
1H
0G
#120000
0(
0n
#125000
1(
1n
1o!
b1 2!
0n!
b1 /!
b11 .!
b1000100101 \
b1100100101 \
0p!
1#!
1y
1Q!
1I!
1;!
b1 q!
b10 q!
b11 q!
b100 q!
b11 b!
1g!
b1 q!
b10 q!
b11 q!
b100 q!
b11 '!
b11 (!
b10 b!
0R
1E
0O
1@
0J
0h!
b1 q!
b10 q!
b11 q!
b100 q!
b10 '!
b10 (!
0F
0P
1O
0A
0K
1J
#130000
0(
0n
#135000
1(
1n
b11 /!
b10 .!
b1100100110 \
b10000100110 \
0#!
1"!
0y
0x
1w
0Q!
1P!
0I!
0H!
1G!
0<!
b1 q!
b10 q!
b11 q!
b100 q!
b11 b!
1h!
b1 q!
b10 q!
b11 q!
b100 q!
b11 '!
b11 (!
1F
1P
0O
1A
1K
0J
#140000
0(
0n
#145000
1(
1n
b10 /!
b110 .!
b10000100111 \
b10100100111 \
1#!
1y
1Q!
1I!
1:!
b1 q!
b10 q!
b11 q!
b100 q!
b111 b!
1f!
b1 q!
b10 q!
b11 q!
b100 q!
b111 '!
b111 (!
b101 b!
1D
0N
1?
0I
0g!
b1 q!
b10 q!
b11 q!
b100 q!
b101 '!
b101 (!
b100 b!
0E
1O
0@
1J
0h!
b1 q!
b10 q!
b11 q!
b100 q!
b100 '!
b100 (!
0F
0P
0O
1N
0A
0K
0J
1I
#150000
0(
0n
#155000
1(
1n
b110 /!
b111 .!
b10100101000 \
b11000101000 \
0#!
0"!
0!!
1~
0y
1x
0Q!
0P!
0O!
1N!
0I!
1H!
1<!
b1 q!
b10 q!
b11 q!
b100 q!
b101 b!
1h!
b1 q!
b10 q!
b11 q!
b100 q!
b101 '!
b101 (!
1F
1P
1O
0N
1A
1K
1J
0I
#160000
0(
0n
#165000
1(
1n
b111 /!
b101 .!
b11000101001 \
b11100101001 \
1#!
1y
1Q!
1I!
0;!
b1 q!
b10 q!
b11 q!
b100 q!
b111 b!
1g!
b1 q!
b10 q!
b11 q!
b100 q!
b111 '!
b111 (!
b110 b!
1E
0O
1@
0J
0h!
b1 q!
b10 q!
b11 q!
b100 q!
b110 '!
b110 (!
0F
0P
1O
0A
0K
1J
#170000
0(
0n
#175000
1(
1n
b101 /!
b100 .!
b11100101010 \
b100000101010 \
0#!
1"!
0y
0x
0w
1v
0Q!
1P!
0I!
0H!
0G!
1F!
0<!
b1 q!
b10 q!
b11 q!
b100 q!
b111 b!
1h!
b1 q!
b10 q!
b11 q!
b100 q!
b111 '!
b111 (!
1F
1P
0O
1A
1K
0J
#180000
0(
0n
#185000
1(
1n
b100 /!
b1100 .!
b100000101011 \
b100100101011 \
1#!
1y
1Q!
1I!
19!
b1 q!
b10 q!
b11 q!
b100 q!
b1111 b!
1e!
b1 q!
b10 q!
b11 q!
b100 q!
b1111 '!
b1111 (!
b1011 b!
0T
1S
1Q
1C
0M
1>
0H
0f!
b1 q!
b10 q!
b11 q!
b100 q!
b1011 '!
b1011 (!
b1001 b!
0Q
0D
1N
0?
1I
0g!
b1 q!
b10 q!
b11 q!
b100 q!
b1001 '!
b1001 (!
b1000 b!
1T
0S
0E
1O
0@
1J
0h!
b1 q!
b10 q!
b11 q!
b100 q!
b1000 '!
b1000 (!
0F
0P
0O
0N
1M
0A
0K
0J
0I
1H
#190000
0(
0n
#195000
1(
1n
b1101 .!
b100100101100 \
b101000101100 \
0#!
0"!
1!!
0y
1x
0Q!
0P!
1O!
0I!
1H!
1<!
b1 q!
b10 q!
b11 q!
b100 q!
b1001 b!
1h!
b1 q!
b10 q!
b11 q!
b100 q!
b1001 '!
b1001 (!
1F
1P
1O
1N
0M
1A
1K
1J
1I
0H
#200000
0(
0n
#205000
1(
1n
b101 /!
b1111 .!
b101000101101 \
b101100101101 \
1#!
1y
1Q!
1I!
1;!
b1 q!
b10 q!
b11 q!
b100 q!
b1011 b!
1g!
b1 q!
b10 q!
b11 q!
b100 q!
b1011 '!
b1011 (!
b1010 b!
0T
1S
1E
0O
1@
0J
0h!
b1 q!
b10 q!
b11 q!
b100 q!
b1010 '!
b1010 (!
1T
0F
0P
1O
0A
0K
1J
#210000
0(
0n
#215000
1(
1n
b111 /!
b1110 .!
b101100101110 \
b110000101110 \
0#!
1"!
0y
0x
1w
0Q!
1P!
0I!
0H!
1G!
0<!
b1 q!
b10 q!
b11 q!
b100 q!
b1011 b!
1h!
b1 q!
b10 q!
b11 q!
b100 q!
b1011 '!
b1011 (!
0T
1F
1P
0O
1A
1K
0J
#220000
0(
0n
#225000
1(
1n
b110 /!
b1010 .!
b110000101111 \
b110100101111 \
1#!
1y
1Q!
1I!
0:!
b1 q!
b10 q!
b11 q!
b100 q!
b1111 b!
1f!
b1 q!
b10 q!
b11 q!
b100 q!
b1111 '!
b1111 (!
b1101 b!
1Q
1D
0N
1?
0I
0g!
b1 q!
b10 q!
b11 q!
b100 q!
b1101 '!
b1101 (!
b1100 b!
0Q
0E
1O
0@
1J
0h!
b1 q!
b10 q!
b11 q!
b100 q!
b1100 '!
b1100 (!
0F
0P
0O
1N
0A
0K
0J
1I
#230000
0(
0n
#235000
1(
1n
b10 /!
b1011 .!
b110100110000 \
b111000110000 \
0#!
0"!
0!!
0~
1}
0y
1x
0Q!
0P!
0O!
0N!
1M!
0I!
1H!
1<!
b1 q!
b10 q!
b11 q!
b100 q!
b1101 b!
1h!
b1 q!
b10 q!
b11 q!
b100 q!
b1101 '!
b1101 (!
1F
1P
1O
0N
1A
1K
1J
0I
#240000
0(
0n
#245000
1(
1n
b11 /!
b1001 .!
b111000110001 \
b111100110001 \
1#!
1y
1Q!
1I!
0;!
b1 q!
b10 q!
b11 q!
b100 q!
b1111 b!
1g!
b1 q!
b10 q!
b11 q!
b100 q!
b1111 '!
b1111 (!
b1110 b!
1Q
1E
0O
1@
0J
0h!
b1 q!
b10 q!
b11 q!
b100 q!
b1110 '!
b1110 (!
0Q
0F
0P
1O
0A
0K
1J
#250000
0(
0n
#255000
1(
1n
b1 /!
b1000 .!
b111100110010 \
b1000000110010 \
0#!
1"!
0y
0x
0w
0v
1u
0Q!
1P!
0I!
0H!
0G!
0F!
1E!
0<!
b1 q!
b10 q!
b11 q!
b100 q!
b1111 b!
1h!
b1 q!
b10 q!
b11 q!
b100 q!
b1111 '!
b1111 (!
1Q
1F
1P
0O
1A
1K
0J
#260000
0(
0n
#265000
1(
1n
b0 /!
b0 .!
b10000 .!
b1000000110011 \
b1000100110011 \
1#!
1y
1Q!
1I!
09!
18!
1;
0q
06!
0W
b1 q!
b10 q!
b11 q!
b100 q!
b11111 '!
b11111 (!
b11111 b!
b10111 b!
0Q
1B
1L
1=
1G
0e!
1d!
b1 q!
b10 q!
b11 q!
b100 q!
b10111 '!
b10111 (!
b10011 b!
0C
1M
0>
1H
0f!
b1 q!
b10 q!
b11 q!
b100 q!
b10011 '!
b10011 (!
b10001 b!
0D
1N
0?
1I
0g!
b1 q!
b10 q!
b11 q!
b100 q!
b10001 '!
b10001 (!
b10000 b!
0E
1O
0@
1J
0h!
b1 q!
b10 q!
b11 q!
b100 q!
b10000 '!
b10000 (!
0F
0P
0O
0N
0M
0L
0A
0K
0J
0I
0H
0G
#270000
0(
0n
#275000
1(
1n
1)!
b100100011 +"
b1000100110100 \
b1001000110100 \
1U
0#!
0"!
1!!
0y
1x
0Q!
0P!
1O!
0I!
1H!
#280000
0(
0n
#285000
1(
1n
0)!
b1001000110101 \
b1001100110101 \
0U
1#!
1y
1Q!
1I!
#290000
0(
0n
#295000
1(
1n
1)!
0)!
b1001100110110 \
b1010000110110 \
0#!
1"!
0y
0x
1w
0Q!
1P!
0I!
0H!
1G!
#300000
0(
0n
#305000
1(
1n
0Z
0p
1)!
0)!
b1010000110111 \
b1010100110111 \
1#!
1y
1Q!
1I!
#310000
0(
0n
#315000
1(
1n
#320000
0(
0n
#325000
1(
1n
#330000
0(
0n
#335000
1(
1n
#340000
0(
0n
#345000
1(
1n
#350000
0(
0n
#355000
1(
1n
#360000
0(
0n
#365000
1(
1n
#370000
0(
0n
#375000
1(
1n
#380000
0(
0n
#385000
1(
1n
#390000
0(
0n
#395000
1(
1n
#400000
0(
0n
#405000
1(
1n
#410000
0(
0n
#415000
1(
1n
#420000
0(
0n
#425000
1(
1n
#430000
0(
0n
#435000
1(
1n
#440000
0(
0n
#445000
1(
1n
#450000
0(
0n
#455000
1(
1n
#460000
0(
0n
#465000
1(
1n
#470000
0(
0n
#475000
1(
1n
#480000
0(
0n
#485000
1(
1n
#490000
0(
0n
#495000
1(
1n
#500000
0(
0n
#505000
1(
1n
1[
1$!
17!
b1 5!
#510000
0(
0n
#515000
1(
1n
b100100011 ="
b1 0!
b1 3!
b11 2!
0o!
1%!
1*
1A!
1a!
1`!
1\!
1Y!
0;
1q
b1 q!
b10 q!
b11 q!
b100 q!
b100100011 &!
b11 5!
b1 c!
1:
19
15
12
1m!
b1 q!
b10 q!
b11 q!
b100 q!
b1111 '!
b1111 (!
1Q
1F
1E
1D
1C
0B
1P
1A
1@
1?
1>
0=
1K
#520000
0(
0n
#525000
1(
1n
b11 3!
b10 2!
b1 1!
b11 0!
b1000100100 ="
0a!
0`!
1_!
0Y!
1X!
1@!
b1 q!
b10 q!
b11 q!
b100 q!
b1000100100 &!
b11 c!
b10 5!
0:
09
18
02
11
1l!
b1 q!
b10 q!
b11 q!
b100 q!
b1101 '!
b1101 (!
b10 c!
0Q
0E
1O
0@
1J
0m!
b1 q!
b10 q!
b11 q!
b100 q!
b1110 '!
b1110 (!
0F
1E
0P
0A
1@
0K
#530000
0(
0n
#535000
1(
1n
0[
0$!
07!
b1100100101 ="
b11 1!
b10 0!
b10 3!
b110 2!
0A!
1a!
1Y!
b1 q!
b10 q!
b11 q!
b100 q!
b1100100101 &!
b110 5!
b11 c!
1:
12
1m!
b1 q!
b10 q!
b11 q!
b100 q!
b1101 '!
b1101 (!
1F
0E
1P
1A
0@
1K
#540000
0(
0n
#545000
1(
1n
0%!
0*
