user/sim/wave.vcd
$date
	Tue Aug 27 21:50:59 2024
$end
$version
	ModelSim Version 2020.4
$end
$timescale
	1ps
$end

$scope module tb_sync_fifo $end
$var parameter 32 ! INPUT_WIDTH $end
$var parameter 32 " OUTPUT_WIDTH $end
$var parameter 32 # WR_DEPTH $end
$var parameter 32 $ RD_DEPTH $end
$var parameter 32 % MODE $end
$var parameter 24 & DIRECTION $end
$var parameter 32 ' MAIN_FRE $end
$var reg 1 ( sys_clk $end
$var reg 1 ) sys_rst $end
$var wire 1 * valid $end
$var wire 1 + dout [15] $end
$var wire 1 , dout [14] $end
$var wire 1 - dout [13] $end
$var wire 1 . dout [12] $end
$var wire 1 / dout [11] $end
$var wire 1 0 dout [10] $end
$var wire 1 1 dout [9] $end
$var wire 1 2 dout [8] $end
$var wire 1 3 dout [7] $end
$var wire 1 4 dout [6] $end
$var wire 1 5 dout [5] $end
$var wire 1 6 dout [4] $end
$var wire 1 7 dout [3] $end
$var wire 1 8 dout [2] $end
$var wire 1 9 dout [1] $end
$var wire 1 : dout [0] $end
$var wire 1 ; full $end
$var wire 1 < empty $end
$var wire 1 = wr_data_count [4] $end
$var wire 1 > wr_data_count [3] $end
$var wire 1 ? wr_data_count [2] $end
$var wire 1 @ wr_data_count [1] $end
$var wire 1 A wr_data_count [0] $end
$var wire 1 B rd_data_count [4] $end
$var wire 1 C rd_data_count [3] $end
$var wire 1 D rd_data_count [2] $end
$var wire 1 E rd_data_count [1] $end
$var wire 1 F rd_data_count [0] $end
$var wire 1 G wr_data_space [4] $end
$var wire 1 H wr_data_space [3] $end
$var wire 1 I wr_data_space [2] $end
$var wire 1 J wr_data_space [1] $end
$var wire 1 K wr_data_space [0] $end
$var wire 1 L rd_data_space [4] $end
$var wire 1 M rd_data_space [3] $end
$var wire 1 N rd_data_space [2] $end
$var wire 1 O rd_data_space [1] $end
$var wire 1 P rd_data_space [0] $end
$var reg 1 Q wr_en $end
$var reg 1 R rd_en $end
$var reg 16 S din [15:0] $end

$scope module CP_fifo $end
$var parameter 32 T INPUT_WIDTH $end
$var parameter 32 U OUTPUT_WIDTH $end
$var parameter 32 V WR_DEPTH $end
$var parameter 32 W RD_DEPTH $end
$var parameter 32 X MODE $end
$var parameter 24 Y DIRECTION $end
$var parameter 32 Z RAM_NUM $end
$var parameter 32 [ RAM_WIDTH $end
$var parameter 32 \ RAM_DEPTH $end
$var parameter 32 ] RAM_WR_WIDTH $end
$var parameter 32 ^ RAM_RD_WIDTH $end
$var wire 1 _ clock $end
$var wire 1 ` reset $end
$var wire 1 a wr_en $end
$var wire 1 b wr_ready $end
$var wire 1 c din [15] $end
$var wire 1 d din [14] $end
$var wire 1 e din [13] $end
$var wire 1 f din [12] $end
$var wire 1 g din [11] $end
$var wire 1 h din [10] $end
$var wire 1 i din [9] $end
$var wire 1 j din [8] $end
$var wire 1 k din [7] $end
$var wire 1 l din [6] $end
$var wire 1 m din [5] $end
$var wire 1 n din [4] $end
$var wire 1 o din [3] $end
$var wire 1 p din [2] $end
$var wire 1 q din [1] $end
$var wire 1 r din [0] $end
$var wire 1 s rd_en $end
$var reg 1 t valid $end
$var reg 16 u dout [15:0] $end
$var wire 1 ; full $end
$var wire 1 < empty $end
$var reg 5 v wr_data_count [4:0] $end
$var wire 1 G wr_data_space [4] $end
$var wire 1 H wr_data_space [3] $end
$var wire 1 I wr_data_space [2] $end
$var wire 1 J wr_data_space [1] $end
$var wire 1 K wr_data_space [0] $end
$var reg 5 w rd_data_count [4:0] $end
$var wire 1 L rd_data_space [4] $end
$var wire 1 M rd_data_space [3] $end
$var wire 1 N rd_data_space [2] $end
$var wire 1 O rd_data_space [1] $end
$var wire 1 P rd_data_space [0] $end
$var reg 1 x rst_d1 $end
$var reg 1 y rst_d2 $end
$var wire 1 z sys_rst $end
$var reg 5 { wr_ptr [4:0] $end
$var reg 3 | wr_ptr_d1 [2:0] $end
$var reg 5 } rd_ptr [4:0] $end
$var reg 3 ~ rd_ptr_d1 [2:0] $end
$var reg 5 !! rd_ptr_next [4:0] $end
$var reg 5 "! rd_ptr_fwft [4:0] $end
$var wire 1 #! ram_wr_en [0] $end
$var wire 1 $! ram_rd_en [0] $end
$var wire 1 %! ram_wr_addr [4] $end
$var wire 1 &! ram_wr_addr [3] $end
$var wire 1 '! ram_wr_addr [2] $end
$var wire 1 (! ram_wr_addr [1] $end
$var wire 1 )! ram_wr_addr [0] $end
$var wire 1 *! ram_rd_addr [4] $end
$var wire 1 +! ram_rd_addr [3] $end
$var wire 1 ,! ram_rd_addr [2] $end
$var wire 1 -! ram_rd_addr [1] $end
$var wire 1 .! ram_rd_addr [0] $end
$var wire 1 /! ram_wr_data [15] $end
$var wire 1 0! ram_wr_data [14] $end
$var wire 1 1! ram_wr_data [13] $end
$var wire 1 2! ram_wr_data [12] $end
$var wire 1 3! ram_wr_data [11] $end
$var wire 1 4! ram_wr_data [10] $end
$var wire 1 5! ram_wr_data [9] $end
$var wire 1 6! ram_wr_data [8] $end
$var wire 1 7! ram_wr_data [7] $end
$var wire 1 8! ram_wr_data [6] $end
$var wire 1 9! ram_wr_data [5] $end
$var wire 1 :! ram_wr_data [4] $end
$var wire 1 ;! ram_wr_data [3] $end
$var wire 1 <! ram_wr_data [2] $end
$var wire 1 =! ram_wr_data [1] $end
$var wire 1 >! ram_wr_data [0] $end
$var wire 1 ?! ram_rd_data [15] $end
$var wire 1 @! ram_rd_data [14] $end
$var wire 1 A! ram_rd_data [13] $end
$var wire 1 B! ram_rd_data [12] $end
$var wire 1 C! ram_rd_data [11] $end
$var wire 1 D! ram_rd_data [10] $end
$var wire 1 E! ram_rd_data [9] $end
$var wire 1 F! ram_rd_data [8] $end
$var wire 1 G! ram_rd_data [7] $end
$var wire 1 H! ram_rd_data [6] $end
$var wire 1 I! ram_rd_data [5] $end
$var wire 1 J! ram_rd_data [4] $end
$var wire 1 K! ram_rd_data [3] $end
$var wire 1 L! ram_rd_data [2] $end
$var wire 1 M! ram_rd_data [1] $end
$var wire 1 N! ram_rd_data [0] $end
$var reg 5 O! wr_ptr_b [4:0] $end
$var reg 5 P! rd_ptr_b [4:0] $end
$var wire 1 Q! ram_wr_addr_b [4] $end
$var wire 1 R! ram_wr_addr_b [3] $end
$var wire 1 S! ram_wr_addr_b [2] $end
$var wire 1 T! ram_wr_addr_b [1] $end
$var wire 1 U! ram_wr_addr_b [0] $end
$var wire 1 V! ram_rd_addr_b [4] $end
$var wire 1 W! ram_rd_addr_b [3] $end
$var wire 1 X! ram_rd_addr_b [2] $end
$var wire 1 Y! ram_rd_addr_b [1] $end
$var wire 1 Z! ram_rd_addr_b [0] $end
$var reg 1 [! fwft_valid $end
$var reg 1 \! empty_d1 $end
$var wire 1 ]! pre_read $end
$var integer 32 ^! k $end

$scope begin RD_GRAY_COUNTER[2] $end
$var parameter 32 _! j $end
$upscope $end

$scope begin WR_GRAY_COUNTER[2] $end
$var parameter 32 `! m $end
$upscope $end

$scope begin genblk7 $end
$upscope $end

$scope begin genblk6 $end
$upscope $end

$scope begin genblk3 $end
$upscope $end

$scope begin fwft_mode_read $end
$upscope $end

$scope begin BIG_TO_SMALL_RAM $end
$var reg 1 a! ram_sel [0:0] $end
$var reg 1 b! rd_en_d1 [0:0] $end
$var wire 1 c! rd_en_d2 [0] $end

$scope begin B2S_DUAL_PORT_RAM[0] $end
$var parameter 32 d! i $end

$scope begin genblk3 $end

$scope module u_DPRAM $end
$var parameter 32 e! WIDTH $end
$var parameter 32 f! DEPTH $end
$var wire 1 _ clka $end
$var wire 1 g! ena $end
$var wire 1 #! wea $end
$var wire 1 &! addra [3] $end
$var wire 1 '! addra [2] $end
$var wire 1 (! addra [1] $end
$var wire 1 )! addra [0] $end
$var wire 1 c dina [15] $end
$var wire 1 d dina [14] $end
$var wire 1 e dina [13] $end
$var wire 1 f dina [12] $end
$var wire 1 g dina [11] $end
$var wire 1 h dina [10] $end
$var wire 1 i dina [9] $end
$var wire 1 j dina [8] $end
$var wire 1 k dina [7] $end
$var wire 1 l dina [6] $end
$var wire 1 m dina [5] $end
$var wire 1 n dina [4] $end
$var wire 1 o dina [3] $end
$var wire 1 p dina [2] $end
$var wire 1 q dina [1] $end
$var wire 1 r dina [0] $end
$var reg 16 h! douta [15:0] $end
$var wire 1 _ clkb $end
$var wire 1 $! enb $end
$var wire 1 i! web $end
$var wire 1 +! addrb [3] $end
$var wire 1 ,! addrb [2] $end
$var wire 1 -! addrb [1] $end
$var wire 1 .! addrb [0] $end
$var wire 1 j! dinb [15] $end
$var wire 1 k! dinb [14] $end
$var wire 1 l! dinb [13] $end
$var wire 1 m! dinb [12] $end
$var wire 1 n! dinb [11] $end
$var wire 1 o! dinb [10] $end
$var wire 1 p! dinb [9] $end
$var wire 1 q! dinb [8] $end
$var wire 1 r! dinb [7] $end
$var wire 1 s! dinb [6] $end
$var wire 1 t! dinb [5] $end
$var wire 1 u! dinb [4] $end
$var wire 1 v! dinb [3] $end
$var wire 1 w! dinb [2] $end
$var wire 1 x! dinb [1] $end
$var wire 1 y! dinb [0] $end
$var reg 16 z! doutb [15:0] $end
$var integer 32 {! i $end
$upscope $end
$upscope $end

$scope begin genblk2 $end
$upscope $end

$scope begin genblk1 $end
$upscope $end
$upscope $end

$scope begin genblk4 $end
$upscope $end

$scope begin genblk3 $end
$upscope $end

$scope begin genblk1 $end
$upscope $end
$upscope $end

$scope begin fwft_g2b $end
$upscope $end
$upscope $end
$upscope $end
$enddefinitions $end
#0
$dumpvars
0(
1)
0Q
0R
bx S
xt
b0 u
bx v
bx w
xx
xy
bx {
bx |
bx }
bx ~
bx !!
bx "!
bx O!
bx P!
x[!
x\!
b0 a!
bx b!
b0 h!
b0 z!
b10000 !
b10000 "
b10000 #
b10000 $
b1100100 '
b10000 T
b10000 U
b10000 V
b10000 W
b1 Z
b10000 [
b10000 \
b10000 ]
b10000 ^
b10 `!
b10 _!
b0 d!
b10000 e!
b10000 f!
b1000110010101110100011001010100 %
b10011000101001101000010 &
b1000110010101110100011001010100 X
b10011000101001101000010 Y
b10000 {!
bx ^!
x*
0:
09
08
07
06
05
04
03
02
01
00
0/
0.
0-
0,
0+
x;
x<
xA
x@
x?
x>
x=
xF
xE
xD
xC
xB
xK
xJ
xI
xH
xG
xP
xO
xN
xM
xL
xz
0#!
x$!
x)!
x(!
x'!
x&!
x%!
x.!
x-!
x,!
x+!
x*!
z>!
z=!
z<!
z;!
z:!
z9!
z8!
z7!
z6!
z5!
z4!
z3!
z2!
z1!
z0!
z/!
0N!
0M!
0L!
0K!
0J!
0I!
0H!
0G!
0F!
0E!
0D!
0C!
0B!
0A!
0@!
0?!
xU!
xT!
xS!
xR!
xQ!
xZ!
xY!
xX!
xW!
xV!
x]!
zc!
0s
xr
xq
xp
xo
xn
xm
xl
xk
xj
xi
xh
xg
xf
xe
xd
xc
0a
1`
0_
xb
1y!
1x!
1w!
1v!
1u!
1t!
1s!
1r!
1q!
1p!
1o!
1n!
1m!
1l!
1k!
1j!
0i!
1g!
$end
#5000
1(
1_
0x
0y
bx h!
b100100011 S
1r
1q
0p
0o
0n
1m
0l
0k
1j
0i
0h
0g
0f
0e
0d
0c
0z
b0 "!
0t
b0 v
b0 w
b0 O!
b0 P!
b0 |
b0 {
b0 ~
b0 }
b1 !!
0[!
1\!
0*
0F
0E
0D
0C
0B
0P
0O
0N
0M
1L
0A
0@
0?
0>
0=
0K
0J
0I
0H
1G
0)!
0(!
0'!
0&!
0%!
0Z!
0Y!
0X!
0W!
0V!
0U!
0T!
0S!
0R!
0Q!
0.!
0-!
0,!
0+!
0*!
1<
0;
1b
0]!
0$!
#10000
0(
0_
#15000
1(
1_
b0 h!
#20000
0(
0_
#25000
1(
1_
#30000
0(
0_
#35000
1(
1_
#40000
0(
0_
#45000
1(
1_
#50000
0)
0(
0`
0_
1x
#55000
1(
1_
1y
1z
b1 ^!
b10 ^!
b11 ^!
b100 ^!
b1 ^!
b10 ^!
b11 ^!
b100 ^!
#60000
0(
0_
#65000
1(
1_
#70000
0(
0_
#75000
1(
1_
#80000
0(
0_
#85000
1(
1_
#90000
0(
0_
#95000
1(
1_
#100000
0(
0_
#105000
1(
1_
1Q
1a
1#!
#110000
0(
0_
#115000
1(
1_
b1 {
b100100100 S
b1000100100 S
0r
0q
1p
0j
1i
1)!
0<
1]!
1$!
b1 ^!
b10 ^!
b11 ^!
b100 ^!
b1 O!
1U!
b1 ^!
b10 ^!
b11 ^!
b100 ^!
b1 v
b1 w
1F
1P
1O
1N
1M
0L
1A
1K
1J
1I
1H
0G
#120000
0(
0_
#125000
1(
1_
0\!
b1 |
b11 {
b100100011 z!
b1000100101 S
b1100100101 S
0]!
0$!
1r
1j
1N!
1M!
1I!
1F!
1(!
b1 ^!
b10 ^!
b11 ^!
b100 ^!
b100100011 u
b11 O!
1t
1:
19
15
12
1*
1T!
b1 ^!
b10 ^!
b11 ^!
b100 ^!
b11 v
b11 w
b10 O!
1E
0O
1@
0J
0U!
b1 ^!
b10 ^!
b11 ^!
b100 ^!
b10 v
b10 w
0F
0P
1O
0A
0K
1J
#130000
0(
0_
#135000
1(
1_
b11 |
b10 {
b1100100110 S
b10000100110 S
0r
1q
0j
0i
1h
0)!
b1 ^!
b10 ^!
b11 ^!
b100 ^!
b11 O!
1U!
b1 ^!
b10 ^!
b11 ^!
b100 ^!
b11 v
b11 w
1F
1P
0O
1A
1K
0J
#140000
0(
0_
#145000
1(
1_
b10 |
b110 {
b10000100111 S
b10100100111 S
1r
1j
1'!
b1 ^!
b10 ^!
b11 ^!
b100 ^!
b111 O!
1S!
b1 ^!
b10 ^!
b11 ^!
b100 ^!
b111 v
b111 w
b101 O!
1D
0N
1?
0I
0T!
b1 ^!
b10 ^!
b11 ^!
b100 ^!
b101 v
b101 w
b100 O!
0E
1O
0@
1J
0U!
b1 ^!
b10 ^!
b11 ^!
b100 ^!
b100 v
b100 w
0F
0P
0O
1N
0A
0K
0J
1I
#150000
0(
0_
#155000
1(
1_
b110 |
b111 {
b10100101000 S
b11000101000 S
0r
0q
0p
1o
0j
1i
1)!
b1 ^!
b10 ^!
b11 ^!
b100 ^!
b101 O!
1U!
b1 ^!
b10 ^!
b11 ^!
b100 ^!
b101 v
b101 w
1F
1P
1O
0N
1A
1K
1J
0I
#160000
0(
0_
#165000
1(
1_
b111 |
b101 {
b11000101001 S
b11100101001 S
1r
1j
0(!
b1 ^!
b10 ^!
b11 ^!
b100 ^!
b111 O!
1T!
b1 ^!
b10 ^!
b11 ^!
b100 ^!
b111 v
b111 w
b110 O!
1E
0O
1@
0J
0U!
b1 ^!
b10 ^!
b11 ^!
b100 ^!
b110 v
b110 w
0F
0P
1O
0A
0K
1J
#170000
0(
0_
#175000
1(
1_
b101 |
b100 {
b11100101010 S
b100000101010 S
0r
1q
0j
0i
0h
1g
0)!
b1 ^!
b10 ^!
b11 ^!
b100 ^!
b111 O!
1U!
b1 ^!
b10 ^!
b11 ^!
b100 ^!
b111 v
b111 w
1F
1P
0O
1A
1K
0J
#180000
0(
0_
#185000
1(
1_
b100 |
b1100 {
b100000101011 S
b100100101011 S
1r
1j
1&!
b1 ^!
b10 ^!
b11 ^!
b100 ^!
b1111 O!
1R!
b1 ^!
b10 ^!
b11 ^!
b100 ^!
b1111 v
b1111 w
b1011 O!
1C
0M
1>
0H
0S!
b1 ^!
b10 ^!
b11 ^!
b100 ^!
b1011 v
b1011 w
b1001 O!
0D
1N
0?
1I
0T!
b1 ^!
b10 ^!
b11 ^!
b100 ^!
b1001 v
b1001 w
b1000 O!
0E
1O
0@
1J
0U!
b1 ^!
b10 ^!
b11 ^!
b100 ^!
b1000 v
b1000 w
0F
0P
0O
0N
1M
0A
0K
0J
0I
1H
#190000
0(
0_
#195000
1(
1_
b1101 {
b100100101100 S
b101000101100 S
0r
0q
1p
0j
1i
1)!
b1 ^!
b10 ^!
b11 ^!
b100 ^!
b1001 O!
1U!
b1 ^!
b10 ^!
b11 ^!
b100 ^!
b1001 v
b1001 w
1F
1P
1O
1N
0M
1A
1K
1J
1I
0H
#200000
0(
0_
#205000
1(
1_
b101 |
b1111 {
b101000101101 S
b101100101101 S
1r
1j
1(!
b1 ^!
b10 ^!
b11 ^!
b100 ^!
b1011 O!
1T!
b1 ^!
b10 ^!
b11 ^!
b100 ^!
b1011 v
b1011 w
b1010 O!
1E
0O
1@
0J
0U!
b1 ^!
b10 ^!
b11 ^!
b100 ^!
b1010 v
b1010 w
0F
0P
1O
0A
0K
1J
#210000
0(
0_
#215000
1(
1_
b111 |
b1110 {
b101100101110 S
b110000101110 S
0r
1q
0j
0i
1h
0)!
b1 ^!
b10 ^!
b11 ^!
b100 ^!
b1011 O!
1U!
b1 ^!
b10 ^!
b11 ^!
b100 ^!
b1011 v
b1011 w
1F
1P
0O
1A
1K
0J
#220000
0(
0_
#225000
1(
1_
b110 |
b1010 {
b110000101111 S
b110100101111 S
1r
1j
0'!
b1 ^!
b10 ^!
b11 ^!
b100 ^!
b1111 O!
1S!
b1 ^!
b10 ^!
b11 ^!
b100 ^!
b1111 v
b1111 w
b1101 O!
1D
0N
1?
0I
0T!
b1 ^!
b10 ^!
b11 ^!
b100 ^!
b1101 v
b1101 w
b1100 O!
0E
1O
0@
1J
0U!
b1 ^!
b10 ^!
b11 ^!
b100 ^!
b1100 v
b1100 w
0F
0P
0O
1N
0A
0K
0J
1I
#230000
0(
0_
#235000
1(
1_
b10 |
b1011 {
b110100110000 S
b111000110000 S
0r
0q
0p
0o
1n
0j
1i
1)!
b1 ^!
b10 ^!
b11 ^!
b100 ^!
b1101 O!
1U!
b1 ^!
b10 ^!
b11 ^!
b100 ^!
b1101 v
b1101 w
1F
1P
1O
0N
1A
1K
1J
0I
#240000
0(
0_
#245000
1(
1_
b11 |
b1001 {
b111000110001 S
b111100110001 S
1r
1j
0(!
b1 ^!
b10 ^!
b11 ^!
b100 ^!
b1111 O!
1T!
b1 ^!
b10 ^!
b11 ^!
b100 ^!
b1111 v
b1111 w
b1110 O!
1E
0O
1@
0J
0U!
b1 ^!
b10 ^!
b11 ^!
b100 ^!
b1110 v
b1110 w
0F
0P
1O
0A
0K
1J
#250000
0(
0_
#255000
1(
1_
b1 |
b1000 {
b111100110010 S
b1000000110010 S
0r
1q
0j
0i
0h
0g
1f
0)!
b1 ^!
b10 ^!
b11 ^!
b100 ^!
b1111 O!
1U!
b1 ^!
b10 ^!
b11 ^!
b100 ^!
b1111 v
b1111 w
1F
1P
0O
1A
1K
0J
#260000
0(
0_
#265000
1(
1_
b0 |
b0 {
b10000 {
b1000000110011 S
b1000100110011 S
1r
1j
0&!
1%!
1;
0b
0#!
b1 ^!
b10 ^!
b11 ^!
b100 ^!
b11111 v
b11111 w
b11111 O!
b10111 O!
1B
1L
1=
1G
0R!
1Q!
b1 ^!
b10 ^!
b11 ^!
b100 ^!
b10111 v
b10111 w
b10011 O!
0C
1M
0>
1H
0S!
b1 ^!
b10 ^!
b11 ^!
b100 ^!
b10011 v
b10011 w
b10001 O!
0D
1N
0?
1I
0T!
b1 ^!
b10 ^!
b11 ^!
b100 ^!
b10001 v
b10001 w
b10000 O!
0E
1O
0@
1J
0U!
b1 ^!
b10 ^!
b11 ^!
b100 ^!
b10000 v
b10000 w
0F
0P
0O
0N
0M
0L
0A
0K
0J
0I
0H
0G
#270000
0(
0_
#275000
1(
1_
b100100011 h!
b1000100110100 S
b1001000110100 S
0r
0q
1p
0j
1i
#280000
0(
0_
#285000
1(
1_
b1001000110101 S
b1001100110101 S
1r
1j
#290000
0(
0_
#295000
1(
1_
b1001100110110 S
b1010000110110 S
0r
1q
0j
0i
1h
#300000
0(
0_
#305000
1(
1_
0Q
0a
b1010000110111 S
b1010100110111 S
1r
1j
#310000
0(
0_
#315000
1(
1_
#320000
0(
0_
#325000
1(
1_
#330000
0(
0_
#335000
1(
1_
#340000
0(
0_
#345000
1(
1_
#350000
0(
0_
#355000
1(
1_
#360000
0(
0_
#365000
1(
1_
#370000
0(
0_
#375000
1(
1_
#380000
0(
0_
#385000
1(
1_
#390000
0(
0_
#395000
1(
1_
#400000
0(
0_
#405000
1(
1_
#410000
0(
0_
#415000
1(
1_
#420000
0(
0_
#425000
1(
1_
#430000
0(
0_
#435000
1(
1_
#440000
0(
0_
#445000
1(
1_
#450000
0(
0_
#455000
1(
1_
#460000
0(
0_
#465000
1(
1_
#470000
0(
0_
#475000
1(
1_
#480000
0(
0_
#485000
1(
1_
#490000
0(
0_
#495000
1(
1_
#500000
0(
0_
#505000
1(
1_
1R
1s
1$!
b1 "!
bz a!
1.!
0;
1b
b1 ^!
b10 ^!
b11 ^!
b100 ^!
b1 P!
1Z!
b1 ^!
b10 ^!
b11 ^!
b100 ^!
b1111 v
b1111 w
1F
1E
1D
1C
0B
1P
1A
1@
1?
1>
0=
1K
#510000
0(
0_
#515000
1(
1_
b1000100100 z!
b1 }
b11 !!
1[!
0N!
0M!
1L!
0F!
1E!
b1000100100 u
bx a!
b11 "!
0:
09
18
02
11
1-!
b1 ^!
b10 ^!
b11 ^!
b100 ^!
b11 P!
1Y!
b1 ^!
b10 ^!
b11 ^!
b100 ^!
b1101 v
b1101 w
b10 P!
0E
1O
0@
1J
0Z!
b1 ^!
b10 ^!
b11 ^!
b100 ^!
b1110 v
b1110 w
0F
1E
0P
0A
1@
0K
#520000
0(
0_
#525000
1(
1_
b1 ~
b11 }
b10 !!
b1100100101 z!
1N!
1F!
b1100100101 u
b10 "!
1:
12
0.!
b1 ^!
b10 ^!
b11 ^!
b100 ^!
b11 P!
1Z!
b1 ^!
b10 ^!
b11 ^!
b100 ^!
b1101 v
b1101 w
1F
0E
1P
1A
0@
1K
#530000
0(
0_
#535000
1(
1_
0R
0s
0$!
b10000100110 z!
b110 !!
b11 ~
b10 }
b0 a!
0N!
1M!
0F!
0E!
1D!
b10000100110 u
b110 "!
0:
19
02
01
10
1,!
b1 ^!
b10 ^!
b11 ^!
b100 ^!
b111 P!
1X!
b1 ^!
b10 ^!
b11 ^!
b100 ^!
b1001 v
b1001 w
b101 P!
0D
1N
0?
1I
0Y!
b1 ^!
b10 ^!
b11 ^!
b100 ^!
b1011 v
b1011 w
b100 P!
1E
0O
1@
0J
0Z!
b1 ^!
b10 ^!
b11 ^!
b100 ^!
b1100 v
b1100 w
0F
0E
1D
0P
0A
0@
1?
0K
