prj/xilinx/template.sim/sim_1/behav/xsim/wave.vcd
$date
   Tue Aug 27 22:11:46 2024
$end
$version
  2018.3
$end
$timescale
  1ps
$end
$scope module tb_async_fifo $end
$var reg 1 ! wr_clk $end
$var reg 1 " rd_clk $end
$var reg 1 # sys_rst $end
$var wire 1 $ valid $end
$var wire 64 % dout [63:0] $end
$var wire 1 & full $end
$var wire 1 ' empty $end
$var wire 8 ( wr_data_count [7:0] $end
$var wire 5 ) rd_data_count [4:0] $end
$var wire 8 * wr_data_space [7:0] $end
$var wire 5 + rd_data_space [4:0] $end
$var reg 1 , wr_en $end
$var reg 1 - rd_en $end
$var reg 8 . din [7:0] $end
$var parameter 32 / INPUT_WIDTH [31:0] $end
$var parameter 32 0 OUTPUT_WIDTH [31:0] $end
$var parameter 32 1 WR_DEPTH [31:0] $end
$var parameter 32 2 RD_DEPTH [31:0] $end
$var parameter 32 3 MODE [31:0] $end
$var parameter 24 4 DIRECTION [23:0] $end
$var parameter 32 5 WR_FRE [31:0] $end
$var parameter 32 6 RD_FRE [31:0] $end
$scope module u_async_fifo $end
$var wire 1 7 rst $end
$var wire 1 8 wr_clk $end
$var wire 1 9 wr_en $end
$var wire 8 : din [7:0] $end
$var wire 1 ; rd_clk $end
$var wire 1 < rd_en $end
$var reg 1 = valid $end
$var reg 64 > dout [63:0] $end
$var wire 1 & full $end
$var wire 1 ' empty $end
$var reg 8 ? wr_data_count [7:0] $end
$var wire 8 * wr_data_space [7:0] $end
$var reg 5 @ rd_data_count [4:0] $end
$var wire 5 + rd_data_space [4:0] $end
$var reg 1 A rst_d1 $end
$var reg 1 B rst_d2 $end
$var wire 1 C rd_rst $end
$var reg 1 D rd_rst_d1 $end
$var reg 1 E rd_rst_d2 $end
$var wire 1 F wr_rst $end
$var reg 8 G wr_ptr [7:0] $end
$var reg 7 H wr_ptr_d1 [6:0] $end
$var reg 5 I rd_ptr [4:0] $end
$var reg 4 J rd_ptr_d1 [3:0] $end
$var reg 5 K rd_ptr_fwft [4:0] $end
$var reg 5 L rd_ptr_fwft_d1 [4:0] $end
$var wire 64 M ram_rd_data [63:0] $end
$var wire 8 N ram_wr_en [7:0] $end
$var wire 8 O ram_rd_en [7:0] $end
$var wire 5 P ram_wr_addr [4:0] $end
$var wire 5 Q ram_rd_addr [4:0] $end
$var reg 5 R ram_wr_addr_g_d1 [4:0] $end
$var reg 5 S ram_wr_addr_g_d2 [4:0] $end
$var reg 5 T ram_rd_addr_g_d1 [4:0] $end
$var reg 5 U ram_rd_addr_g_d2 [4:0] $end
$var reg 8 V wr_ptr_b [7:0] $end
$var reg 5 W rd_ptr_b [4:0] $end
$var wire 5 X ram_wr_addr_b [4:0] $end
$var wire 5 Y ram_rd_addr_b [4:0] $end
$var reg 5 Z ram_wr_addr_b_d2 [4:0] $end
$var reg 5 [ ram_rd_addr_b_d2 [4:0] $end
$var reg 1 \ fwft_valid $end
$var reg 1 ] \fwft_mode_read.empty_d1  $end
$var reg 8 ^ \SMALL_TO_BIG_RAM.wr_en_d1  [7:0] $end
$var integer 32 _ k $end
$var parameter 32 ` INPUT_WIDTH [31:0] $end
$var parameter 32 a OUTPUT_WIDTH [31:0] $end
$var parameter 32 b WR_DEPTH [31:0] $end
$var parameter 32 c RD_DEPTH [31:0] $end
$var parameter 32 d MODE [31:0] $end
$var parameter 24 e DIRECTION [23:0] $end
$var parameter 32 f RAM_NUM [31:0] $end
$var parameter 32 g RAM_WIDTH [31:0] $end
$var parameter 32 h RAM_DEPTH [31:0] $end
$var parameter 32 i RAM_WR_WIDTH [31:0] $end
$var parameter 32 j RAM_RD_WIDTH [31:0] $end
$scope module SMALL_TO_BIG_RAM.genblk1[0].genblk2.u_DPRAM $end
$var wire 1 8 clka $end
$var wire 1 k ena $end
$var wire 1 l wea $end
$var wire 4 m addra [3:0] $end
$var wire 8 : dina [7:0] $end
$var reg 8 n douta [7:0] $end
$var wire 1 ; clkb $end
$var wire 1 o enb $end
$var wire 1 p web $end
$var wire 4 q addrb [3:0] $end
$var wire 8 r dinb [7:0] $end
$var reg 8 s doutb [7:0] $end
$var integer 32 t i $end
$var parameter 32 u WIDTH [31:0] $end
$var parameter 32 v DEPTH [31:0] $end
$upscope $end
$scope module SMALL_TO_BIG_RAM.genblk1[1].genblk2.u_DPRAM $end
$var wire 1 8 clka $end
$var wire 1 w ena $end
$var wire 1 x wea $end
$var wire 4 m addra [3:0] $end
$var wire 8 : dina [7:0] $end
$var reg 8 y douta [7:0] $end
$var wire 1 ; clkb $end
$var wire 1 z enb $end
$var wire 1 { web $end
$var wire 4 q addrb [3:0] $end
$var wire 8 | dinb [7:0] $end
$var reg 8 } doutb [7:0] $end
$var integer 32 ~ i $end
$var parameter 32 !! WIDTH [31:0] $end
$var parameter 32 "! DEPTH [31:0] $end
$upscope $end
$scope module SMALL_TO_BIG_RAM.genblk1[2].genblk2.u_DPRAM $end
$var wire 1 8 clka $end
$var wire 1 #! ena $end
$var wire 1 $! wea $end
$var wire 4 m addra [3:0] $end
$var wire 8 : dina [7:0] $end
$var reg 8 %! douta [7:0] $end
$var wire 1 ; clkb $end
$var wire 1 &! enb $end
$var wire 1 '! web $end
$var wire 4 q addrb [3:0] $end
$var wire 8 (! dinb [7:0] $end
$var reg 8 )! doutb [7:0] $end
$var integer 32 *! i $end
$var parameter 32 +! WIDTH [31:0] $end
$var parameter 32 ,! DEPTH [31:0] $end
$upscope $end
$scope module SMALL_TO_BIG_RAM.genblk1[3].genblk2.u_DPRAM $end
$var wire 1 8 clka $end
$var wire 1 -! ena $end
$var wire 1 .! wea $end
$var wire 4 m addra [3:0] $end
$var wire 8 : dina [7:0] $end
$var reg 8 /! douta [7:0] $end
$var wire 1 ; clkb $end
$var wire 1 0! enb $end
$var wire 1 1! web $end
$var wire 4 q addrb [3:0] $end
$var wire 8 2! dinb [7:0] $end
$var reg 8 3! doutb [7:0] $end
$var integer 32 4! i $end
$var parameter 32 5! WIDTH [31:0] $end
$var parameter 32 6! DEPTH [31:0] $end
$upscope $end
$scope module SMALL_TO_BIG_RAM.genblk1[4].genblk2.u_DPRAM $end
$var wire 1 8 clka $end
$var wire 1 7! ena $end
$var wire 1 8! wea $end
$var wire 4 m addra [3:0] $end
$var wire 8 : dina [7:0] $end
$var reg 8 9! douta [7:0] $end
$var wire 1 ; clkb $end
$var wire 1 :! enb $end
$var wire 1 ;! web $end
$var wire 4 q addrb [3:0] $end
$var wire 8 <! dinb [7:0] $end
$var reg 8 =! doutb [7:0] $end
$var integer 32 >! i $end
$var parameter 32 ?! WIDTH [31:0] $end
$var parameter 32 @! DEPTH [31:0] $end
$upscope $end
$scope module SMALL_TO_BIG_RAM.genblk1[5].genblk2.u_DPRAM $end
$var wire 1 8 clka $end
$var wire 1 A! ena $end
$var wire 1 B! wea $end
$var wire 4 m addra [3:0] $end
$var wire 8 : dina [7:0] $end
$var reg 8 C! douta [7:0] $end
$var wire 1 ; clkb $end
$var wire 1 D! enb $end
$var wire 1 E! web $end
$var wire 4 q addrb [3:0] $end
$var wire 8 F! dinb [7:0] $end
$var reg 8 G! doutb [7:0] $end
$var integer 32 H! i $end
$var parameter 32 I! WIDTH [31:0] $end
$var parameter 32 J! DEPTH [31:0] $end
$upscope $end
$scope module SMALL_TO_BIG_RAM.genblk1[6].genblk2.u_DPRAM $end
$var wire 1 8 clka $end
$var wire 1 K! ena $end
$var wire 1 L! wea $end
$var wire 4 m addra [3:0] $end
$var wire 8 : dina [7:0] $end
$var reg 8 M! douta [7:0] $end
$var wire 1 ; clkb $end
$var wire 1 N! enb $end
$var wire 1 O! web $end
$var wire 4 q addrb [3:0] $end
$var wire 8 P! dinb [7:0] $end
$var reg 8 Q! doutb [7:0] $end
$var integer 32 R! i $end
$var parameter 32 S! WIDTH [31:0] $end
$var parameter 32 T! DEPTH [31:0] $end
$upscope $end
$scope module SMALL_TO_BIG_RAM.genblk1[7].genblk2.u_DPRAM $end
$var wire 1 8 clka $end
$var wire 1 U! ena $end
$var wire 1 V! wea $end
$var wire 4 m addra [3:0] $end
$var wire 8 : dina [7:0] $end
$var reg 8 W! douta [7:0] $end
$var wire 1 ; clkb $end
$var wire 1 X! enb $end
$var wire 1 Y! web $end
$var wire 4 q addrb [3:0] $end
$var wire 8 Z! dinb [7:0] $end
$var reg 8 [! doutb [7:0] $end
$var integer 32 \! i $end
$var parameter 32 ]! WIDTH [31:0] $end
$var parameter 32 ^! DEPTH [31:0] $end
$upscope $end
$upscope $end
$upscope $end
$enddefinitions $end
#0
$dumpvars
0!
b1000 !!
0"
b10000 "!
0#
1#!
0$
0$!
b0 %
b0 %!
0&
0&!
1'
z'!
b0 (
bz (!
b0 )
b0 )!
b10000000 *
b10000 *!
b10000 +
b1000 +!
0,
b10000 ,!
0-
1-!
b1 .
0.!
b1000 /
b0 /!
b1000000 0
00!
b10000000 1
z1!
b10000 2
bz 2!
b1000110010101110100011001010100 3
b0 3!
b10011010101001101000010 4
b10000 4!
b1100100 5
b1000 5!
b110010 6
b10000 6!
07
17!
08
08!
09
b0 9!
b1 :
0:!
0;
z;!
0<
bz <!
0=
b0 =!
b0 >
b10000 >!
b0 ?
b1000 ?!
b0 @
b10000 @!
0A
1A!
0B
0B!
0C
b0 C!
0D
0D!
0E
zE!
0F
bz F!
b0 G
b0 G!
b0 H
b10000 H!
b0 I
b1000 I!
b0 J
b10000 J!
b11 K
1K!
b0 L
0L!
b0 M
b0 M!
b0 N
0N!
b0 O
zO!
b0 P
bz P!
b0 Q
b0 Q!
b0 R
b10000 R!
b0 S
b1000 S!
b0 T
b10000 T!
b0 U
1U!
b0 V
0V!
b0 W
b0 W!
b0 X
0X!
b0 Y
zY!
b0 Z
bz Z!
b0 [
b0 [!
0\
b10000 \!
0]
b1000 ]!
b1 ^
b10000 ^!
bx _
b1000 `
b1000000 a
b10000000 b
b10000 c
b1000110010101110100011001010100 d
b10011010101001101000010 e
b1000 f
b1000 g
b10000 h
b1000000 i
b1000000 j
1k
0l
b0 m
b0 n
0o
zp
b0 q
bz r
b0 s
b10000 t
b1000 u
b10000 v
1w
0x
b0 y
0z
z{
bz |
b0 }
b10000 ~
$end
#5000
1!
18
0E
#10000
0!
1"
08
1;
#15000
1!
18
0E
#20000
0!
0"
08
0;
#25000
1!
18
0E
#30000
0!
1"
08
1;
#35000
1!
18
0E
#40000
0!
0"
08
0;
#45000
1!
18
0E
#50000
0!
1"
1#
17
08
1;
1A
#55000
1!
18
0E
#60000
0!
0"
08
0;
#65000
1!
18
0E
#70000
0!
1"
08
1;
1B
1C
b101 _
#75000
1!
18
1D
0E
#80000
0!
0"
08
0;
#85000
1!
18
1E
1F
b101 _
#90000
0!
1"
08
1;
1]
#95000
1!
18
1E
#100000
0!
0"
0$!
1,
0.!
08
08!
19
0;
0B!
0L!
b1 N
0V!
1l
0x
#105000
1!
b1 (
b1111111 *
b10 .
18
b10 :
b1 ?
1E
b1 G
b10 N
b0 P
b1 V
b10 ^
b1000 _
0l
b0 m
1x
#110000
0!
1"
08
1;
#115000
1!
1$!
b10 (
b1111110 *
b11 .
18
b11 :
b10 ?
1E
b11 G
b1 H
b100 N
b0 P
b10 V
b100 ^
b1000 _
b0 m
b1 n
0x
#120000
0!
0"
08
0;
#125000
1!
0$!
b11 (
b1111101 *
b100 .
1.!
18
b100 :
b11 ?
1E
b10 G
b11 H
b1000 N
b0 P
b11 V
b1000 ^
b1000 _
b0 m
b10 y
#130000
0!
1"
08
1;
#135000
1!
b11 %!
b100 (
b1111100 *
b101 .
0.!
18
18!
b101 :
b100 ?
1E
b110 G
b10 H
b10000 N
b0 P
b100 V
b10000 ^
b1000 _
b0 m
#140000
0!
0"
08
0;
#145000
1!
b101 (
b1111011 *
b110 .
b100 /!
18
08!
b110 :
b101 ?
1B!
1E
b111 G
b110 H
b100000 N
b0 P
b101 V
b100000 ^
b1000 _
b0 m
#150000
0!
1"
08
1;
#155000
1!
b110 (
b1111010 *
b111 .
18
b101 9!
b111 :
b110 ?
0B!
1E
b101 G
b111 H
1L!
b1000000 N
b0 P
b110 V
b1000000 ^
b1000 _
b0 m
#160000
0!
0"
08
0;
#165000
1!
b111 (
b1111001 *
b1000 .
18
b1000 :
b111 ?
b110 C!
1E
b100 G
b101 H
0L!
b10000000 N
b0 P
b111 V
1V!
b10000000 ^
b1000 _
b0 m
#170000
0!
1"
08
1;
#175000
1!
0&
b1000 (
b1111000 *
b1001 .
18
b1001 :
b1000 ?
1E
b1100 G
b100 H
b111 M!
b1 N
b1 P
b1000 V
0V!
b1 X
b1 ^
b1000 _
1l
b1 m
#180000
0!
0"
08
0;
#185000
1!
b0 %!
b1001 (
b1110111 *
b1010 .
b0 /!
18
b0 9!
b1010 :
b1001 ?
b0 C!
1E
b1101 G
b1100 H
b0 M!
b10 N
b1 P
b1001 V
b10 ^
b1000 _
0l
b1 m
b0 n
1x
b0 y
#190000
0!
1"
08
1;
b1 R
#195000
1!
1$!
b1010 (
b1110110 *
b1011 .
18
b1011 :
b1010 ?
1E
b1111 G
b1101 H
b100 N
b1 P
b1010 V
b100 ^
b1000 _
b1 m
b1001 n
0x
#200000
0!
0"
08
0;
#205000
1!
0$!
b1011 (
b1110101 *
b1100 .
1.!
18
b1100 :
b1011 ?
1E
b1110 G
b1111 H
b1000 N
b1 P
b1011 V
b1000 ^
b1000 _
b1 m
b1010 y
#210000
0!
1"
1&!
0'
b1 )
b1111 +
10!
08
1:!
1;
b1 @
1D!
1N!
b11111111 O
b1 S
1X!
b1 Z
b101 _
1o
1z
#215000
1!
b1011 %!
b1100 (
b1110100 *
b1101 .
0.!
18
18!
b1101 :
b1100 ?
1E
b1010 G
b1110 H
b10000 N
b1 P
b1100 V
b10000 ^
b1000 _
b1 m
#220000
0!
0"
08
0;
#225000
1!
b1101 (
b1110011 *
b1110 .
b1100 /!
18
08!
b1110 :
b1101 ?
1B!
1E
b1011 G
b1010 H
b100000 N
b1 P
b1101 V
b100000 ^
b1000 _
b1 m
#230000
0!
1"
b100000010000000110000010000000101000001100000011100001000 %
b11 )!
b100 3!
08
1;
b101 =!
b100000010000000110000010000000101000001100000011100001000 >
b110 G!
b100000010000000110000010000000101000001100000011100001000 M
b111 Q!
b1000 [!
0]
b1 s
b10 }
#235000
1!
b1110 (
b1110010 *
b1111 .
18
b1101 9!
b1111 :
b1110 ?
0B!
1E
b1001 G
b1011 H
1L!
b1000000 N
b1 P
b1110 V
b1000000 ^
b1000 _
b1 m
#240000
0!
0"
08
0;
#245000
1!
b1111 (
b1110001 *
b10000 .
18
b10000 :
b1111 ?
b1110 C!
1E
b1000 G
b1001 H
0L!
b10000000 N
b1 P
b1111 V
1V!
b10000000 ^
b1000 _
b1 m
#250000
0!
1"
08
1;
#255000
1!
0&
b10000 (
b1110000 *
b10001 .
18
b10001 :
b10000 ?
1E
b11000 G
b1000 H
b1111 M!
b1 N
b11 P
b10000 V
0V!
b10 X
b1 ^
b1000 _
1l
b11 m
#260000
0!
0"
08
0;
#265000
1!
b0 %!
b10001 (
b1101111 *
b10010 .
b0 /!
18
b0 9!
b10010 :
b10001 ?
b0 C!
1E
b11001 G
b11000 H
b0 M!
b10 N
b11 P
b10001 V
b10 ^
b1000 _
0l
b11 m
b0 n
1x
b0 y
#270000
0!
1"
08
1;
b11 R
#275000
1!
1$!
b10010 (
b1101110 *
b10011 .
18
b10011 :
b10010 ?
1E
b11011 G
b11001 H
b100 N
b11 P
b10010 V
b100 ^
b1000 _
b11 m
b10001 n
0x
#280000
0!
0"
08
0;
#285000
1!
0$!
b10011 (
b1101101 *
b10100 .
1.!
18
b10100 :
b10011 ?
1E
b11010 G
b11011 H
b1000 N
b11 P
b10011 V
b1000 ^
b1000 _
b11 m
b10010 y
#290000
0!
1"
0'
b10 )
b1110 +
08
1;
b10 @
b11 S
b10 Z
b101 _
#295000
1!
b10011 %!
b10100 (
b1101100 *
b10101 .
0.!
18
18!
b10101 :
b10100 ?
1E
b11110 G
b11010 H
b10000 N
b11 P
b10100 V
b10000 ^
b1000 _
b11 m
#300000
0!
0"
08
0;
#305000
1!
b10101 (
b1101011 *
b10110 .
b10100 /!
18
08!
b10110 :
b10101 ?
1B!
1E
b11111 G
b11110 H
b100000 N
b11 P
b10101 V
b100000 ^
b1000 _
b11 m
#310000
0!
1"
08
1;
#315000
1!
b10110 (
b1101010 *
b10111 .
18
b10101 9!
b10111 :
b10110 ?
0B!
1E
b11101 G
b11111 H
1L!
b1000000 N
b11 P
b10110 V
b1000000 ^
b1000 _
b11 m
#320000
0!
0"
08
0;
#325000
1!
b10111 (
b1101001 *
b11000 .
18
b11000 :
b10111 ?
b10110 C!
1E
b11100 G
b11101 H
0L!
b10000000 N
b11 P
b10111 V
1V!
b10000000 ^
b1000 _
b11 m
#330000
0!
1"
08
1;
#335000
1!
0&
b11000 (
b1101000 *
b11001 .
18
b11001 :
b11000 ?
1E
b10100 G
b11100 H
b10111 M!
b1 N
b10 P
b11000 V
0V!
b11 X
b1 ^
b1000 _
1l
b10 m
#340000
0!
0"
08
0;
#345000
1!
b0 %!
b11001 (
b1100111 *
b11010 .
b0 /!
18
b0 9!
b11010 :
b11001 ?
b0 C!
1E
b10101 G
b10100 H
b0 M!
b10 N
b10 P
b11001 V
b10 ^
b1000 _
0l
b10 m
b0 n
1x
b0 y
#350000
0!
1"
08
1;
b10 R
#355000
1!
1$!
b11010 (
b1100110 *
b11011 .
18
b11011 :
b11010 ?
1E
b10111 G
b10101 H
b100 N
b10 P
b11010 V
b100 ^
b1000 _
b10 m
b11001 n
0x
#360000
0!
0"
08
0;
#365000
1!
0$!
b11011 (
b1100101 *
b11100 .
1.!
18
b11100 :
b11011 ?
1E
b10110 G
b10111 H
b1000 N
b10 P
b11011 V
b1000 ^
b1000 _
b10 m
b11010 y
#370000
0!
1"
0'
b11 )
b1101 +
08
1;
b11 @
b10 S
b11 Z
b101 _
#375000
1!
b11011 %!
b11100 (
b1100100 *
b11101 .
0.!
18
18!
b11101 :
b11100 ?
1E
b10010 G
b10110 H
b10000 N
b10 P
b11100 V
b10000 ^
b1000 _
b10 m
#380000
0!
0"
08
0;
#385000
1!
b11101 (
b1100011 *
b11110 .
b11100 /!
18
08!
b11110 :
b11101 ?
1B!
1E
b10011 G
b10010 H
b100000 N
b10 P
b11101 V
b100000 ^
b1000 _
b10 m
#390000
0!
1"
08
1;
#395000
1!
b11110 (
b1100010 *
b11111 .
18
b11101 9!
b11111 :
b11110 ?
0B!
1E
b10001 G
b10011 H
1L!
b1000000 N
b10 P
b11110 V
b1000000 ^
b1000 _
b10 m
#400000
0!
0"
08
0;
#405000
1!
b11111 (
b1100001 *
b100000 .
18
b100000 :
b11111 ?
b11110 C!
1E
b10000 G
b10001 H
0L!
b10000000 N
b10 P
b11111 V
1V!
b10000000 ^
b1000 _
b10 m
#410000
0!
1"
08
1;
#415000
1!
0&
b100000 (
b1100000 *
b100001 .
18
b100001 :
b100000 ?
1E
b110000 G
b10000 H
b11111 M!
b1 N
b110 P
b100000 V
0V!
b100 X
b1 ^
b1000 _
1l
b110 m
#420000
0!
0"
08
0;
#425000
1!
b0 %!
b100001 (
b1011111 *
b100010 .
b0 /!
18
b0 9!
b100010 :
b100001 ?
b0 C!
1E
b110001 G
b110000 H
b0 M!
b10 N
b110 P
b100001 V
b10 ^
b1000 _
0l
b110 m
b0 n
1x
b0 y
#430000
0!
1"
08
1;
b110 R
#435000
1!
1$!
b100010 (
b1011110 *
b100011 .
18
b100011 :
b100010 ?
1E
b110011 G
b110001 H
b100 N
b110 P
b100010 V
b100 ^
b1000 _
b110 m
b100001 n
0x
#440000
0!
0"
08
0;
#445000
1!
0$!
b100011 (
b1011101 *
b100100 .
1.!
18
b100100 :
b100011 ?
1E
b110010 G
b110011 H
b1000 N
b110 P
b100011 V
b1000 ^
b1000 _
b110 m
b100010 y
#450000
0!
1"
0'
b100 )
b1100 +
08
1;
b100 @
b110 S
b100 Z
b101 _
#455000
1!
b100011 %!
b100100 (
b1011100 *
b100101 .
0.!
18
18!
b100101 :
b100100 ?
1E
b110110 G
b110010 H
b10000 N
b110 P
b100100 V
b10000 ^
b1000 _
b110 m
#460000
0!
0"
08
0;
#465000
1!
b100101 (
b1011011 *
b100110 .
b100100 /!
18
08!
b100110 :
b100101 ?
1B!
1E
b110111 G
b110110 H
b100000 N
b110 P
b100101 V
b100000 ^
b1000 _
b110 m
#470000
0!
1"
08
1;
#475000
1!
b100110 (
b1011010 *
b100111 .
18
b100101 9!
b100111 :
b100110 ?
0B!
1E
b110101 G
b110111 H
1L!
b1000000 N
b110 P
b100110 V
b1000000 ^
b1000 _
b110 m
#480000
0!
0"
08
0;
#485000
1!
b100111 (
b1011001 *
b101000 .
18
b101000 :
b100111 ?
b100110 C!
1E
b110100 G
b110101 H
0L!
b10000000 N
b110 P
b100111 V
1V!
b10000000 ^
b1000 _
b110 m
#490000
0!
1"
08
1;
#495000
1!
0&
b101000 (
b1011000 *
b101001 .
18
b101001 :
b101000 ?
1E
b111100 G
b110100 H
b100111 M!
b1 N
b111 P
b101000 V
0V!
b101 X
b1 ^
b1000 _
1l
b111 m
#500000
0!
0"
08
0;
#505000
1!
b0 %!
b101001 (
b1010111 *
b101010 .
b0 /!
18
b0 9!
b101010 :
b101001 ?
b0 C!
1E
b111101 G
b111100 H
b0 M!
b10 N
b111 P
b101001 V
b10 ^
b1000 _
0l
b111 m
b0 n
1x
b0 y
#510000
0!
1"
08
1;
b111 R
#515000
1!
1$!
b101010 (
b1010110 *
b101011 .
18
b101011 :
b101010 ?
1E
b111111 G
b111101 H
b100 N
b111 P
b101010 V
b100 ^
b1000 _
b111 m
b101001 n
0x
#520000
0!
0"
08
0;
#525000
1!
0$!
b101011 (
b1010101 *
b101100 .
1.!
18
b101100 :
b101011 ?
1E
b111110 G
b111111 H
b1000 N
b111 P
b101011 V
b1000 ^
b1000 _
b111 m
b101010 y
#530000
0!
1"
0'
b101 )
b1011 +
08
1;
b101 @
b111 S
b101 Z
b101 _
#535000
1!
b101011 %!
b101100 (
b1010100 *
b101101 .
0.!
18
18!
b101101 :
b101100 ?
1E
b111010 G
b111110 H
b10000 N
b111 P
b101100 V
b10000 ^
b1000 _
b111 m
#540000
0!
0"
08
0;
#545000
1!
b101101 (
b1010011 *
b101110 .
b101100 /!
18
08!
b101110 :
b101101 ?
1B!
1E
b111011 G
b111010 H
b100000 N
b111 P
b101101 V
b100000 ^
b1000 _
b111 m
#550000
0!
1"
08
1;
#555000
1!
b101110 (
b1010010 *
b101111 .
18
b101101 9!
b101111 :
b101110 ?
0B!
1E
b111001 G
b111011 H
1L!
b1000000 N
b111 P
b101110 V
b1000000 ^
b1000 _
b111 m
#560000
0!
0"
08
0;
#565000
1!
b101111 (
b1010001 *
b110000 .
18
b110000 :
b101111 ?
b101110 C!
1E
b111000 G
b111001 H
0L!
b10000000 N
b111 P
b101111 V
1V!
b10000000 ^
b1000 _
b111 m
#570000
0!
1"
08
1;
#575000
1!
0&
b110000 (
b1010000 *
b110001 .
18
b110001 :
b110000 ?
1E
b101000 G
b111000 H
b101111 M!
b1 N
b101 P
b110000 V
0V!
b110 X
b1 ^
b1000 _
1l
b101 m
#580000
0!
0"
08
0;
#585000
1!
b0 %!
b110001 (
b1001111 *
b110010 .
b0 /!
18
b0 9!
b110010 :
b110001 ?
b0 C!
1E
b101001 G
b101000 H
b0 M!
b10 N
b101 P
b110001 V
b10 ^
b1000 _
0l
b101 m
b0 n
1x
b0 y
#590000
0!
1"
08
1;
b101 R
#595000
1!
1$!
b110010 (
b1001110 *
b110011 .
18
b110011 :
b110010 ?
1E
b101011 G
b101001 H
b100 N
b101 P
b110010 V
b100 ^
b1000 _
b101 m
b110001 n
0x
#600000
0!
0"
08
0;
#605000
1!
0$!
b110011 (
b1001101 *
b110100 .
1.!
18
b110100 :
b110011 ?
1E
b101010 G
b101011 H
b1000 N
b101 P
b110011 V
b1000 ^
b1000 _
b101 m
b110010 y
#610000
0!
1"
0'
b110 )
b1010 +
08
1;
b110 @
b101 S
b110 Z
b101 _
#615000
1!
b110011 %!
b110100 (
b1001100 *
b110101 .
0.!
18
18!
b110101 :
b110100 ?
1E
b101110 G
b101010 H
b10000 N
b101 P
b110100 V
b10000 ^
b1000 _
b101 m
#620000
0!
0"
08
0;
#625000
1!
b110101 (
b1001011 *
b110110 .
b110100 /!
18
08!
b110110 :
b110101 ?
1B!
1E
b101111 G
b101110 H
b100000 N
b101 P
b110101 V
b100000 ^
b1000 _
b101 m
#630000
0!
1"
08
1;
#635000
1!
b110110 (
b1001010 *
b110111 .
18
b110101 9!
b110111 :
b110110 ?
0B!
1E
b101101 G
b101111 H
1L!
b1000000 N
b101 P
b110110 V
b1000000 ^
b1000 _
b101 m
#640000
0!
0"
08
0;
#645000
1!
b110111 (
b1001001 *
b111000 .
18
b111000 :
b110111 ?
b110110 C!
1E
b101100 G
b101101 H
0L!
b10000000 N
b101 P
b110111 V
1V!
b10000000 ^
b1000 _
b101 m
#650000
0!
1"
08
1;
#655000
1!
0&
b111000 (
b1001000 *
b111001 .
18
b111001 :
b111000 ?
1E
b100100 G
b101100 H
b110111 M!
b1 N
b100 P
b111000 V
0V!
b111 X
b1 ^
b1000 _
1l
b100 m
#660000
0!
0"
08
0;
#665000
1!
b0 %!
b111001 (
b1000111 *
b111010 .
b0 /!
18
b0 9!
b111010 :
b111001 ?
b0 C!
1E
b100101 G
b100100 H
b0 M!
b10 N
b100 P
b111001 V
b10 ^
b1000 _
0l
b100 m
b0 n
1x
b0 y
#670000
0!
1"
08
1;
b100 R
#675000
1!
1$!
b111010 (
b1000110 *
b111011 .
18
b111011 :
b111010 ?
1E
b100111 G
b100101 H
b100 N
b100 P
b111010 V
b100 ^
b1000 _
b100 m
b111001 n
0x
#680000
0!
0"
08
0;
#685000
1!
0$!
b111011 (
b1000101 *
b111100 .
1.!
18
b111100 :
b111011 ?
1E
b100110 G
b100111 H
b1000 N
b100 P
b111011 V
b1000 ^
b1000 _
b100 m
b111010 y
#690000
0!
1"
0'
b111 )
b1001 +
08
1;
b111 @
b100 S
b111 Z
b101 _
#695000
1!
b111011 %!
b111100 (
b1000100 *
b111101 .
0.!
18
18!
b111101 :
b111100 ?
1E
b100010 G
b100110 H
b10000 N
b100 P
b111100 V
b10000 ^
b1000 _
b100 m
#700000
0!
0"
08
0;
#705000
1!
b111101 (
b1000011 *
b111110 .
b111100 /!
18
08!
b111110 :
b111101 ?
1B!
1E
b100011 G
b100010 H
b100000 N
b100 P
b111101 V
b100000 ^
b1000 _
b100 m
#710000
0!
1"
08
1;
#715000
1!
b111110 (
b1000010 *
b111111 .
18
b111101 9!
b111111 :
b111110 ?
0B!
1E
b100001 G
b100011 H
1L!
b1000000 N
b100 P
b111110 V
b1000000 ^
b1000 _
b100 m
#720000
0!
0"
08
0;
#725000
1!
b111111 (
b1000001 *
b1000000 .
18
b1000000 :
b111111 ?
b111110 C!
1E
b100000 G
b100001 H
0L!
b10000000 N
b100 P
b111111 V
1V!
b10000000 ^
b1000 _
b100 m
#730000
0!
1"
08
1;
#735000
1!
0&
b1000000 (
b1000000 *
b1000001 .
18
b1000001 :
b1000000 ?
1E
b1100000 G
b100000 H
b111111 M!
b1 N
b1100 P
b1000000 V
0V!
b1000 X
b1 ^
b1000 _
1l
b1100 m
#740000
0!
0"
08
0;
#745000
1!
b0 %!
b1000001 (
b111111 *
b1000010 .
b0 /!
18
b0 9!
b1000010 :
b1000001 ?
b0 C!
1E
b1100001 G
b1100000 H
b0 M!
b10 N
b1100 P
b1000001 V
b10 ^
b1000 _
0l
b1100 m
b0 n
1x
b0 y
#750000
0!
1"
08
1;
b1100 R
#755000
1!
1$!
b1000010 (
b111110 *
b1000011 .
18
b1000011 :
b1000010 ?
1E
b1100011 G
b1100001 H
b100 N
b1100 P
b1000010 V
b100 ^
b1000 _
b1100 m
b1000001 n
0x
#760000
0!
0"
08
0;
#765000
1!
0$!
b1000011 (
b111101 *
b1000100 .
1.!
18
b1000100 :
b1000011 ?
1E
b1100010 G
b1100011 H
b1000 N
b1100 P
b1000011 V
b1000 ^
b1000 _
b1100 m
b1000010 y
#770000
0!
1"
0'
b1000 )
b1000 +
08
1;
b1000 @
b1100 S
b1000 Z
b101 _
#775000
1!
b1000011 %!
b1000100 (
b111100 *
b1000101 .
0.!
18
18!
b1000101 :
b1000100 ?
1E
b1100110 G
b1100010 H
b10000 N
b1100 P
b1000100 V
b10000 ^
b1000 _
b1100 m
#780000
0!
0"
08
0;
#785000
1!
b1000101 (
b111011 *
b1000110 .
b1000100 /!
18
08!
b1000110 :
b1000101 ?
1B!
1E
b1100111 G
b1100110 H
b100000 N
b1100 P
b1000101 V
b100000 ^
b1000 _
b1100 m
#790000
0!
1"
08
1;
#795000
1!
b1000110 (
b111010 *
b1000111 .
18
b1000101 9!
b1000111 :
b1000110 ?
0B!
1E
b1100101 G
b1100111 H
1L!
b1000000 N
b1100 P
b1000110 V
b1000000 ^
b1000 _
b1100 m
#800000
0!
0"
08
0;
#805000
1!
b1000111 (
b111001 *
b1001000 .
18
b1001000 :
b1000111 ?
b1000110 C!
1E
b1100100 G
b1100101 H
0L!
b10000000 N
b1100 P
b1000111 V
1V!
b10000000 ^
b1000 _
b1100 m
#810000
0!
1"
08
1;
#815000
1!
0&
b1001000 (
b111000 *
b1001001 .
18
b1001001 :
b1001000 ?
1E
b1101100 G
b1100100 H
b1000111 M!
b1 N
b1101 P
b1001000 V
0V!
b1001 X
b1 ^
b1000 _
1l
b1101 m
#820000
0!
0"
08
0;
