prj/xilinx/template.sim/sim_1/behav/xsim/wave.vcd
$date
   Mon Jul  8 20:51:01 2024
$end
$version
  2018.3
$end
$timescale
  1ps
$end
$scope module testbench $end
$var reg 1 ! wr_clk $end
$var reg 1 " rd_clk $end
$var reg 1 # sys_rst $end
$var wire 16 $ dout [15:0] $end
$var wire 1 % full $end
$var wire 1 & empty $end
$var wire 11 ' wr_data_count [10:0] $end
$var wire 11 ( rd_data_count [10:0] $end
$var reg 1 ) wr_en $end
$var reg 1 * rd_en $end
$var reg 16 + din [15:0] $end
$var parameter 32 , INPUT_WIDTH [31:0] $end
$var parameter 32 - OUTPUT_WIDTH [31:0] $end
$var parameter 32 . WR_DEPTH [31:0] $end
$var parameter 32 / RD_DEPTH [31:0] $end
$var parameter 32 0 MODE [31:0] $end
$var parameter 24 1 DIRECTION [23:0] $end
$var parameter 32 2 WR_FRE [31:0] $end
$var parameter 32 3 RD_FRE [31:0] $end
$scope module u_async_fifo $end
$var wire 1 4 wr_clk $end
$var wire 1 5 wr_rst $end
$var wire 1 6 wr_en $end
$var wire 16 7 din [15:0] $end
$var wire 1 8 rd_clk $end
$var wire 1 9 rd_rst $end
$var wire 1 : rd_en $end
$var wire 1 ; valid $end
$var reg 16 < dout [15:0] $end
$var wire 1 % full $end
$var wire 1 & empty $end
$var reg 11 = wr_data_count [10:0] $end
$var reg 11 > rd_data_count [10:0] $end
$var reg 11 ? wr_ptr [10:0] $end
$var reg 11 @ rd_ptr [10:0] $end
$var reg 11 A wr_ptr_d1 [10:0] $end
$var reg 11 B rd_ptr_d1 [10:0] $end
$var reg 11 C rd_ptr_fwft [10:0] $end
$var reg 11 D rd_ptr_fwft_d1 [10:0] $end
$var reg 1 E ram_wr_en [0:0] $end
$var reg 1 F ram_rd_en [0:0] $end
$var reg 11 G ram_wr_addr [10:0] $end
$var reg 11 H ram_rd_addr [10:0] $end
$var reg 16 I ram_wr_data [15:0] $end
$var wire 16 J ram_rd_data [15:0] $end
$var wire 11 K ram_wr_addr_g [10:0] $end
$var wire 11 L ram_rd_addr_g [10:0] $end
$var reg 11 M ram_wr_addr_g_d1 [10:0] $end
$var reg 11 N ram_wr_addr_g_d2 [10:0] $end
$var reg 11 O ram_rd_addr_g_d1 [10:0] $end
$var reg 11 P ram_rd_addr_g_d2 [10:0] $end
$var reg 11 Q ram_wr_addr_b [10:0] $end
$var reg 11 R ram_rd_addr_b [10:0] $end
$var reg 1 S fwft_valid $end
$var integer 32 T j $end
$var wire 11 U \BIG_TO_SMALL_RAM.channel_sel  [10:0] $end
$var integer 32 V k $end
$var parameter 32 W INPUT_WIDTH [31:0] $end
$var parameter 32 X OUTPUT_WIDTH [31:0] $end
$var parameter 32 Y WR_DEPTH [31:0] $end
$var parameter 32 Z RD_DEPTH [31:0] $end
$var parameter 32 [ MODE [31:0] $end
$var parameter 24 \ DIRECTION [23:0] $end
$var parameter 32 ] RAM_NUM [31:0] $end
$var parameter 32 ^ RAM_WIDTH [31:0] $end
$var parameter 32 _ RAM_DEPTH [31:0] $end
$var parameter 32 ` RAM_WR_WIDTH [31:0] $end
$var parameter 32 a RAM_RD_WIDTH [31:0] $end
$scope module BIG_TO_SMALL_RAM.genblk2[0].u_DPRAM $end
$var wire 1 4 clka $end
$var wire 1 b ena $end
$var wire 1 c wea $end
$var wire 10 d addra [9:0] $end
$var wire 16 e dina [15:0] $end
$var reg 16 f douta [15:0] $end
$var wire 1 8 clkb $end
$var wire 1 g enb $end
$var wire 1 h web $end
$var wire 10 i addrb [9:0] $end
$var wire 16 j dinb [15:0] $end
$var reg 16 k doutb [15:0] $end
$var integer 32 l i $end
$var parameter 32 m WIDTH [31:0] $end
$var parameter 32 n DEPTH [31:0] $end
$upscope $end
$upscope $end
$upscope $end
$enddefinitions $end
#0
$dumpvars
0!
0"
0#
b0 $
0%
1&
b0 '
b0 (
0)
0*
b1001000110100 +
b10000 ,
b10000 -
b10000000000 .
b10000000000 /
b1000110010101110100011001010100 0
b10011010101001101000010 1
b1100100 2
b110010 3
04
05
06
b1001000110100 7
08
09
0:
z;
b0 <
b0 =
b0 >
b0 ?
b0 @
bx A
b0 B
b0 C
b0 D
0E
0F
b0 G
b0 H
b0 I
b0 J
b0 K
b0 L
b0 M
b0 N
b0 O
b0 P
b0 Q
b0 R
0S
b1 T
b0 U
bx V
b10000 W
b10000 X
b10000000000 Y
b10000000000 Z
b1000110010101110100011001010100 [
b10011010101001101000010 \
b1 ]
b10000 ^
b10000000000 _
b10000 `
b10000 a
1b
0c
b0 d
b0 e
b0 f
0g
zh
b0 i
bz j
b0 k
b10000000000 l
b10000 m
b10000000000 n
$end
#5000
1!
14
b1 T
#10000
0!
1"
04
18
#15000
1!
14
b1 T
#20000
0!
0"
04
08
#25000
1!
14
b1 T
#30000
0!
1"
04
18
#35000
1!
14
b1 T
#40000
0!
0"
04
08
#45000
1!
14
b1 T
#50000
0!
1"
1#
04
15
18
19
b1 T
b1011 V
#55000
1!
14
b1001000110100 I
b1 T
b1001000110100 e
#60000
0!
0"
04
08
#65000
1!
14
b1 T
#70000
0!
1"
04
18
#75000
1!
14
b1 T
#80000
0!
0"
04
08
#85000
1!
14
b1 T
#90000
0!
1"
04
18
#95000
1!
14
b1 T
#100000
0!
0"
04
08
#105000
1!
14
b1 T
#110000
0!
1"
04
18
#115000
1!
14
b1 T
#120000
0!
0"
04
08
#125000
1!
14
b1 T
#130000
0!
1"
04
18
#135000
1!
14
b1 T
#140000
0!
0"
04
08
#145000
1!
14
b1 T
#150000
0!
1"
04
18
#155000
1!
14
b1 T
#160000
0!
0"
04
08
#165000
1!
14
b1 T
#170000
0!
1"
04
18
#175000
1!
14
b1 T
#180000
0!
0"
04
08
#185000
1!
14
b1 T
#190000
0!
1"
04
18
#195000
1!
14
b1 T
#200000
0!
0"
1)
04
16
08
#205000
1!
b1001100110101 +
14
b1001100110101 7
b1 ?
1E
b1 T
1c
#210000
0!
1"
04
18
#215000
1!
b1 '
b1010000110110 +
14
b1010000110110 7
b1 =
b10 ?
b1 G
b1001100110101 I
b1 K
b1 T
b1 d
b1001100110101 e
#220000
0!
0"
04
08
#225000
1!
b10 '
b1010100110111 +
14
b1010100110111 7
b10 =
b11 ?
b10 G
b1010000110110 I
b11 K
b1 T
b10 d
b1010000110110 e
#230000
0!
1"
04
18
b11 M
#235000
1!
b11 '
b1011000111000 +
14
b1011000111000 7
b11 =
b100 ?
b11 G
b1010100110111 I
b10 K
b1 T
b11 d
b1010100110111 e
#240000
0!
0"
04
08
#245000
1!
b100 '
b1011100111001 +
14
b1011100111001 7
b100 =
b101 ?
b100 G
b1011000111000 I
b110 K
b1 T
b100 d
b1011000111000 e
#250000
0!
1"
0&
b10 (
04
18
b10 >
1F
b110 M
b11 N
b10 Q
b1 T
b1011 V
1g
#255000
1!
b101 '
b1100000111010 +
14
b1100000111010 7
b101 =
b110 ?
b101 G
b1011100111001 I
b111 K
b1 T
b101 d
b1011100111001 e
#260000
0!
0"
04
08
#265000
1!
b110 '
b1100100111011 +
14
b1100100111011 7
b110 =
b111 ?
b110 G
b1100000111010 I
b101 K
b1 T
b110 d
b1100000111010 e
#270000
0!
1"
b1001000110100 $
0&
b100 (
04
18
b1001000110100 <
b100 >
b1001000110100 J
b101 M
b110 N
b100 Q
b1011 V
b1001000110100 k
#275000
1!
b111 '
b1101000111100 +
14
b1101000111100 7
b111 =
b1000 ?
b111 G
b1100100111011 I
b100 K
b1 T
b111 d
b1100100111011 e
#280000
0!
0"
04
08
#285000
1!
b1000 '
b1101100111101 +
14
b1101100111101 7
b1000 =
b1001 ?
b1000 G
b1101000111100 I
b1100 K
b1 T
b1000 d
b1101000111100 e
#290000
0!
1"
0&
b110 (
04
18
b110 >
b1100 M
b101 N
b110 Q
b1011 V
#295000
1!
b1001 '
b1110000111110 +
14
b1110000111110 7
b1001 =
b1010 ?
b1001 G
b1101100111101 I
b1101 K
b1 T
b1001 d
b1101100111101 e
#300000
0!
0"
0)
04
06
08
#305000
1!
b1010 '
14
b1010 =
0E
b1010 G
b1110000111110 I
b1111 K
b1 T
0c
b1010 d
b1110000111110 e
#310000
0!
1"
0&
b1000 (
04
18
b1000 >
b1111 M
b1100 N
b1000 Q
b1011 V
#315000
1!
14
b1 T
#320000
0!
0"
04
08
#325000
1!
14
b1 T
#330000
0!
1"
0&
b1010 (
04
18
b1010 >
b1111 N
b1010 Q
b1011 V
#335000
1!
14
b1 T
#340000
0!
0"
04
08
#345000
1!
14
b1 T
#350000
0!
1"
04
18
#355000
1!
14
b1 T
#360000
0!
0"
04
08
#365000
1!
14
b1 T
#370000
0!
1"
04
18
#375000
1!
14
b1 T
#380000
0!
0"
04
08
#385000
1!
14
b1 T
#390000
0!
1"
04
18
#395000
1!
14
b1 T
#400000
0!
0"
04
08
#405000
1!
14
b1 T
#410000
0!
1"
04
18
#415000
1!
14
b1 T
#420000
0!
0"
04
08
#425000
1!
14
b1 T
#430000
0!
1"
04
18
#435000
1!
14
b1 T
#440000
0!
0"
04
08
#445000
1!
14
b1 T
#450000
0!
1"
04
18
#455000
1!
14
b1 T
#460000
0!
0"
04
08
#465000
1!
14
b1 T
#470000
0!
1"
04
18
#475000
1!
14
b1 T
#480000
0!
0"
04
08
#485000
1!
14
b1 T
#490000
0!
1"
04
18
#495000
1!
14
b1 T
#500000
0!
0"
0&
1*
04
08
1:
b1 C
b1 H
b1 L
b1 i
#505000
1!
14
b1 O
b1 T
#510000
0!
1"
b1001100110101 $
0&
04
18
b1001100110101 <
b1 @
b10 C
b1 D
b10 H
b1001100110101 J
b11 L
1S
b1 U
b10 i
b1001100110101 k
#515000
1!
b1001 '
14
b1001 =
b11 O
b1 P
b1 R
b1 T
b1011 V
#520000
0!
0"
04
08
#525000
1!
b1000 '
14
b1000 =
b11 P
b10 R
b1 T
b1011 V
#530000
0!
1"
b1010000110110 $
0&
b1001 (
04
18
b1010000110110 <
b1001 >
b10 @
b1 B
b11 C
b10 D
b11 H
b1010000110110 J
b10 L
b10 U
b11 i
b1010000110110 k
#535000
1!
14
b10 O
b1 T
#540000
0!
0"
04
08
#545000
1!
b111 '
14
b111 =
b10 P
b11 R
b1 T
b1011 V
#550000
0!
1"
b1010100110111 $
0&
b1000 (
04
18
b1010100110111 <
b1000 >
b11 @
b10 B
b100 C
b11 D
b100 H
b1010100110111 J
b110 L
b11 U
b100 i
b1010100110111 k
#555000
1!
14
b110 O
b1 T
#560000
0!
0"
04
08
#565000
1!
b110 '
14
b110 =
b110 P
b100 R
b1 T
b1011 V
#570000
0!
1"
b1011000111000 $
0&
b111 (
04
18
b1011000111000 <
b111 >
b100 @
b11 B
b101 C
b100 D
b101 H
b1011000111000 J
b111 L
b100 U
b101 i
b1011000111000 k
#575000
1!
14
b111 O
b1 T
#580000
0!
0"
04
08
#585000
1!
b101 '
14
b101 =
b111 P
b101 R
b1 T
b1011 V
#590000
0!
1"
b1011100111001 $
0&
b110 (
04
18
b1011100111001 <
b110 >
b101 @
b100 B
b110 C
b101 D
b110 H
b1011100111001 J
b101 L
b101 U
b110 i
b1011100111001 k
#595000
1!
14
b101 O
b1 T
#600000
0!
0"
04
08
#605000
1!
b100 '
14
b100 =
b101 P
b110 R
b1 T
b1011 V
#610000
0!
1"
b1100000111010 $
0&
b101 (
04
18
b1100000111010 <
b101 >
b110 @
b101 B
b111 C
b110 D
b111 H
b1100000111010 J
b100 L
b110 U
b111 i
b1100000111010 k
#615000
1!
14
b100 O
b1 T
#620000
0!
0"
04
08
#625000
1!
b11 '
14
b11 =
b100 P
b111 R
b1 T
b1011 V
#630000
0!
1"
b1100100111011 $
0&
b100 (
04
18
b1100100111011 <
b100 >
b111 @
b110 B
b1000 C
b111 D
b1000 H
b1100100111011 J
b1100 L
b111 U
b1000 i
b1100100111011 k
#635000
1!
14
b1100 O
b1 T
#640000
0!
0"
04
08
#645000
1!
b10 '
14
b10 =
b1100 P
b1000 R
b1 T
b1011 V
#650000
0!
1"
b1101000111100 $
b11 (
0*
04
18
0:
b1101000111100 <
b11 >
b111 B
b1000 D
b1101000111100 J
b1000 U
b1101000111100 k
#655000
1!
14
b1 T
#660000
0!
0"
04
08
#665000
1!
14
b1 T
#670000
0!
1"
04
18
#675000
1!
14
b1 T
#680000
0!
0"
04
08
#685000
1!
14
b1 T
#690000
0!
1"
04
18
#695000
1!
14
b1 T
#700000
0!
0"
04
08
#705000
1!
14
b1 T
#710000
0!
1"
04
18
#715000
1!
14
b1 T
#720000
0!
0"
04
08
#725000
1!
14
b1 T
#730000
0!
1"
04
18
#735000
1!
14
b1 T
#740000
0!
0"
04
08
#745000
1!
14
b1 T
#750000
0!
1"
04
18
#755000
1!
14
b1 T
#760000
0!
0"
04
08
#765000
1!
14
b1 T
#770000
0!
1"
04
18
#775000
1!
14
b1 T
#780000
0!
0"
04
08
#785000
1!
14
b1 T
#790000
0!
1"
04
18
#795000
1!
14
b1 T
#800000
0!
0"
04
08
#805000
1!
14
b1 T
#810000
0!
1"
04
18
#815000
1!
14
b1 T
#820000
0!
0"
04
08
#825000
1!
14
b1 T
#830000
0!
1"
04
18
#835000
1!
14
b1 T
#840000
0!
0"
04
08
#845000
1!
14
b1 T
#850000
0!
1"
1)
04
16
18
#855000
1!
b1110100111111 +
14
b1110100111111 7
b1011 ?
1E
b1 T
1c
#860000
0!
0"
04
08
#865000
1!
b11 '
b1111001000000 +
14
b1111001000000 7
b11 =
b1100 ?
b1011 G
b1110100111111 I
b1110 K
b1 T
b1011 d
b1110100111111 e
#870000
0!
1"
04
18
b1110 M
#875000
1!
b100 '
b1111101000001 +
14
b1111101000001 7
b100 =
b1101 ?
b1100 G
b1111001000000 I
b1010 K
b1 T
b1100 d
b1111001000000 e
#880000
0!
0"
04
08
#885000
1!
b101 '
b10000001000010 +
14
b10000001000010 7
b101 =
b1110 ?
b1101 G
b1111101000001 I
b1011 K
b1 T
b1101 d
b1111101000001 e
#890000
0!
1"
0&
b100 (
04
18
b100 >
b1011 M
b1110 N
b1011 Q
b1011 V
#895000
1!
b110 '
b10000101000011 +
14
b10000101000011 7
b110 =
b1111 ?
b1110 G
b10000001000010 I
b1001 K
b1 T
b1110 d
b10000001000010 e
#900000
0!
0"
04
08
#905000
1!
b111 '
b10001001000100 +
14
b10001001000100 7
b111 =
b10000 ?
b1111 G
b10000101000011 I
b1000 K
b1 T
b1111 d
b10000101000011 e
#910000
0!
1"
0&
b110 (
04
18
b110 >
b1000 M
b1011 N
b1101 Q
b1011 V
#915000
1!
b1000 '
b10001101000101 +
14
b10001101000101 7
b1000 =
b10001 ?
b10000 G
b10001001000100 I
b11000 K
b1 T
b10000 d
b10001001000100 e
#920000
0!
0"
04
08
#925000
1!
b1001 '
b10010001000110 +
14
b10010001000110 7
b1001 =
b10010 ?
b10001 G
b10001101000101 I
b11001 K
b1 T
b10001 d
b10001101000101 e
#930000
0!
1"
0&
b1000 (
04
18
b1000 >
b11001 M
b1000 N
b1111 Q
b1011 V
#935000
1!
b1010 '
b10010101000111 +
14
b10010101000111 7
b1010 =
b10011 ?
b10010 G
b10010001000110 I
b11011 K
b1 T
b10010 d
b10010001000110 e
#940000
0!
0"
04
08
#945000
1!
b1011 '
b10011001001000 +
14
b10011001001000 7
b1011 =
b10100 ?
b10011 G
b10010101000111 I
b11010 K
b1 T
b10011 d
b10010101000111 e
#950000
0!
1"
0&
b1010 (
0)
04
06
18
b1010 >
b11010 M
b11001 N
b10001 Q
b1011 V
#955000
1!
b1100 '
14
b1100 =
0E
b10100 G
b10011001001000 I
b11110 K
b1 T
0c
b10100 d
b10011001001000 e
#960000
0!
0"
04
08
#965000
1!
14
b1 T
#970000
0!
1"
0&
b1100 (
04
18
b1100 >
b11110 M
b11010 N
b10011 Q
b1011 V
#975000
1!
14
b1 T
#980000
0!
0"
04
08
#985000
1!
14
b1 T
#990000
0!
1"
0&
b1101 (
04
18
b1101 >
b11110 N
b10100 Q
b1011 V
#995000
1!
14
b1 T
#1000000
0!
0"
04
08
#1005000
1!
14
b1 T
#1010000
0!
1"
04
18
#1015000
1!
14
b1 T
#1020000
0!
0"
04
08
#1025000
1!
14
b1 T
#1030000
0!
1"
04
18
#1035000
1!
14
b1 T
#1040000
0!
0"
04
08
#1045000
1!
14
b1 T
#1050000
0!
1"
04
18
#1055000
1!
14
b1 T
#1060000
0!
0"
04
08
#1065000
1!
14
b1 T
#1070000
0!
1"
04
18
#1075000
1!
14
b1 T
#1080000
0!
0"
04
08
#1085000
1!
14
b1 T
#1090000
0!
1"
04
18
#1095000
1!
14
b1 T
#1100000
0!
0"
04
08
#1105000
1!
14
b1 T
#1110000
0!
1"
04
18
#1115000
1!
14
b1 T
#1120000
0!
0"
04
08
#1125000
1!
14
b1 T
#1130000
0!
1"
04
18
#1135000
1!
14
b1 T
#1140000
0!
0"
04
08
#1145000
1!
14
b1 T
#1150000
0!
1"
0&
1*
04
18
1:
b1000 @
b1001 C
b1001 H
b1101 L
b1001 i
#1155000
1!
14
b1101 O
b1 T
#1160000
0!
0"
04
08
#1165000
1!
b1011 '
14
b1011 =
b1101 P
b1001 R
b1 T
b1011 V
#1170000
0!
1"
b1101100111101 $
0&
b1100 (
04
18
b1101100111101 <
b1100 >
b1001 @
b1000 B
b1010 C
b1001 D
b1010 H
b1101100111101 J
b1111 L
b1001 U
b1010 i
b1101100111101 k
#1175000
1!
14
b1111 O
b1 T
#1180000
0!
0"
04
08
#1185000
1!
b1010 '
14
b1010 =
b1111 P
b1010 R
b1 T
b1011 V
#1190000
0!
1"
b1110000111110 $
0&
b1011 (
04
18
b1110000111110 <
b1011 >
b1010 @
b1001 B
b1011 C
b1010 D
b1011 H
b1110000111110 J
b1110 L
b1010 U
b1011 i
b1110000111110 k
#1195000
1!
14
b1110 O
b1 T
#1200000
0!
0"
04
08
#1205000
1!
b1001 '
14
b1001 =
b1110 P
b1011 R
b1 T
b1011 V
#1210000
0!
1"
b1110100111111 $
0&
b1010 (
04
18
b1110100111111 <
b1010 >
b1011 @
b1010 B
b1100 C
b1011 D
b1100 H
b1110100111111 J
b1010 L
b1011 U
b1100 i
b1110100111111 k
#1215000
1!
14
b1010 O
b1 T
#1220000
0!
0"
04
08
#1225000
1!
b1000 '
14
b1000 =
b1010 P
b1100 R
b1 T
b1011 V
#1230000
0!
1"
b1111001000000 $
0&
b1001 (
04
18
b1111001000000 <
b1001 >
b1100 @
b1011 B
b1101 C
b1100 D
b1101 H
b1111001000000 J
b1011 L
b1100 U
b1101 i
b1111001000000 k
#1235000
1!
14
b1011 O
b1 T
#1240000
0!
0"
04
08
#1245000
1!
b111 '
14
b111 =
b1011 P
b1101 R
b1 T
b1011 V
#1250000
0!
1"
b1111101000001 $
0&
b1000 (
04
18
b1111101000001 <
b1000 >
b1101 @
b1100 B
b1110 C
b1101 D
b1110 H
b1111101000001 J
b1001 L
b1101 U
b1110 i
b1111101000001 k
#1255000
1!
14
b1001 O
b1 T
#1260000
0!
0"
04
08
#1265000
1!
b110 '
14
b110 =
b1001 P
b1110 R
b1 T
b1011 V
#1270000
0!
1"
b10000001000010 $
0&
b111 (
04
18
b10000001000010 <
b111 >
b1110 @
b1101 B
b1111 C
b1110 D
b1111 H
b10000001000010 J
b1000 L
b1110 U
b1111 i
b10000001000010 k
#1275000
1!
14
b1000 O
b1 T
#1280000
0!
0"
04
08
#1285000
1!
b101 '
14
b101 =
b1000 P
b1111 R
b1 T
b1011 V
#1290000
0!
1"
b10000101000011 $
0&
b110 (
04
18
b10000101000011 <
b110 >
b1111 @
b1110 B
b10000 C
b1111 D
b10000 H
b10000101000011 J
b11000 L
b1111 U
b10000 i
b10000101000011 k
#1295000
1!
14
b11000 O
b1 T
#1300000
0!
0"
04
08
#1305000
1!
b100 '
14
b100 =
b11000 P
b10000 R
b1 T
b1011 V
#1310000
0!
1"
b10001001000100 $
b101 (
0*
04
18
0:
b10001001000100 <
b101 >
b1111 B
b10000 D
b10001001000100 J
b10000 U
b10001001000100 k
#1315000
1!
14
b1 T
#1320000
0!
0"
04
08
#1325000
1!
14
b1 T
#1330000
0!
1"
04
18
#1335000
1!
14
b1 T
#1340000
0!
0"
04
08
#1345000
1!
14
b1 T
#1350000
0!
1"
04
18
#1355000
1!
14
b1 T
#1360000
0!
0"
04
08
#1365000
1!
14
b1 T
#1370000
0!
1"
04
18
#1375000
1!
14
b1 T
#1380000
0!
0"
04
08
#1385000
1!
14
b1 T
#1390000
0!
1"
04
18
#1395000
1!
14
b1 T
#1400000
0!
0"
04
08
#1405000
1!
14
b1 T
#1410000
0!
1"
04
18
#1415000
1!
14
b1 T
#1420000
0!
0"
04
08
#1425000
1!
14
b1 T
#1430000
0!
1"
04
18
#1435000
1!
14
b1 T
#1440000
0!
0"
04
08
#1445000
1!
14
b1 T
#1450000
0!
1"
04
18
#1455000
1!
14
b1 T
#1460000
0!
0"
04
08
#1465000
1!
14
b1 T
#1470000
0!
1"
04
18
#1475000
1!
14
b1 T
#1480000
0!
0"
04
08
#1485000
1!
14
b1 T
#1490000
0!
1"
04
18
#1495000
1!
14
b1 T
#1500000
0!
0"
04
08
#1505000
1!
14
b1 T
#1510000
0!
1"
1)
04
16
18
#1515000
1!
b10011101001001 +
14
b10011101001001 7
b10101 ?
1E
b1 T
1c
#1520000
0!
0"
04
08
#1525000
1!
b101 '
b10100001001010 +
14
b10100001001010 7
b101 =
b10110 ?
b10101 G
b10011101001001 I
b11111 K
b1 T
b10101 d
b10011101001001 e
#1530000
0!
1"
04
18
b11111 M
#1535000
1!
b110 '
b10100101001011 +
14
b10100101001011 7
b110 =
b10111 ?
b10110 G
b10100001001010 I
b11101 K
b1 T
b10110 d
b10100001001010 e
#1540000
0!
0"
04
08
#1545000
1!
b111 '
b10101001001100 +
14
b10101001001100 7
b111 =
b11000 ?
b10111 G
b10100101001011 I
b11100 K
b1 T
b10111 d
b10100101001011 e
#1550000
0!
1"
0&
b110 (
04
18
b110 >
b11100 M
b11111 N
b10101 Q
b1011 V
#1555000
1!
b1000 '
b10101101001101 +
14
b10101101001101 7
b1000 =
b11001 ?
b11000 G
b10101001001100 I
b10100 K
b1 T
b11000 d
b10101001001100 e
#1560000
0!
0"
04
08
#1565000
1!
b1001 '
b10110001001110 +
14
b10110001001110 7
b1001 =
b11010 ?
b11001 G
b10101101001101 I
b10101 K
b1 T
b11001 d
b10101101001101 e
#1570000
0!
1"
0&
b1000 (
04
18
b1000 >
b10101 M
b11100 N
b10111 Q
b1011 V
#1575000
1!
b1010 '
b10110101001111 +
14
b10110101001111 7
b1010 =
b11011 ?
b11010 G
b10110001001110 I
b10111 K
b1 T
b11010 d
b10110001001110 e
#1580000
0!
0"
04
08
#1585000
1!
b1011 '
b10111001010000 +
14
b10111001010000 7
b1011 =
b11100 ?
b11011 G
b10110101001111 I
b10110 K
b1 T
b11011 d
b10110101001111 e
#1590000
0!
1"
0&
b1010 (
04
18
b1010 >
b10110 M
b10101 N
b11001 Q
b1011 V
#1595000
1!
b1100 '
b10111101010001 +
14
b10111101010001 7
b1100 =
b11101 ?
b11100 G
b10111001010000 I
b10010 K
b1 T
b11100 d
b10111001010000 e
#1600000
0!
0"
04
08
#1605000
1!
b1101 '
b11000001010010 +
14
b11000001010010 7
b1101 =
b11110 ?
b11101 G
b10111101010001 I
b10011 K
b1 T
b11101 d
b10111101010001 e
#1610000
0!
1"
0&
b1100 (
0)
04
06
18
b1100 >
b10011 M
b10110 N
b11011 Q
b1011 V
#1615000
1!
b1110 '
14
b1110 =
0E
b11110 G
b11000001010010 I
b10001 K
b1 T
0c
b11110 d
b11000001010010 e
#1620000
0!
0"
04
08
#1625000
1!
14
b1 T
#1630000
0!
1"
0&
b1110 (
04
18
b1110 >
b10001 M
b10011 N
b11101 Q
b1011 V
#1635000
1!
14
b1 T
#1640000
0!
0"
04
08
#1645000
1!
14
b1 T
#1650000
0!
1"
0&
b1111 (
04
18
b1111 >
b10001 N
b11110 Q
b1011 V
#1655000
1!
14
b1 T
#1660000
0!
0"
04
08
#1665000
1!
14
b1 T
#1670000
0!
1"
04
18
#1675000
1!
14
b1 T
#1680000
0!
0"
04
08
#1685000
1!
14
b1 T
#1690000
0!
1"
04
18
#1695000
1!
14
b1 T
#1700000
0!
0"
04
08
#1705000
1!
14
b1 T
#1710000
0!
1"
04
18
#1715000
1!
14
b1 T
#1720000
0!
0"
04
08
#1725000
1!
14
b1 T
#1730000
0!
1"
04
18
#1735000
1!
14
b1 T
#1740000
0!
0"
04
08
#1745000
1!
14
b1 T
#1750000
0!
1"
04
18
#1755000
1!
14
b1 T
#1760000
0!
0"
04
08
#1765000
1!
14
b1 T
#1770000
0!
1"
04
18
#1775000
1!
14
b1 T
#1780000
0!
0"
04
08
#1785000
1!
14
b1 T
#1790000
0!
1"
04
18
#1795000
1!
14
b1 T
#1800000
0!
0"
04
08
#1805000
1!
14
b1 T
#1810000
0!
1"
0&
1*
04
18
1:
b10000 @
b10001 C
b10001 H
b11001 L
b10001 i
#1815000
1!
14
b11001 O
b1 T
#1820000
0!
0"
04
08
#1825000
1!
b1101 '
14
b1101 =
b11001 P
b10001 R
b1 T
b1011 V
#1830000
0!
1"
b10001101000101 $
0&
b1110 (
04
18
b10001101000101 <
b1110 >
b10001 @
b10000 B
b10010 C
b10001 D
b10010 H
b10001101000101 J
b11011 L
b10001 U
b10010 i
b10001101000101 k
#1835000
1!
14
b11011 O
b1 T
#1840000
0!
0"
04
08
#1845000
1!
b1100 '
14
b1100 =
b11011 P
b10010 R
b1 T
b1011 V
#1850000
0!
1"
b10010001000110 $
0&
b1101 (
04
18
b10010001000110 <
b1101 >
b10010 @
b10001 B
b10011 C
b10010 D
b10011 H
b10010001000110 J
b11010 L
b10010 U
b10011 i
b10010001000110 k
#1855000
1!
14
b11010 O
b1 T
#1860000
0!
0"
04
08
#1865000
1!
b1011 '
14
b1011 =
b11010 P
b10011 R
b1 T
b1011 V
#1870000
0!
1"
b10010101000111 $
0&
b1100 (
04
18
b10010101000111 <
b1100 >
b10011 @
b10010 B
b10100 C
b10011 D
b10100 H
b10010101000111 J
b11110 L
b10011 U
b10100 i
b10010101000111 k
#1875000
1!
14
b11110 O
b1 T
#1880000
0!
0"
04
08
#1885000
1!
b1010 '
14
b1010 =
b11110 P
b10100 R
b1 T
b1011 V
#1890000
0!
1"
b10011001001000 $
0&
b1011 (
04
18
b10011001001000 <
b1011 >
b10100 @
b10011 B
b10101 C
b10100 D
b10101 H
b10011001001000 J
b11111 L
b10100 U
b10101 i
b10011001001000 k
#1895000
1!
14
b11111 O
b1 T
#1900000
0!
0"
04
08
#1905000
1!
b1001 '
14
b1001 =
b11111 P
b10101 R
b1 T
b1011 V
#1910000
0!
1"
b10011101001001 $
0&
b1010 (
04
18
b10011101001001 <
b1010 >
b10101 @
b10100 B
b10110 C
b10101 D
b10110 H
b10011101001001 J
b11101 L
b10101 U
b10110 i
b10011101001001 k
#1915000
1!
14
b11101 O
b1 T
#1920000
0!
0"
04
08
#1925000
1!
b1000 '
14
b1000 =
b11101 P
b10110 R
b1 T
b1011 V
#1930000
0!
1"
b10100001001010 $
0&
b1001 (
04
18
b10100001001010 <
b1001 >
b10110 @
b10101 B
b10111 C
b10110 D
b10111 H
b10100001001010 J
b11100 L
b10110 U
b10111 i
b10100001001010 k
#1935000
1!
14
b11100 O
b1 T
#1940000
0!
0"
04
08
#1945000
1!
b111 '
14
b111 =
b11100 P
b10111 R
b1 T
b1011 V
#1950000
0!
1"
b10100101001011 $
0&
b1000 (
04
18
b10100101001011 <
b1000 >
b10111 @
b10110 B
b11000 C
b10111 D
b11000 H
b10100101001011 J
b10100 L
b10111 U
b11000 i
b10100101001011 k
#1955000
1!
14
b10100 O
b1 T
#1960000
0!
0"
04
08
#1965000
1!
b110 '
14
b110 =
b10100 P
b11000 R
b1 T
b1011 V
#1970000
0!
1"
b10101001001100 $
0&
b111 (
04
18
b10101001001100 <
b111 >
b11000 @
b10111 B
b11001 C
b11000 D
b11001 H
b10101001001100 J
b10101 L
b11000 U
b11001 i
b10101001001100 k
#1975000
1!
14
b10101 O
b1 T
#1980000
0!
0"
04
08
#1985000
1!
b101 '
14
b101 =
b10101 P
b11001 R
b1 T
b1011 V
#1990000
0!
1"
b10101101001101 $
b110 (
0*
04
18
0:
b10101101001101 <
b110 >
b11000 B
b11001 D
b10101101001101 J
b11001 U
b10101101001101 k
#1995000
1!
14
b1 T
