prj/xilinx/template.sim/sim_1/behav/xsim/wave.vcd
$date
   Sat Jun 29 21:56:06 2024
$end
$version
  2018.3
$end
$timescale
  1ps
$end
$scope module tb_divider $end
$var reg 1 ! sys_clk $end
$var reg 1 " sys_rst $end
$var reg 32 # dividend [31:0] $end
$var reg 24 $ divisor [23:0] $end
$var reg 1 % ivalid $end
$var wire 32 & quotient [31:0] $end
$var wire 1 ' ovalid $end
$var parameter 32 ( DIVIDEND_WIDTH [31:0] $end
$var parameter 32 ) DIVISOR_WIDTH [31:0] $end
$var parameter 32 * MAIN_FRE [31:0] $end
$scope module u_divider $end
$var wire 1 + sys_clk $end
$var wire 1 , sys_rst $end
$var wire 32 - dividend [31:0] $end
$var wire 24 . divisor [23:0] $end
$var wire 1 / ivalid $end
$var wire 32 & quotient [31:0] $end
$var reg 1 0 ovalid $end
$var reg 1 1 start $end
$var wire 32 2 dividend_in [31:0] $end
$var parameter 32 3 DIVIDEND_WIDTH [31:0] $end
$var parameter 32 4 DIVISOR_WIDTH [31:0] $end
$upscope $end
$scope task test $end
$var reg 32 5 ina [31:0] $end
$var reg 24 6 inb [23:0] $end
$upscope $end
$upscope $end
$enddefinitions $end
#0
$dumpvars
0!
0"
bx #
bx $
0%
b0 &
0'
b100000 (
b11000 )
b1100100 *
0+
0,
bx -
bx .
0/
00
01
bx 2
b100000 3
b11000 4
b0 5
b0 6
$end
#5000
1!
b0 #
b0 $
1+
b0 -
b0 .
b0 2
#10000
0!
0+
#15000
1!
1+
#20000
0!
0+
#25000
1!
1+
#30000
0!
0+
#35000
1!
1+
#40000
0!
0+
#45000
1!
1+
#50000
0!
1"
0+
1,
#55000
1!
1+
#60000
0!
0+
#65000
1!
1+
#70000
0!
0+
#75000
1!
1+
#80000
0!
0+
#85000
1!
1+
#90000
0!
0+
#95000
1!
1+
#100000
0!
0+
#105000
1!
1+
#110000
0!
0+
#115000
1!
1+
#120000
0!
0+
#125000
1!
1+
#130000
0!
0+
#135000
1!
1+
#140000
0!
0+
#145000
1!
1+
#150000
0!
0+
#155000
1!
1+
#160000
0!
0+
#165000
1!
1+
#170000
0!
0+
#175000
1!
1+
#180000
0!
0+
#185000
1!
1+
#190000
0!
0+
#195000
1!
1+
#200000
0!
0+
#205000
1!
b1111011 #
b111 $
1%
1+
b1111011 -
b111 .
1/
b1111011 2
b110110011 5
b11001 6
#210000
0!
0+
#215000
1!
b110110011 #
b11001 $
1+
b110110011 -
b11001 .
11
b110110011 2
b1000011001 5
b1101 6
#220000
0!
0+
#225000
1!
b1000011001 #
b1101 $
1+
b1000011001 -
b1101 .
b1000011001 2
b10010 5
b110 6
#230000
0!
0+
#235000
1!
b10010 #
b110 $
1+
b10010 -
b110 .
b10010 2
b111111 5
b11 6
#240000
0!
0+
#245000
1!
b111111 #
b11 $
1+
b111111 -
b11 .
b111111 2
b11010011 5
b1011 6
#250000
0!
0+
#255000
1!
b11010011 #
b1011 $
1+
b11010011 -
b1011 .
b11010011 2
b100011 5
b111 6
#260000
0!
0+
#265000
1!
b100011 #
b111 $
1+
b100011 -
b111 .
b100011 2
b100111001 5
b101 6
#270000
0!
0+
#275000
1!
b100111001 #
b101 $
1+
b100111001 -
b101 .
b100111001 2
b11001111 5
b10101 6
#280000
0!
0+
#285000
1!
b11001111 #
b10101 $
1+
b11001111 -
b10101 .
b11001111 2
b101100110 5
b110 6
#290000
0!
0+
#295000
1!
b101100110 #
b110 $
1+
b101100110 -
b110 .
b101100110 2
b11111111111111111111111110000101 5
b111 6
#300000
0!
0+
#305000
1!
b11111111111111111111111110000101 #
b111 $
1+
b11111111111111111111111110000101 -
b111 .
b1111011 2
b11111111111111111111111100000100 5
b11 6
#310000
0!
0+
#315000
1!
b11111111111111111111111100000100 #
b11 $
1+
b11111111111111111111111100000100 -
b11 .
b11111100 2
b11111111111111111111110101001011 5
b1111 6
#320000
0!
0+
#325000
1!
b11111111111111111111110101001011 #
b1111 $
1+
b11111111111111111111110101001011 -
b1111 .
b1010110101 2
b11111111111111111111110100011010 5
b11101 6
#330000
0!
0+
#335000
1!
b11111111111111111111110100011010 #
b11101 $
1+
b11111111111111111111110100011010 -
b11101 .
b1011100110 2
b11111111111111111111111000111001 5
b1001 6
#340000
0!
0+
#345000
1!
b11111111111111111111111000111001 #
b1001 $
1+
b11111111111111111111111000111001 -
b1001 .
b111000111 2
b11111111111111111111110110000111 5
b1110 6
#350000
0!
0+
#355000
1!
b11111111111111111111110110000111 #
b1110 $
1+
b11111111111111111111110110000111 -
b1110 .
b1001111001 2
b11111111111111111111111000000011 5
b10011 6
#360000
0!
0+
#365000
1!
b11111111111111111111111000000011 #
b10011 $
1+
b11111111111111111111111000000011 -
b10011 .
b111111101 2
b11111111111111111111110010011001 5
b100001 6
#370000
0!
0+
#375000
1!
b11111111111111111111110010011001 #
b100001 $
1+
b11111111111111111111110010011001 -
b100001 .
b1101100111 2
b11111111111111111111110001010111 5
b101110 6
#380000
0!
0+
#385000
1!
b11111111111111111111110001010111 #
b101110 $
1+
b11111111111111111111110001010111 -
b101110 .
b1110101001 2
b11111111111111111111110100001100 5
b10111 6
#390000
0!
0+
#395000
1!
b11111111111111111111110100001100 #
b10111 $
1+
b11111111111111111111110100001100 -
b10111 .
b1011110100 2
b11111111111111111111111010101101 5
b111111111111111111101111 6
#400000
0!
0+
#405000
1!
b11111111111111111111111010101101 #
b111111111111111111101111 $
1+
b11111111111111111111111010101101 -
b111111111111111111101111 .
b101010011 2
b11111111111111111111110010110110 5
b111111111111111111111000 6
#410000
0!
0+
#415000
1!
b11111111111111111111110010110110 #
b111111111111111111111000 $
1+
b11111111111111111111110010110110 -
b111111111111111111111000 .
b1101001010 2
b11111111111111111111110110101101 5
b111111111111111111101000 6
#420000
0!
0+
#425000
1!
b11111111111111111111110110101101 #
b111111111111111111101000 $
1+
b11111111111111111111110110101101 -
b111111111111111111101000 .
b1001010011 2
b11111111111111111111110010101100 5
b111111111111111111011100 6
#430000
0!
0+
#435000
1!
b11111111111111111111110010101100 #
b111111111111111111011100 $
1+
b11111111111111111111110010101100 -
b111111111111111111011100 .
b1101010100 2
b11111111111111111111110001001111 5
b111111111111111111010111 6
#440000
0!
0+
#445000
1!
b11111111111111111111110001001111 #
b111111111111111111010111 $
1+
b11111111111111111111110001001111 -
b111111111111111111010111 .
b1110110001 2
b11111111111111111111111010111111 5
b111111111111111111100100 6
#450000
0!
0+
#455000
1!
b11111111111111111111111010111111 #
b111111111111111111100100 $
1+
b11111111111111111111111010111111 -
b111111111111111111100100 .
b101000001 2
b11111111111111111111111100111110 5
b111111111111111111110111 6
#460000
0!
0+
#465000
1!
b11111111111111111111111100111110 #
b111111111111111111110111 $
1+
b11111111111111111111111100111110 -
b111111111111111111110111 .
b11000010 2
b11111111111111111111110111011110 5
b111111111111111111110100 6
#470000
0!
0+
#475000
1!
b11111111111111111111110111011110 #
b111111111111111111110100 $
1+
b11111111111111111111110111011110 -
b111111111111111111110100 .
b1000100010 2
b11111111111111111111111000010111 5
b111111111111111111110011 6
#480000
0!
0+
#485000
1!
b11111111111111111111111000010111 #
b111111111111111111110011 $
1+
b11111111111111111111111000010111 -
b111111111111111111110011 .
b111101001 2
b11111111111111111111110000110011 5
b111111111111111111101110 6
#490000
0!
0+
#495000
1!
b11111111111111111111110000110011 #
b111111111111111111101110 $
1+
b11111111111111111111110000110011 -
b111111111111111111101110 .
b1111001101 2
b111001001 5
b111 6
#500000
0!
0+
#505000
1!
b111001001 #
b111 $
1+
b111001001 -
b111 .
b111001001 2
b1010011010 5
b1001 6
#510000
0!
0+
#515000
1!
b1010011010 #
b1001 $
1+
b1010011010 -
b1001 .
b1010011010 2
#520000
0!
0+
#525000
1!
0%
1+
0/
#530000
0!
0+
#535000
1!
b10001 &
1'
1+
10
#540000
0!
0+
#545000
1!
1+
#550000
0!
0+
#555000
1!
b101001 &
1+
#560000
0!
0+
#565000
1!
b11 &
1+
#570000
0!
0+
#575000
1!
b10101 &
1+
#580000
0!
0+
#585000
1!
b10011 &
1+
#590000
0!
0+
#595000
1!
b101 &
1+
#600000
0!
0+
#605000
1!
b111110 &
1+
#610000
0!
0+
#615000
1!
b1001 &
1+
#620000
0!
0+
#625000
1!
b111011 &
1+
#630000
0!
0+
#635000
1!
b11111111111111111111111111101111 &
1+
#640000
0!
0+
#645000
1!
b11111111111111111111111110101100 &
1+
#650000
0!
0+
#655000
1!
b11111111111111111111111111010010 &
1+
#660000
0!
0+
#665000
1!
b11111111111111111111111111100111 &
1+
#670000
0!
0+
#675000
1!
b11111111111111111111111111001110 &
1+
#680000
0!
0+
#685000
1!
b11111111111111111111111111010011 &
1+
#690000
0!
0+
#695000
1!
b11111111111111111111111111100110 &
1+
#700000
0!
0+
#705000
1!
1+
#710000
0!
0+
#715000
1!
b11111111111111111111111111101100 &
1+
#720000
0!
0+
#725000
1!
b11111111111111111111111111100000 &
1+
#730000
0!
0+
#735000
1!
b10011 &
1+
#740000
0!
0+
#745000
1!
b1101001 &
1+
#750000
0!
0+
#755000
1!
b11000 &
1+
#760000
0!
0+
#765000
1!
b10111 &
1+
#770000
0!
0+
#775000
1!
1+
#780000
0!
0+
#785000
1!
b1011 &
1+
#790000
0!
0+
#795000
1!
b10101 &
1+
#800000
0!
0+
#805000
1!
b101101 &
1+
#810000
0!
0+
#815000
1!
b100101 &
1+
#820000
0!
0+
#825000
1!
b110110 &
1+
#830000
0!
0+
#835000
1!
b1000001 &
1+
#840000
0!
0+
#845000
1!
b1001010 &
1+
#850000
0!
0+
#855000
1!
0'
1+
00
